<svg width="403" height="402" viewBox="0 0 403 402" fill="none" xmlns="http://www.w3.org/2000/svg">
<path d="M182.549 3H3V103.833H182.549V3Z" stroke="#333333" stroke-width="4.1472" stroke-linejoin="bevel"/>
<path d="M182.548 101.97V105.435" stroke="#333333" stroke-width="4.15814" stroke-linejoin="bevel"/>
<path d="M182.548 112.549V194.356" stroke="#333333" stroke-width="4.15814" stroke-linejoin="bevel" stroke-dasharray="7.11 7.11"/>
<path d="M182.548 197.912V201.377H179.083" stroke="#333333" stroke-width="4.15814" stroke-linejoin="bevel"/>
<path d="M172.178 201.377H9.91699" stroke="#333333" stroke-width="4.15814" stroke-linejoin="bevel" stroke-dasharray="6.9 6.9"/>
<path d="M6.46522 201.377H3V197.912" stroke="#333333" stroke-width="4.15814" stroke-linejoin="bevel"/>
<path d="M3 190.798V108.991" stroke="#333333" stroke-width="4.15814" stroke-linejoin="bevel" stroke-dasharray="7.11 7.11"/>
<path d="M3 105.435V101.97" stroke="#333333" stroke-width="4.15814" stroke-linejoin="bevel"/>
<path d="M182.549 201.282H3V300.164H182.549V201.282Z" stroke="#333333" stroke-width="4.1472" stroke-linejoin="bevel"/>
<path d="M182.549 300.424H3V399.306H182.549V300.424Z" fill="#DEE8B7" stroke="#333333" stroke-width="4.1472" stroke-miterlimit="10"/>
<path d="M400.351 3H220.802V101.882H400.351V3Z" stroke="#333333" stroke-width="4.1472" stroke-linejoin="bevel"/>
<path d="M400.35 102.142H220.801V201.024H400.35V102.142Z" fill="#DEE8B7"/>
<path d="M400.35 197.567V201.023H396.894" stroke="#333333" stroke-width="4.1472" stroke-miterlimit="10"/>
<path d="M389.989 201.023H227.71" stroke="#333333" stroke-width="4.1472" stroke-miterlimit="10" stroke-dasharray="6.91 6.91"/>
<path d="M224.257 201.023H220.801V197.567" stroke="#333333" stroke-width="4.1472" stroke-miterlimit="10"/>
<path d="M220.801 190.493V109.135" stroke="#333333" stroke-width="4.1472" stroke-miterlimit="10" stroke-dasharray="7.07 7.07"/>
<path d="M220.801 105.598V102.142H224.257" stroke="#333333" stroke-width="4.1472" stroke-miterlimit="10"/>
<path d="M231.162 102.142H393.441" stroke="#333333" stroke-width="4.1472" stroke-miterlimit="10" stroke-dasharray="6.91 6.91"/>
<path d="M396.894 102.142H400.35V105.598" stroke="#333333" stroke-width="4.1472" stroke-miterlimit="10"/>
<path d="M400.349 112.673V194.031" stroke="#333333" stroke-width="4.1472" stroke-miterlimit="10" stroke-dasharray="7.07 7.07"/>
<path d="M400.351 201.282H220.802V300.164H400.351V201.282Z" stroke="#333333" stroke-width="4.1472" stroke-linejoin="bevel"/>
<path d="M63.37 74.0391H24.3374C20.7446 74.0391 17.832 76.9516 17.832 80.5444C17.832 84.1372 20.7446 87.0497 24.3374 87.0497H63.37C66.9628 87.0497 69.8754 84.1372 69.8754 80.5444C69.8754 76.9516 66.9628 74.0391 63.37 74.0391Z" fill="#95C23F"/>
<path d="M383.436 269.2H344.404C340.811 269.2 337.898 272.113 337.898 275.706C337.898 279.298 340.811 282.211 344.404 282.211H383.436C387.029 282.211 389.942 279.298 389.942 275.706C389.942 272.113 387.029 269.2 383.436 269.2Z" fill="#95C23F"/>
<path d="M60.7684 371.985H21.7358C18.143 371.985 15.2305 374.898 15.2305 378.491C15.2305 382.084 18.143 384.996 21.7358 384.996H60.7684C64.3613 384.996 67.2738 382.084 67.2738 378.491C67.2738 374.898 64.3613 371.985 60.7684 371.985Z" fill="#95C23F"/>
<path d="M79.4361 347.891H18.5293V361.105H79.4361V347.891Z" fill="#DEE8B7" stroke="#333333" stroke-width="1.79021" stroke-miterlimit="10" stroke-dasharray="2.98 2.98"/>
<path d="M79.4361 324.056H18.5293V337.27H79.4361V324.056Z" fill="#DEE8B7" stroke="#333333" stroke-width="1.79021" stroke-miterlimit="10" stroke-dasharray="2.98 2.98"/>
<path d="M162.805 323.846H97.751V375.889H162.805V323.846Z" fill="#FFFFFD" stroke="#333333" stroke-width="2.9641" stroke-miterlimit="10"/>
<path d="M304.636 125.764H239.582V177.807H304.636V125.764Z" fill="#FFFFFD" stroke="#333333" stroke-width="2.9641" stroke-miterlimit="10"/>
<path d="M384.687 125.764H319.633V177.807H384.687V125.764Z" fill="#FFFFFD" stroke="#333333" stroke-width="2.9641" stroke-miterlimit="10"/>
<path d="M20.9391 260.387L13.7881 254.17L20.8902 247.638" fill="#FFFFFD"/>
<path d="M20.9391 260.387L13.7881 254.17L20.8902 247.638" stroke="#333333" stroke-width="2.9641" stroke-linecap="round" stroke-linejoin="round"/>
<path d="M163.736 248.614L170.887 254.831L163.785 261.363" fill="#FFFFFD"/>
<path d="M163.736 248.614L170.887 254.831L163.785 261.363" stroke="#333333" stroke-width="2.9641" stroke-linecap="round" stroke-linejoin="round"/>
<path d="M20.1299 58.4961H98.6231" stroke="#333333" stroke-width="4.77734" stroke-linecap="round" stroke-linejoin="round"/>
<path d="M20.1299 46.668H98.6231" stroke="#333333" stroke-width="4.77734" stroke-linecap="round" stroke-linejoin="round"/>
<path d="M279.51 74.0391H240.477C236.884 74.0391 233.972 76.9516 233.972 80.5444C233.972 84.1372 236.884 87.0497 240.477 87.0497H279.51C283.102 87.0497 286.015 84.1372 286.015 80.5444C286.015 76.9516 283.102 74.0391 279.51 74.0391Z" fill="#95C23F"/>
<path d="M236.269 58.4961H314.762" stroke="#333333" stroke-width="4.77734" stroke-linecap="round" stroke-linejoin="round"/>
<path d="M236.269 46.668H314.762" stroke="#333333" stroke-width="4.77734" stroke-linecap="round" stroke-linejoin="round"/>
<path d="M40.2295 18.3457H88.5081" stroke="#333333" stroke-width="4.77734" stroke-linecap="round" stroke-linejoin="round"/>
<path d="M238.711 234.142H317.204" stroke="#333333" stroke-width="4.77734" stroke-linecap="round" stroke-linejoin="round"/>
<path d="M238.711 222.313H317.204" stroke="#333333" stroke-width="4.77734" stroke-linecap="round" stroke-linejoin="round"/>
<path d="M238.711 257.562H317.204" stroke="#333333" stroke-width="4.77734" stroke-linecap="round" stroke-linejoin="round"/>
<path d="M238.711 245.733H317.204" stroke="#333333" stroke-width="4.77734" stroke-linecap="round" stroke-linejoin="round"/>
<path d="M61.4189 275.696H119.948" stroke="#333333" stroke-width="4.77734" stroke-linecap="round" stroke-linejoin="round"/>
<path d="M50.2373 263.869H128.731" stroke="#333333" stroke-width="4.77734" stroke-linecap="round" stroke-linejoin="round"/>
<path d="M79.0361 252.675V246.153C79.0361 242.059 82.3867 238.708 86.4815 238.708H93.1032C97.198 238.708 100.549 242.059 100.549 246.153V252.675" fill="#DEE8B7"/>
<path d="M89.8832 235.276C94.0794 235.276 97.4812 231.874 97.4812 227.678C97.4812 223.482 94.0794 220.08 89.8832 220.08C85.6869 220.08 82.2852 223.482 82.2852 227.678C82.2852 231.874 85.6869 235.276 89.8832 235.276Z" fill="#DEE8B7"/>
<path d="M78.6641 252.9V246.378C78.6641 242.283 82.0147 238.933 86.1094 238.933H92.7311C96.8259 238.933 100.177 242.283 100.177 246.378V252.9" stroke="#333333" stroke-width="1.728" stroke-linejoin="round"/>
<path d="M89.5111 235.501C93.7074 235.501 97.1091 232.099 97.1091 227.903C97.1091 223.706 93.7074 220.305 89.5111 220.305C85.3148 220.305 81.9131 223.706 81.9131 227.903C81.9131 232.099 85.3148 235.501 89.5111 235.501Z" stroke="#333333" stroke-width="1.728" stroke-linejoin="round"/>
<path d="M26.0756 25.2889C30.1516 25.2889 33.4559 21.9846 33.4559 17.9086C33.4559 13.8326 30.1516 10.5283 26.0756 10.5283C21.9996 10.5283 18.6953 13.8326 18.6953 17.9086C18.6953 21.9846 21.9996 25.2889 26.0756 25.2889Z" fill="#DEE8B7" stroke="#333333" stroke-width="2.61389" stroke-miterlimit="10"/>
<path d="M254.627 18.3457H302.906" stroke="#333333" stroke-width="4.77734" stroke-linecap="round" stroke-linejoin="round"/>
<path d="M240.473 25.2889C244.549 25.2889 247.853 21.9846 247.853 17.9086C247.853 13.8326 244.549 10.5283 240.473 10.5283C236.397 10.5283 233.093 13.8326 233.093 17.9086C233.093 21.9846 236.397 25.2889 240.473 25.2889Z" fill="#DEE8B7" stroke="#333333" stroke-width="2.61389" stroke-miterlimit="10"/>
<path d="M122.616 179.332H161.389" stroke="#333333" stroke-width="4.20134" stroke-linecap="round" stroke-linejoin="round"/>
<path d="M122.616 168.93H161.389" stroke="#333333" stroke-width="4.20134" stroke-linecap="round" stroke-linejoin="round"/>
<path d="M140.442 157.197C146.13 157.197 150.741 152.586 150.741 146.898C150.741 141.211 146.13 136.6 140.442 136.6C134.755 136.6 130.144 141.211 130.144 146.898C130.144 152.586 134.755 157.197 140.442 157.197Z" fill="#DEE8B7" stroke="#333333" stroke-width="3.64723" stroke-miterlimit="10"/>
<path d="M70.2637 179.332H109.037" stroke="#333333" stroke-width="4.20134" stroke-linecap="round" stroke-linejoin="round"/>
<path d="M70.2637 168.93H109.037" stroke="#333333" stroke-width="4.20134" stroke-linecap="round" stroke-linejoin="round"/>
<path d="M88.0899 157.197C93.7778 157.197 98.3888 152.586 98.3888 146.898C98.3888 141.211 93.7778 136.6 88.0899 136.6C82.402 136.6 77.791 141.211 77.791 146.898C77.791 152.586 82.402 157.197 88.0899 157.197Z" fill="#DEE8B7" stroke="#333333" stroke-width="3.64723" stroke-miterlimit="10"/>
<path d="M17.9121 179.332H56.685" stroke="#333333" stroke-width="4.20134" stroke-linecap="round" stroke-linejoin="round"/>
<path d="M17.9121 168.93H56.685" stroke="#333333" stroke-width="4.20134" stroke-linecap="round" stroke-linejoin="round"/>
<path d="M35.7393 157.197C41.4272 157.197 46.0382 152.586 46.0382 146.898C46.0382 141.211 41.4272 136.6 35.7393 136.6C30.0514 136.6 25.4404 141.211 25.4404 146.898C25.4404 152.586 30.0514 157.197 35.7393 157.197Z" fill="#DEE8B7" stroke="#333333" stroke-width="3.64723" stroke-miterlimit="10"/>
<path d="M180.797 59.2109C179.694 59.2109 178.671 59.5514 177.827 60.1331L166.167 68.882L167.446 67.9068C163.514 71.1347 158.438 73.0793 152.896 73.0793C147.354 73.0793 142.278 71.1347 138.345 67.9068L139.625 68.882L127.965 60.1331C127.12 59.5514 126.097 59.2109 124.995 59.2109C122.101 59.2109 119.754 61.5576 119.754 64.452C119.754 66.1748 120.585 67.7035 121.868 68.6585L139.36 81.626C140.505 82.5153 141.243 83.9058 141.243 85.4685V90.6698V98.1088C141.243 100.879 138.997 103.124 136.228 103.124" stroke="#3B3735" stroke-width="2.51366" stroke-linecap="round" stroke-linejoin="round"/>
<path d="M169.563 103.125C166.793 103.125 164.548 100.88 164.548 98.1097V85.4688C164.548 83.9061 165.285 82.5156 166.431 81.6263L180.667 70.6748" stroke="#3B3735" stroke-width="2.51366" stroke-linecap="round" stroke-linejoin="round"/>
<path d="M153.262 66.4945C160.677 66.4945 166.688 60.4835 166.688 53.0686C166.688 45.6536 160.677 39.6426 153.262 39.6426C145.847 39.6426 139.836 45.6536 139.836 53.0686C139.836 60.4835 145.847 66.4945 153.262 66.4945Z" stroke="#3B3735" stroke-width="2.51366" stroke-linejoin="round"/>
<path d="M133.593 18.209L143.467 33.9142" stroke="#95C23F" stroke-width="2.09434" stroke-miterlimit="10" stroke-linecap="round"/>
<path d="M153.802 12.0166L154.033 30.5667" stroke="#95C23F" stroke-width="2.09434" stroke-miterlimit="10" stroke-linecap="round"/>
<path d="M120.467 33.8379L136.909 42.4289" stroke="#95C23F" stroke-width="2.09434" stroke-miterlimit="10" stroke-linecap="round"/>
<path d="M174.286 18.209L164.412 33.9142" stroke="#95C23F" stroke-width="2.09434" stroke-miterlimit="10" stroke-linecap="round"/>
<path d="M397.4 59.2109C396.298 59.2109 395.274 59.5514 394.43 60.1331L382.77 68.882L384.05 67.9068C380.117 71.1347 375.042 73.0793 369.499 73.0793C363.958 73.0793 358.881 71.1347 354.949 67.9068L356.228 68.882L344.568 60.1331C343.724 59.5514 342.701 59.2109 341.598 59.2109C338.704 59.2109 336.357 61.5576 336.357 64.452C336.357 66.1748 337.189 67.7035 338.472 68.6585L355.963 81.626C357.109 82.5153 357.846 83.9058 357.846 85.4685V90.6698V98.1088C357.846 100.879 355.601 103.124 352.831 103.124" stroke="#3B3735" stroke-width="2.51366" stroke-linecap="round" stroke-linejoin="round"/>
<path d="M386.168 103.125C383.398 103.125 381.152 100.88 381.152 98.1097V85.4688C381.152 83.9061 381.89 82.5156 383.035 81.6263L397.272 70.6748" stroke="#3B3735" stroke-width="2.51366" stroke-linecap="round" stroke-linejoin="round"/>
<path d="M369.866 66.4945C377.281 66.4945 383.292 60.4835 383.292 53.0686C383.292 45.6536 377.281 39.6426 369.866 39.6426C362.451 39.6426 356.44 45.6536 356.44 53.0686C356.44 60.4835 362.451 66.4945 369.866 66.4945Z" stroke="#3B3735" stroke-width="2.51366" stroke-linejoin="round"/>
<path d="M350.197 18.209L360.071 33.9142" stroke="#95C23F" stroke-width="2.09434" stroke-miterlimit="10" stroke-linecap="round"/>
<path d="M370.406 12.0166L370.637 30.5667" stroke="#95C23F" stroke-width="2.09434" stroke-miterlimit="10" stroke-linecap="round"/>
<path d="M337.071 33.8379L353.513 42.4289" stroke="#95C23F" stroke-width="2.09434" stroke-miterlimit="10" stroke-linecap="round"/>
<path d="M390.89 18.209L381.017 33.9142" stroke="#95C23F" stroke-width="2.09434" stroke-miterlimit="10" stroke-linecap="round"/>
</svg>
