{
  "animation": {
    "duration": {
      "base": {
        "value": "{global.animation.duration.base.value}",
        "name": "",
        "comment": ""
      },
      "small": {
        "value": "{global.animation.duration.short.value}",
        "name": "",
        "comment": ""
      },
      "large": {
        "value": "{global.animation.duration.longer.value}",
        "name": "",
        "comment": ""
      },
      "reduced": {
        "value": "{global.animation.duration.shortest.value}",
        "name": "",
        "comment": ""
      },
      "sweep": {
        "value": "{global.animation.duration.longest.value}",
        "name": "",
        "comment": ""
      }
    },
    "rotation": {
      "45": {
        "value": "{global.animation.rotation.smallest-2.value}",
        "name": "",
        "comment": ""
      },
      "90": {
        "value": "{global.animation.rotation.smallest.value}",
        "name": "",
        "comment": ""
      },
      "135": {
        "value": "{global.animation.rotation.smaller.value}",
        "name": "",
        "comment": ""
      },
      "180": {
        "value": "{global.animation.rotation.small.value}",
        "name": "",
        "comment": ""
      },
      "225": {
        "value": "{global.animation.rotation.base.value}",
        "name": "",
        "comment": ""
      },
      "270": {
        "value": "{global.animation.rotation.large.value}",
        "name": "",
        "comment": ""
      },
      "315": {
        "value": "{global.animation.rotation.larger.value}",
        "name": "",
        "comment": ""
      },
      "360": {
        "value": "{global.animation.rotation.largest.value}",
        "name": "",
        "comment": ""
      }
    }
  }
}
