<?xml version="1.0" encoding="UTF-8"?>
<svg width="123.119027px" height="200.663645px" viewBox="0 0 123.119027 200.663645" version="1.1" xmlns="http://www.w3.org/2000/svg" xmlns:xlink="http://www.w3.org/1999/xlink">
    <title>adhd</title>
    <defs>
        <polygon id="path-1" points="0 200.663645 123.119027 200.663645 123.119027 0 0 0"></polygon>
    </defs>
    <g id="Forts-matris-grovskisser---david" stroke="none" stroke-width="1" fill="none" fill-rule="evenodd">
        <g id="Matris-annas-linjer" transform="translate(-655.000000, -2636.000000)">
            <g id="adhd" transform="translate(655.000000, 2636.000000)">
                <path d="M88.2993157,50.3368137 C88.2993157,65.5341151 76.0054273,77.8532365 60.8411521,77.8532365 C45.6760272,77.8532365 33.3821388,65.5341151 33.3821388,50.3368137 C33.3821388,35.1395124 45.6760272,22.820391 60.8411521,22.820391 C76.0054273,22.820391 88.2993157,35.1395124 88.2993157,50.3368137" id="Fill-1" fill="#DDEBC1"></path>
                <path d="M47.7922789,64.0561101 C47.7922789,65.1997183 48.7176344,66.1278888 49.8596711,66.1278888 C51.000858,66.1278888 51.9262136,65.1997183 51.9262136,64.0561101 C51.9262136,62.9125019 51.000858,61.9843314 49.8596711,61.9843314 C48.7176344,61.9843314 47.7922789,62.9125019 47.7922789,64.0561101" id="Fill-3" fill="#333333"></path>
                <path d="M74.695654,64.0561101 C74.695654,65.1997183 73.7702984,66.1278888 72.6282618,66.1278888 C71.4870749,66.1278888 70.5617193,65.1997183 70.5617193,64.0561101 C70.5617193,62.9125019 71.4870749,61.9843314 72.6282618,61.9843314 C73.7702984,61.9843314 74.695654,62.9125019 74.695654,64.0561101" id="Fill-5" fill="#333333"></path>
                <path d="M61.8427284,141.232634 C47.5239342,141.232634 35.8010641,129.894478 35.1374253,115.706242 C35.8129603,115.616832 36.5131376,115.524866 37.2099159,115.432901 C39.1498486,115.177441 41.2809706,114.896435 43.3483628,114.605211 C43.8615995,116.289542 45.362222,117.529374 47.1806435,117.647737 C46.6631581,118.405601 46.3589549,119.320998 46.3589549,120.307073 C46.3589549,122.911059 48.473932,125.030524 51.0724052,125.030524 C51.9918127,125.030524 52.8474904,124.76144 53.5731596,124.303315 C53.6589823,126.701231 55.6201583,128.6291 58.0333904,128.6291 C59.4091027,128.6291 60.6259156,127.991303 61.4476041,127.009485 C62.2692927,127.991303 63.4869553,128.6291 64.8626676,128.6291 C67.2758997,128.6291 69.236226,126.701231 69.3220487,124.303315 C70.0477178,124.76144 70.9042453,125.030524 71.822803,125.030524 C74.422126,125.030524 76.5362534,122.911059 76.5362534,120.307073 C76.5362534,119.320998 76.2328999,118.405601 75.7154145,117.647737 C77.596716,117.525116 79.1432239,116.202686 79.6012282,114.429795 C81.5411609,114.518355 85.3725919,115.042047 88.5531299,115.536787 C87.9753138,129.803364 76.2184545,141.232634 61.8427284,141.232634 L61.8427284,141.232634 Z M42.8121834,102.573056 L42.819831,102.424889 C42.8325769,102.029778 42.6243931,101.659362 42.2802526,101.466064 C41.9361121,101.271914 41.512097,101.285539 41.1815522,101.500125 C39.6826291,102.473427 37.9500304,102.988604 36.1715463,102.988604 C31.0833652,102.988604 26.9434824,98.8399373 26.9434824,93.7401089 C26.9434824,92.5786185 27.1627126,91.4350103 27.5960747,90.3390879 C27.730332,89.9984749 27.6411104,89.6152852 27.4244293,89.3198034 C27.2077483,89.0243216 26.8143235,88.8548667 26.4506392,88.8914826 C26.2619992,88.9051071 26.0725095,88.9195831 25.8813203,88.9195831 C20.8747133,88.9195831 16.8019591,84.8381876 16.8019591,79.8218094 C16.8019591,77.4494397 17.713719,75.2005423 19.3698421,73.4906649 C19.6298593,73.2224322 19.7292777,72.8358364 19.6324085,72.4730835 C19.5355394,72.1111822 19.2551286,71.8267703 18.8948432,71.7254379 C15.2010685,70.6831621 12.6212893,67.2727743 12.6212893,63.4306594 C12.6212893,59.3739584 15.3778122,55.9184393 19.3256561,55.0251816 C19.7046356,54.9383253 20.0071393,54.6522104 20.1133555,54.2783876 C20.2195717,53.9037133 20.1142052,53.5009384 19.8363436,53.2275964 C18.1241384,51.5381559 17.1809385,49.2850007 17.1809385,46.8819759 C17.1809385,41.9703362 21.1687197,37.9732424 26.0699603,37.9732424 C26.6792164,37.9732424 27.2961202,38.0379589 27.9028271,38.1656887 C28.3106973,38.2499905 28.7321633,38.0881993 28.9785848,37.7501409 C29.2241567,37.4112309 29.2496486,36.9590671 29.0414648,36.5954627 C28.3472357,35.3769197 27.9793028,33.9957339 27.9793028,32.6026266 C27.9793028,28.1584783 31.5872548,24.5437226 36.0211441,24.5437226 C38.6349125,24.5437226 40.8815976,25.155123 42.0312819,26.1795166 C42.3431326,26.4579678 42.788391,26.528645 43.1690698,26.3566354 C43.5505984,26.1863289 43.79702,25.8082484 43.7995692,25.3901459 C43.8242114,20.5721748 47.7550607,16.6525705 52.5611316,16.6525705 C56.1571874,16.6525705 59.4243979,18.8946557 60.7287329,22.2437332 C60.7610226,22.3629477 60.8128561,22.4779046 60.8850831,22.5817916 C61.2819069,23.1557245 62.2404019,23.1557245 62.6372256,22.5817916 C62.7137013,22.4702408 62.768084,22.3467686 62.7986743,22.2173357 C64.1098071,18.8827342 67.36937,16.6525705 70.9560788,16.6525705 C75.7621497,16.6525705 79.692999,20.5721748 79.7176411,25.3901459 C79.7201903,25.8082484 79.9657622,26.1863289 80.3472908,26.3566354 C80.7279697,26.5269419 81.1740777,26.4579678 81.4850788,26.1803682 C82.6356127,25.1559745 84.8822979,24.5437226 87.4952165,24.5437226 C91.9299555,24.5437226 95.5379076,28.1584783 95.5379076,32.6026266 C95.5379076,33.9965854 95.1708244,35.3769197 94.4748958,36.5946112 C94.2675618,36.9590671 94.2922039,37.4103794 94.5386255,37.7501409 C94.7850471,38.0881993 95.2056633,38.2499905 95.615233,38.1656887 C96.2210902,38.0379589 96.8379939,37.9732424 97.4464004,37.9732424 C102.348491,37.9732424 106.336272,41.9703362 106.336272,46.8819759 C106.336272,49.2841492 105.393072,51.5373043 103.680867,53.2275964 C103.403855,53.5017899 103.298488,53.9037133 103.404705,54.2783876 C103.511771,54.6522104 103.813425,54.9383253 104.192404,55.0251816 C108.138548,55.9184393 110.895921,59.3739584 110.895921,63.4306594 C110.895921,67.2727743 108.315292,70.6831621 104.622367,71.7254379 C104.262082,71.8267703 103.981671,72.1111822 103.884802,72.4730835 C103.787083,72.8358364 103.886501,73.2224322 104.147368,73.4906649 C105.802642,75.2005423 106.715251,77.4494397 106.715251,79.8218094 C106.715251,84.8381876 102.642497,88.9195831 97.6358901,88.9195831 C97.4438512,88.9195831 97.2552112,88.9051071 96.9841474,88.8846703 C96.6128156,88.8574213 96.2669756,89.0226186 96.051994,89.3172488 C95.835313,89.6127306 95.7860286,89.9984749 95.9202859,90.3390879 C96.353648,91.4350103 96.573728,92.5786185 96.573728,93.7401089 C96.573728,98.8399373 92.4338452,102.988604 87.3456641,102.988604 C85.5663302,102.988604 83.8345812,102.473427 82.3373576,101.500125 C82.0059631,101.285539 81.5861966,101.271914 81.2429058,101.462658 C80.8996151,101.654252 80.6897318,102.020411 80.6965297,102.414671 C80.6982291,102.470021 80.7016281,102.526222 80.7092756,102.64203 C80.7092756,105.244314 79.1551201,107.734195 76.6475679,109.220119 C76.2617907,109.106014 75.861568,109.02597 75.4384027,109.02597 C74.5623314,109.02597 73.7482904,109.292499 73.0668072,109.743812 L72.438857,97.9305005 C79.8969341,94.1420322 84.5908406,85.8293715 84.5908406,75.1945815 L84.5908406,52.1435955 L82.4665165,52.1435955 L82.4665165,75.1945815 C82.4665165,90.9777373 72.5748138,98.0420513 62.7706332,98.0420513 L60.1254248,98.0420513 C50.3203945,98.0420513 40.4286918,90.9777373 40.4286918,75.1945815 L40.4286918,52.1435955 L38.3043676,52.1435955 L38.3043676,75.1945815 C38.3043676,85.8276685 42.9965747,94.1386261 50.4521026,97.9287975 L49.8267016,109.743812 C49.1460681,109.291648 48.3328769,109.02597 47.4568056,109.02597 C47.1925397,109.02597 46.9367711,109.058328 46.6861008,109.104311 C44.2890135,107.606465 42.8087845,105.175339 42.8121834,102.573056 L42.8121834,102.573056 Z M73.2724418,113.600402 L73.2545975,113.273414 C73.2962342,112.099151 74.2564287,111.154801 75.4384027,111.154801 C76.6467182,111.154801 77.6298554,112.140024 77.6298554,113.350903 C77.6298554,114.561783 76.6467182,115.547006 75.4384027,115.547006 C74.3159098,115.547006 73.3973521,114.692919 73.2724418,113.600402 L73.2724418,113.600402 Z M69.2336768,120.307073 C69.2336768,118.876498 70.3952572,117.712453 71.822803,117.712453 C73.2503488,117.712453 74.4119293,118.876498 74.4119293,120.307073 C74.4119293,121.736796 73.2503488,122.901692 71.822803,122.901692 C70.3952572,122.901692 69.2336768,121.736796 69.2336768,120.307073 L69.2336768,120.307073 Z M64.8626676,121.786185 C66.159355,121.786185 67.2138695,122.843788 67.2138695,124.144078 C67.2138695,125.443517 66.159355,126.500269 64.8626676,126.500269 C63.5651304,126.500269 62.5097662,125.443517 62.5097662,124.144078 C62.5097662,122.843788 63.5651304,121.786185 64.8626676,121.786185 L64.8626676,121.786185 Z M58.0333904,119.657353 C57.2100024,119.657353 56.4477949,119.896634 55.7850058,120.286636 C55.7748091,117.885314 53.9665844,115.903798 51.6425738,115.621941 L51.7521889,113.56038 C51.7547381,113.489703 51.7725825,113.422432 51.7725825,113.350903 C51.7725825,113.328764 51.7666343,113.307475 51.7666343,113.285335 L52.5305413,98.8382342 C54.8562513,99.7050944 57.4020413,100.170883 60.1254248,100.170883 L62.7706332,100.170883 C65.4906178,100.170883 68.035558,99.7059459 70.3604183,98.8399373 L71.1285739,113.291296 C71.1285739,113.311733 71.1226258,113.330467 71.1226258,113.350903 C71.1226258,113.417323 71.1387707,113.478633 71.1421696,113.544201 L71.2526345,115.621941 C68.9286239,115.90465 67.1203992,117.885314 67.1102025,120.286636 C66.4474133,119.896634 65.6852059,119.657353 64.8626676,119.657353 C63.4869553,119.657353 62.2692927,120.296003 61.4476041,121.276968 C60.6259156,120.296003 59.4091027,119.657353 58.0333904,119.657353 L58.0333904,119.657353 Z M58.0333904,121.786185 C59.3300779,121.786185 60.3854421,122.843788 60.3854421,124.144078 C60.3854421,125.443517 59.3300779,126.500269 58.0333904,126.500269 C56.7358533,126.500269 55.6813388,125.443517 55.6813388,124.144078 C55.6813388,122.843788 56.7358533,121.786185 58.0333904,121.786185 L58.0333904,121.786185 Z M51.0724052,117.712453 C52.499951,117.712453 53.6615314,118.876498 53.6615314,120.307073 C53.6615314,121.736796 52.499951,122.901692 51.0724052,122.901692 C49.6457092,122.901692 48.483279,121.736796 48.483279,120.307073 C48.483279,118.876498 49.6457092,117.712453 51.0724052,117.712453 L51.0724052,117.712453 Z M49.6219167,113.61573 C49.4893589,114.700583 48.5750498,115.547006 47.4568056,115.547006 C46.2484901,115.547006 45.2653529,114.561783 45.2653529,113.350903 C45.2653529,112.140024 46.2484901,111.154801 47.4568056,111.154801 C48.6370801,111.154801 49.5955751,112.096596 49.6406108,113.268305 L49.6219167,113.61573 Z M96.9229669,114.939863 C96.645955,114.437459 96.1174232,114.056824 95.4401887,113.909509 C94.757006,113.761342 94.1069629,113.895033 93.6260159,114.251825 C91.0122475,113.697477 82.8293511,112.439764 79.6105752,112.300112 C79.4355309,111.60441 79.0947893,110.980237 78.6291375,110.464208 C80.8171913,108.868436 82.2863738,106.593141 82.7078397,104.120291 C84.1617272,104.775971 85.7379756,105.117435 87.3456641,105.117435 C93.6056224,105.117435 98.6980521,100.013349 98.6980521,93.7401089 C98.6980521,92.8221568 98.5867375,91.9135716 98.3666576,91.0254231 C104.20515,90.6464911 108.839575,85.7663581 108.839575,79.8218094 C108.839575,77.4264483 108.087565,75.1358258 106.697407,73.2275414 C110.486351,71.5108517 113.020245,67.6823614 113.020245,63.4306594 C113.020245,58.9533013 110.326602,55.0617975 106.294635,53.4549556 C107.700938,51.5628503 108.460596,49.2832977 108.460596,46.8819759 C108.460596,40.6896312 103.32483,35.6451524 97.1277517,35.8495202 C97.4795398,34.8055413 97.6622317,33.7079159 97.6622317,32.6026266 C97.6622317,26.9850664 93.1017327,22.4148912 87.4952165,22.4148912 C86.3217399,22.4148912 83.781898,22.5451757 81.6779674,23.5457265 C80.7798032,18.4305704 76.3042772,14.5237391 70.9560788,14.5237391 C67.1994241,14.5237391 63.7308277,16.4941854 61.7577555,19.595467 C59.7863827,16.4941854 56.3177863,14.5237391 52.5611316,14.5237391 C47.2129332,14.5237391 42.7374072,18.4305704 41.839243,23.5457265 C39.7353124,22.5443242 37.1954705,22.4148912 36.0211441,22.4148912 C30.4163274,22.4148912 25.8549787,26.9850664 25.8549787,32.6026266 C25.8549787,33.7079159 26.0368208,34.8055413 26.3886089,35.8495202 C20.1974787,35.6638861 15.0566144,40.6896312 15.0566144,46.8819759 C15.0566144,49.2832977 15.8162727,51.5637018 17.223425,53.4549556 C13.1906081,55.0617975 10.4969652,58.9533013 10.4969652,63.4306594 C10.4969652,67.6823614 13.030859,71.5108517 16.8198034,73.2275414 C15.4296457,75.1358258 14.677635,77.4264483 14.677635,79.8218094 C14.677635,85.7663581 19.3112107,90.6464911 25.1497031,91.0254231 C24.9304728,91.9135716 24.8191583,92.8221568 24.8191583,93.7401089 C24.8191583,100.013349 29.911588,105.117435 36.1715463,105.117435 C37.7792347,105.117435 39.3554832,104.775971 40.8102204,104.120291 C41.2078938,106.455193 42.5453683,108.610422 44.5345854,110.188312 C43.8887908,110.78779 43.4171909,111.574607 43.2319498,112.470419 C41.116123,112.77101 38.9238206,113.059679 36.9337537,113.321951 C33.3444957,113.7937 31.3884181,114.058527 30.3755404,114.253528 C29.8945934,113.895884 29.2437005,113.759639 28.5596681,113.909509 C27.8926304,114.054269 27.3691969,114.427241 27.0887861,114.918575 C11.4537607,120.032879 0.98934022,134.468911 0.98934022,151.00993 L0.98934022,200.663645 L3.11366432,200.663645 L3.11366432,151.00993 C3.11366432,135.222517 13.2110016,121.468563 28.2393201,116.784283 C28.607253,116.669326 28.877467,116.367883 28.9607405,116.003427 C29.0023773,115.988951 29.0516616,115.980436 29.0924486,115.979584 C29.3473675,116.404499 29.8843966,116.600352 30.3644939,116.436006 C30.6296095,116.346595 31.6569327,116.185655 33.0241477,115.99406 C33.83394,131.222017 46.449876,143.361465 61.8427284,143.361465 C77.2763679,143.361465 89.9177957,131.159855 90.6689567,115.8774 C92.2367079,116.138821 93.3889413,116.354259 93.631964,116.435154 C94.1137607,116.608867 94.6490904,116.413866 94.9074082,115.979584 C94.9481952,115.980436 94.9974795,115.988951 95.0382666,116.002576 C95.1189909,116.356813 95.3756092,116.652295 95.7273973,116.774064 C110.115869,121.7666 119.782394,135.379199 119.782394,150.647177 L119.782394,200.663645 L121.906718,200.663645 L121.906718,150.647177 C121.906718,134.650287 111.888405,120.368383 96.9229669,114.939863 L96.9229669,114.939863 Z" id="Fill-7" fill="#333333"></path>
                <mask id="mask-2" fill="white">
                    <use xlink:href="#path-1"></use>
                </mask>
                <g id="Clip-10"></g>
                <polygon id="Fill-9" fill="#333333" mask="url(#mask-2)" points="25.2293228 200.663645 27.3536469 200.663645 27.3536469 164.409646 25.2293228 164.409646"></polygon>
                <polygon id="Fill-11" fill="#333333" mask="url(#mask-2)" points="98.9289237 200.663645 101.053248 200.663645 101.053248 164.409646 98.9289237 164.409646"></polygon>
                <path d="M44.8730327,50.7997068 C45.6088986,55.0590726 49.3332636,58.3161846 53.7790491,58.3161846 C57.2298011,58.3161846 60.2352949,56.3695812 61.7588601,53.5143926 C63.2824253,56.3695812 66.2870694,58.3161846 69.7378214,58.3161846 C74.1836069,58.3161846 77.9079719,55.0590726 78.6438378,50.7997068 C79.5929858,51.0841187 80.5718743,51.2271762 81.5686072,51.2271762 C84.4721334,51.2271762 87.2626455,49.9830871 89.2238215,47.8133822 C90.9538711,45.899137 91.9072677,43.4322472 91.9072677,40.8665797 L89.7829436,40.8665797 C89.7829436,42.9034455 89.0249848,44.8619704 87.6492725,46.3845106 C86.0900186,48.1097155 83.873074,49.0983448 81.5686072,49.0983448 C80.3908819,49.0983448 79.2428972,48.8454396 78.156093,48.34559 C77.8272476,48.1957203 77.445719,48.2212663 77.144065,48.4154157 C76.839012,48.6095651 76.653771,48.9450689 76.6512218,49.3061187 C76.6240304,53.1005478 73.5225172,56.1873533 69.7378214,56.1873533 C65.9233851,56.1873533 62.8210222,53.0784079 62.8210222,49.2567299 C62.8210222,48.6683209 62.3451736,48.1914626 61.7588601,48.1914626 C61.1725467,48.1914626 60.6966981,48.6683209 60.6966981,49.2567299 C60.6966981,53.0784079 57.5934854,56.1873533 53.7790491,56.1873533 C49.9943532,56.1873533 46.89284,53.1005478 46.8656487,49.3061187 C46.8630995,48.9450689 46.6778584,48.6095651 46.3736552,48.4154157 C46.0703018,48.2212663 45.6887731,48.1957203 45.3607775,48.34559 C44.2739733,48.8454396 43.1259885,49.0983448 41.949113,49.0983448 C39.6437965,49.0983448 37.4268519,48.1097155 35.867598,46.3845106 C34.4918857,44.8619704 33.7347766,42.9034455 33.7347766,40.8665797 L31.6104525,40.8665797 C31.6104525,43.4322472 32.5629994,45.899137 34.2930489,47.8133822 C36.2542249,49.9830871 39.0455868,51.2271762 41.949113,51.2271762 C42.9449961,51.2271762 43.9238847,51.0841187 44.8730327,50.7997068" id="Fill-12" fill="#333333" mask="url(#mask-2)"></path>
                <path d="M55.492189,62.2896058 C52.1790931,60.9016077 48.4640751,60.7040522 45.0286182,61.733555 L45.6370246,63.772124 C48.6034308,62.8839755 51.8111602,63.0551336 54.6721999,64.2540914 L55.492189,62.2896058 Z" id="Fill-13" fill="#333333" mask="url(#mask-2)"></path>
                <path d="M66.9959138,62.2896058 L67.8159029,64.2540914 C70.6777924,63.0551336 73.8863715,62.8839755 76.8510782,63.772124 L77.4594846,61.733555 C74.0248774,60.7032007 70.30816,60.9007562 66.9959138,62.2896058" id="Fill-14" fill="#333333" mask="url(#mask-2)"></path>
                <path d="M64.1296908,87.0847008 C64.1296908,87.809355 63.5425276,88.397764 62.8194077,88.397764 L58.8622167,88.397764 C58.1390968,88.397764 57.5519336,87.809355 57.5519336,87.0847008 L57.5519336,86.9518617 C57.9377109,86.9578224 58.3064935,86.9663378 58.6344892,86.9816654 C58.7857411,87.0336088 59.1205345,87.182627 59.3508113,87.2839594 C60.0977236,87.614354 60.4716047,87.7735906 60.822543,87.782106 L60.8565322,87.782106 C61.2559051,87.782106 61.6561278,87.6092448 62.3146683,87.3103569 C62.5084066,87.2217975 62.8194077,87.0804431 62.9621622,87.0336088 C63.3564368,87.0327573 63.7447632,87.0319058 64.1296908,87.0310542 L64.1296908,87.0847008 Z M62.8729406,84.9047775 C62.4795158,84.905629 62.0911894,85.0742325 61.4368975,85.3714173 C61.2754489,85.4446491 61.0315765,85.5553483 60.8692781,85.6192133 C60.6840371,85.546833 60.3985279,85.4208062 60.2090382,85.3365045 C59.5071615,85.0265466 59.1553735,84.8758254 58.8282275,84.8604978 C57.3318536,84.7838599 55.1573955,84.8221788 53.7205027,84.8460217 L52.9013633,84.8587947 L52.9234563,86.9876261 L53.7561913,86.9748531 C54.2252421,86.9671893 54.8090063,86.9569709 55.4276095,86.9510102 L55.4276095,87.0847008 C55.4276095,88.9827668 56.9681694,90.5265954 58.8622167,90.5265954 L62.8194077,90.5265954 C64.713455,90.5265954 66.2540149,88.9827668 66.2540149,87.0847008 L66.2540149,87.0276481 C67.2532969,87.0267966 68.1387152,87.0267966 68.8193487,87.0284997 L69.2161724,87.0284997 L69.2161724,84.8996683 L68.8193487,84.8996683 C67.4351391,84.8979652 65.1978009,84.8996683 62.8729406,84.9047775 L62.8729406,84.9047775 Z" id="Fill-15" fill="#333333" mask="url(#mask-2)"></path>
                <path d="M54.5237521,72.2610519 L54.5237521,75.0259781 C54.5237521,77.9705776 56.9140416,80.3667902 59.8524067,80.3667902 L62.8757447,80.3667902 L62.8757447,78.2379589 L59.8524067,78.2379589 C58.084969,78.2379589 56.6480762,76.7971658 56.6480762,75.0259781 L56.6480762,72.2610519 L54.5237521,72.2610519 Z" id="Fill-16" fill="#333333" mask="url(#mask-2)"></path>
                <path d="M21.4367244,110.057857 C17.6758211,106.632141 14.3423317,102.74745 11.5288768,98.511927 L13.2963145,97.3334059 C16.0137499,101.422465 19.2333755,105.174318 22.8659697,108.482522 L21.4367244,110.057857 Z" id="Fill-17" fill="#95C23E" mask="url(#mask-2)"></path>
                <path d="M104.190365,109.563202 L102.698239,108.048325 C112.59759,98.2539978 118.794668,85.2485412 120.147438,71.4290195 L122.262415,71.6367934 C120.860361,85.9510555 114.442353,99.4197458 104.190365,109.563202" id="Fill-18" fill="#DDEBC1" mask="url(#mask-2)"></path>
                <path d="M116.727446,40.0932178 C107.684623,17.0856599 85.8958554,2.21960474 61.2171575,2.21960474 L61.2171575,0.0907733695 C86.7744759,0.0907733695 109.339896,15.4873333 118.703917,39.313214 L116.727446,40.0932178 Z" id="Fill-19" fill="#95C23E" mask="url(#mask-2)"></path>
                <path d="M2.10605491,54.0021504 L-0.00042486482,53.7211447 C2.19017815,37.2754966 11.1148886,22.1505755 24.483685,12.2234091 L25.7480827,13.9332864 C12.8381403,23.5198399 4.22018226,38.1244746 2.10605491,54.0021504" id="Fill-20" fill="#DDEBC1" mask="url(#mask-2)"></path>
                <path d="M27.1963619,12.7668572 L25.9761501,11.02377 C35.7242486,4.16978457 47.1497133,0.358324896 59.0187369,-0.000170306509 L59.0833164,2.126958 C47.6298106,2.47353174 36.6037187,6.15215234 27.1963619,12.7668572" id="Fill-21" fill="#333333" mask="url(#mask-2)"></path>
                <path d="M9.74461454,95.1786028 C2.44288774,83.8659929 -0.860011369,70.7685708 0.191104196,57.3024351 L2.30863046,57.468484 C1.29405327,70.4654252 4.48223888,83.1047228 11.5290468,94.0230731 L9.74461454,95.1786028 Z" id="Fill-22" fill="#333333" mask="url(#mask-2)"></path>
                <path d="M122.929112,67.1224788 L120.811586,66.9564299 C121.430189,59.0278104 120.481891,51.2158508 117.992183,43.737692 L120.007742,43.0641297 C122.588371,50.8139274 123.570658,58.9085958 122.929112,67.1224788" id="Fill-23" fill="#333333" mask="url(#mask-2)"></path>
            </g>
        </g>
    </g>
</svg>