<?xml version="1.0" encoding="UTF-8"?>
<svg width="194px" height="194px" viewBox="0 0 194 194" version="1.1" xmlns="http://www.w3.org/2000/svg" xmlns:xlink="http://www.w3.org/1999/xlink">
    <title>motorik</title>
    <defs>
        <path d="M0,96.9995991 C0,150.571891 43.428288,194 97,194 L97,194 C150.571712,194 194,150.571891 194,96.9995991 L194,96.9995991 C194,43.4289104 150.571712,0 97,0 L97,0 C43.428288,0 0,43.4289104 0,96.9995991 L0,96.9995991 Z" id="path-1"></path>
    </defs>
    <g id="Forts-matris-grovskisser---david" stroke="none" stroke-width="1" fill="none" fill-rule="evenodd">
        <g id="Matris-annas-linjer" transform="translate(-345.000000, -904.000000)">
            <g id="motorik" transform="translate(345.000000, 904.000000)">
                <g id="Group-3">
                    <mask id="mask-2" fill="white">
                        <use xlink:href="#path-1"></use>
                    </mask>
                    <g id="Clip-2"></g>
                    <polygon id="Fill-1" fill="#F3F3F3" mask="url(#mask-2)" points="-1.68789783 195.687089 195.687096 195.687089 195.687096 -1.687089 -1.68789783 -1.687089"></polygon>
                </g>
                <g id="Group-26" transform="translate(39.959237, 27.608281)">
                    <path d="M88.0133273,29.6313448 C84.4619261,29.6313448 81.5736563,32.5204046 81.5736563,36.0709892 L81.5736563,48.1259778 L79.569027,48.1259778 L79.569027,36.0709892 C79.569027,32.5204046 76.5492535,29.6313448 72.8382839,29.6313448 C69.1265124,29.6313448 66.1075407,32.5204046 66.1075407,36.0709892 L66.1075407,49.1186661 L64.1029115,49.1186661 L64.1029115,36.0709892 C64.1029115,32.5204046 61.2138398,29.6313448 57.6632405,29.6313448 L57.0810961,29.6313448 C53.529695,29.6313448 50.6414251,32.5204046 50.6414251,36.0709892 L50.6414251,49.1322975 L48.6367959,49.1322975 L48.6367959,36.0709892 L48.6367959,7.50594236 C48.6367959,3.95535771 45.7477242,1.06629798 42.1971249,1.06629798 C38.6465256,1.06629798 35.7574539,3.95535771 35.7574539,7.50594236 L35.7574539,66.2613827 L33.7528247,66.2613827 C33.7528247,59.3510534 28.5616368,53.9377749 21.9351343,53.9377749 L13.6880896,53.9377749 C9.39176821,53.9377749 4.30562288,57.3584601 1.59376044,62.0709231 C1.22330495,62.642641 1.04208647,63.2544513 1.04208647,63.8871097 C1.04208647,65.6808445 2.50065471,67.1402086 4.29519881,67.1402086 L9.09909234,67.1402086 C16.8562057,67.1402086 26.6973316,76.2476025 26.6973316,86.483999 L26.6973316,95.516821 C26.6973316,100.654264 30.6544697,107.975139 34.8738133,108.785006 L88.2386476,108.785006 C92.0763098,106.473277 94.4529983,102.311684 94.4529983,97.8558128 L94.4529983,86.3075923 L94.4529983,36.2161238 L94.4529983,36.0709892 C94.4529983,32.5204046 91.5647284,29.6313448 88.0133273,29.6313448" id="Fill-4" fill="#FFFFFF"></path>
                    <polygon id="Fill-6" fill="#FFFFFF" points="35.7575341 110.789547 35.7575341 128.348423 87.572389 128.348423 87.5242779 110.789547"></polygon>
                    <path d="M77.9585079,123.658893 C75.5946491,123.658893 73.6790254,121.742475 73.6790254,119.379428 C73.6790254,117.015579 75.5946491,115.099161 77.9585079,115.099161 C80.3223667,115.099161 82.2379904,117.015579 82.2379904,119.379428 C82.2379904,121.742475 80.3223667,123.658893 77.9585079,123.658893 L77.9585079,123.658893 Z M34.7154476,138.784159 L87.2944672,138.784159 L87.2944672,109.722768 L34.7154476,109.722768 L34.7154476,138.784159 Z" id="Fill-8" fill="#D5E5B3"></path>
                    <path d="M49.5993387,49.0682299 L49.5993387,36.0069215 C49.5993387,31.9134855 52.9478714,28.5649667 57.0413243,28.5649667 L57.6234686,28.5649667 C61.7161197,28.5649667 65.0654542,31.9134855 65.0654542,36.0069215 L65.0654542,49.0545984" id="Stroke-10" stroke="#333333" stroke-width="2" stroke-linejoin="round"></path>
                    <path d="M65.0654542,49.0545183 L65.0654542,36.0068413 C65.0654542,31.9134053 68.5454906,28.5648865 72.798512,28.5648865 L72.798512,28.5648865 C77.0515334,28.5648865 80.5315698,31.9134053 80.5315698,36.0068413 L80.5315698,48.06183" id="Stroke-12" stroke="#333333" stroke-width="2" stroke-linejoin="round"></path>
                    <path d="M80.5314896,48.0615092 L80.5314896,36.0065206 C80.5314896,31.9138864 83.8800223,28.5645657 87.9734752,28.5645657 L87.9734752,28.5645657 C92.0669282,28.5645657 95.4154609,31.9138864 95.4154609,36.0065206 L95.4154609,86.2431237" id="Stroke-14" stroke="#333333" stroke-width="2" stroke-linejoin="round"></path>
                    <path d="M34.7153674,66.1973952 L34.7153674,7.44195486 C34.7153674,3.34851885 38.0639001,0 42.1573531,0 L42.1573531,0 C46.250806,0 49.5993387,3.34851885 49.5993387,7.44195486 L49.5993387,49.06831" id="Stroke-16" stroke="#333333" stroke-width="2" stroke-linejoin="round"></path>
                    <path d="M34.7153674,66.1973952 C34.7153674,58.868501 29.224287,52.8714769 21.8953625,52.8714769 L13.6475159,52.8714769 C8.83560387,52.8714769 3.4696123,56.6674272 0.684781351,61.5065822 C0.251781433,62.1729182 0,62.9683518 0,63.8223203 C0,66.1733398 1.90519964,68.0785315 4.25542697,68.0785315 L4.25542697,68.0785315 L9.05932049,68.0785315 C15.9119451,68.0785315 25.6552451,76.331957 25.6552451,86.4200115 L25.6552451,88.9819171 L25.6552451,95.4520317 C25.6552451,102.125014 30.6211127,108.995251 34.7153674,109.722527 L34.7153674,138.783918" id="Stroke-18" stroke="#333333" stroke-width="2" stroke-linejoin="round"></path>
                    <line x1="34.7153674" y1="109.722928" x2="88.484335" y2="109.722928" id="Stroke-20" stroke="#333333" stroke-width="2" stroke-linejoin="round"></line>
                    <path d="M34.7153674,129.286586 L88.484335,129.286586 L88.5372572,129.286586 L88.484335,109.723089 C92.6170786,107.343203 95.415541,102.878511 95.415541,97.7915847 L95.415541,36.1518957" id="Stroke-22" stroke="#333333" stroke-width="2" stroke-linejoin="round"></path>
                    <path d="M82.2383112,119.379107 C82.2383112,121.742956 80.3218856,123.658572 77.9588286,123.658572 C75.5949698,123.658572 73.6785443,121.742956 73.6785443,119.379107 C73.6785443,117.015258 75.5949698,115.099642 77.9588286,115.099642 C80.3218856,115.099642 82.2383112,117.015258 82.2383112,119.379107 Z" id="Stroke-24" stroke="#333333" stroke-width="2" stroke-linejoin="round"></path>
                </g>
            </g>
        </g>
    </g>
</svg>