<?xml version="1.0" encoding="UTF-8"?>
<svg width="455px" height="275px" viewBox="0 0 455 275" version="1.1" xmlns="http://www.w3.org/2000/svg" xmlns:xlink="http://www.w3.org/1999/xlink">
    <title>redogorpuff</title>
    <defs>
        <polygon id="path-1" points="0 0 0.8 0 0.8 40.2986091 0 40.2986091"></polygon>
        <polygon id="path-3" points="0 0 0.8 0 0.8 40.2986091 0 40.2986091"></polygon>
        <polygon id="path-5" points="0 0 34.0605835 0 34.0605835 67.3972063 0 67.3972063"></polygon>
    </defs>
    <g id="Page-1" stroke="none" stroke-width="1" fill="none" fill-rule="evenodd">
        <g id="Tillgänglighetssida-v3-tweakad" transform="translate(-575, -914)">
            <g id="redogorpuff" transform="translate(575, 914)">
                <rect id="Rectangle-Copy-9" fill="#FFFFFF" x="0" y="0" width="455" height="275"></rect>
                <g id="Group-8" transform="translate(121, 31)">
                    <g id="syn-copy-2" fill="#F4F4F4" fill-rule="nonzero">
                        <g id="syn-oga">
                            <circle id="Oval" cx="106.5" cy="106.5" r="106.5"></circle>
                        </g>
                    </g>
                    <g id="Group-7" transform="translate(51.7696, 54.1859)">
                        <polygon id="Path-2" fill="#FFFFFF" points="21.7107847 103.543539 96.5195623 103.543539 96.5195623 14.1632328 94.4448979 3.77559461 86.0151403 -1.78968539e-16 8.1581107 5.46092381e-14 1.69056882 5.41579645 -1.28647515e-16 15.3476037 20.0585109 15.902287 20.0585109 103.382726"></polygon>
                        <g id="Group-21" transform="translate(0, 0)">
                            <path d="M70.0611632,76.7515579 C70.0611632,82.053148 65.7624757,86.350686 60.4601095,86.350686 C55.1574559,86.350686 50.8587683,82.053148 50.8587683,76.7515579 C50.8587683,71.4499679 55.1574559,67.1524298 60.4601095,67.1524298 C65.7624757,67.1524298 70.0611632,71.4499679 70.0611632,76.7515579" id="Fill-1" fill="#DEE9B7"></path>
                            <polyline id="Fill-3" fill="#DEE9B7" points="68.1763342 94.2516903 68.1763342 114.945967 60.7183009 107.28109 53.2605551 114.945967 53.2605551 94.2516903"></polyline>
                            <polygon id="Stroke-5" stroke="#3B3735" stroke-width="2.0185088" stroke-linejoin="round" points="66.4226272 55.944692 69.2143597 65.3469753 78.6351997 68.0803877 73.9597015 76.7021887 78.6880854 85.2952532 69.2839159 88.0864258 66.5502426 97.5056637 57.9264246 92.8308159 49.3316363 97.5585387 46.5399037 88.1562554 37.1187763 85.4228431 41.7945619 76.8007547 37.066178 68.2076902 46.4703475 65.416805 49.2040208 55.9975671 57.8278388 60.6724149"></polygon>
                            <path d="M67.4783004,76.7515579 C67.4783004,82.053148 63.1796129,86.350686 57.8772467,86.350686 C52.5745931,86.350686 48.2759055,82.053148 48.2759055,76.7515579 C48.2759055,71.4499679 52.5745931,67.1524298 57.8772467,67.1524298 C63.1796129,67.1524298 67.4783004,71.4499679 67.4783004,76.7515579 Z" id="Stroke-7" stroke="#3B3735" stroke-width="2.0185088" stroke-linejoin="round"></path>
                            <polyline id="Stroke-9" stroke="#3B3735" stroke-width="2.0185088" stroke-linejoin="round" points="65.5934714 96.0210518 65.5934714 114.946024 58.1354381 107.936626 50.6776923 114.946024 50.6776923 96.0210518"></polyline>
                            <line x1="32.9676226" y1="30.2747833" x2="82.6175216" y2="30.2747833" id="Stroke-11" stroke="#3B3735" stroke-width="2.0185088" stroke-linejoin="round"></line>
                            <line x1="45.4794017" y1="40.5999094" x2="70.50296" y2="40.5999094" id="Stroke-13" stroke="#3B3735" stroke-width="2.0185088" stroke-linejoin="round"></line>
                            <polyline id="Stroke-15" stroke="#3B3735" stroke-width="2.0185088" stroke-linejoin="round" points="41.7060071 103.543453 20.0585109 103.543453 20.0585109 23.3253295"></polyline>
                            <polyline id="Stroke-17" stroke="#3B3735" stroke-width="2.0185088" stroke-linejoin="round" points="96.5195623 18.3611917 96.5195623 103.543539 73.2834831 103.543539"></polyline>
                            <path d="M96.5195623,18.361163 L96.5195623,10.5026025 C96.5195623,4.72628606 91.7926155,0 86.0151403,0 L86.0151403,0 C80.2376651,0 75.5104309,4.72628606 75.5104309,10.5026025 L75.5104309,16.9711803 L0,15.9783355 L0,10.6632393 C0,4.88692289 4.72694677,0.160924192 10.504422,0.160924192 L86.0151403,0" id="Stroke-19" stroke="#3B3735" stroke-width="2.0185088" stroke-linejoin="round"></path>
                        </g>
                    </g>
                </g>
                <g id="Group-47" transform="translate(17, 67)">
                    <path d="M55.4902813,18.8578817 L25.5490363,18.8578817 L25.5490363,18.8578817 C25.5490363,8.44338457 33.9153866,0 44.2356376,0 L74.1775085,0 L74.1775085,0 C74.1775085,10.4151286 65.8105324,18.8578817 55.4902813,18.8578817 Z" id="Stroke-2" stroke="#333333" stroke-width="1.2597" stroke-linejoin="round"></path>
                    <g id="Group-6" transform="translate(19.963, 98.7014)">
                        <mask id="mask-2" fill="white">
                            <use xlink:href="#path-1"></use>
                        </mask>
                        <g id="Clip-5"></g>
                        <line x1="0.4" y1="0" x2="0.4" y2="40.2988617" id="Stroke-4" stroke="#333333" stroke-width="11.7097" stroke-linejoin="round" mask="url(#mask-2)"></line>
                    </g>
                    <g id="Group-9" transform="translate(72.2374, 98.7014)">
                        <mask id="mask-4" fill="white">
                            <use xlink:href="#path-3"></use>
                        </mask>
                        <g id="Clip-8"></g>
                        <line x1="0.4" y1="0" x2="0.4" y2="40.2988617" id="Stroke-7" stroke="#333333" stroke-width="1.2597" stroke-linejoin="round" mask="url(#mask-4)"></line>
                    </g>
                    <path d="M0,139 L0,101.903801 C0,85.1692393 13.4438637,71.6026042 30.0269863,71.6026042 L33.3940543,71.6026042" id="Stroke-10" stroke="#333333" stroke-width="1.2597" stroke-linejoin="round"></path>
                    <g id="Group-14" transform="translate(57.9394, 71.6028)">
                        <mask id="mask-6" fill="white">
                            <use xlink:href="#path-5"></use>
                        </mask>
                        <g id="Clip-13"></g>
                        <path d="M0,0 L3.90799846,0 C19.9747533,0 33,13.566635 33,30.3011972 L33,67.3973958" id="Stroke-12" stroke="#333333" stroke-width="1.2597" stroke-linejoin="round" mask="url(#mask-6)"></path>
                    </g>
                    <path d="M52.9779354,24.2816305 C52.9779354,24.2816305 58.3007817,23.1820768 60.0794447,26.1687449" id="Stroke-15" stroke="#333333" stroke-width="1.2597" stroke-linejoin="round"></path>
                    <path d="M39.3224721,24.2816305 C39.3224721,24.2816305 33.9996259,23.1820768 32.2209628,26.1687449" id="Stroke-17" stroke="#333333" stroke-width="1.2597" stroke-linejoin="round"></path>
                    <path d="M25.5700022,18.8578817 L25.5700022,56.5218567 C25.5700022,67.0014049 34.6842421,75.3285816 45.0689556,75.3285816 L47.1467745,75.3285816 C57.531488,75.3285816 66.2145179,66.566257 66.2145179,56.0867088 L66.2145179,15.2598592" id="Stroke-19" stroke="#333333" stroke-width="1.2597" stroke-linejoin="round"></path>
                    <line x1="31.9821388" y1="41.9225507" x2="31.9821388" y2="58.2390171" id="Stroke-21" stroke="#333333" stroke-width="1.2597" stroke-linejoin="round"></line>
                    <line x1="58.0897454" y1="42.690533" x2="58.0897454" y2="56.8729433" id="Stroke-23" stroke="#333333" stroke-width="1.2597" stroke-linejoin="round"></line>
                    <line x1="40.0077769" y1="61.1661287" x2="40.0077769" y2="75.1603328" id="Stroke-25" stroke="#333333" stroke-width="1.2597" stroke-linejoin="round"></line>
                    <line x1="53.2549988" y1="60.6782452" x2="53.2549988" y2="74.036464" id="Stroke-27" stroke="#333333" stroke-width="1.2597" stroke-linejoin="round"></line>
                    <path d="M30.0363115,18.8578817 L30.0363115,40.9083214 C30.7410175,41.2777866 31.4601181,41.6238839 32.1917357,41.9453501 C36.4550195,43.817307 41.1614044,44.8555989 46.1074896,44.8555989 C50.3532496,44.8555989 54.4212685,44.0907744 58.1844989,42.6905961 C59.5889042,42.1676608 60.9513777,41.556938 62.264409,40.8634803 L62.264409,17.5846478" id="Stroke-29" stroke="#333333" stroke-width="1.2597" stroke-linejoin="round"></path>
                    <path d="M25.6865353,37.774183 C23.75141,37.774183 22.1830323,35.8952789 22.1830323,33.5780691 C22.1830323,31.2608593 23.75141,29.3819552 25.6865353,29.3819552" id="Stroke-31" stroke="#333333" stroke-width="1.2597" stroke-linejoin="round"></path>
                    <path d="M66.5288819,37.774183 C68.4640072,37.774183 70.032385,35.8952789 70.032385,33.5780691 C70.032385,31.2608593 68.4640072,29.3819552 66.5288819,29.3819552" id="Stroke-33" stroke="#333333" stroke-width="1.2597" stroke-linejoin="round"></path>
                    <path d="M43.6098511,40.5662661 L47.0301163,40.5662661 C47.901924,40.5662661 48.2035833,38.9084095 47.4995031,38.1978996 C46.7954229,37.4873896 46.1076147,28.7907477 46.1076147,27.3021504" id="Stroke-35" stroke="#333333" stroke-width="1.2597" stroke-linejoin="round"></path>
                    <path d="M39.1590004,28.1307629 C36.9059437,27.3760434 34.5483703,27.4385683 32.4492726,28.1547624" id="Stroke-37" stroke="#333333" stroke-width="1.2597" stroke-linejoin="round"></path>
                    <path d="M34.1405045,28.8677354 C34.1117154,29.736768 34.8333194,30.4561199 35.7520658,30.4744353 C36.6714381,30.4921191 37.4393549,29.8024507 37.4675181,28.9334181 C37.4963072,28.0643855 36.7747032,27.3450336 35.8559568,27.3267183 C34.9372103,27.3090345 34.1692935,27.9987028 34.1405045,28.8677354" id="Fill-39" fill="#333333"></path>
                    <path d="M53.0564169,28.1307629 C55.3094735,27.3760434 57.6670469,27.4385683 59.7661447,28.1547624" id="Stroke-41" stroke="#333333" stroke-width="1.2597" stroke-linejoin="round"></path>
                    <path d="M58.0749754,28.8677354 C58.1037644,29.736768 57.3821604,30.4561199 56.463414,30.4744353 C55.5440417,30.4921191 54.7761249,29.8024507 54.7479617,28.9334181 C54.7191727,28.0643855 55.4407767,27.3450336 56.3595231,27.3267183 C57.2782695,27.3090345 58.0461863,27.9987028 58.0749754,28.8677354" id="Fill-43" fill="#333333"></path>
                    <path d="M49.7046197,49.5479962 C48.3922142,49.786096 47.041006,49.9105141 45.660383,49.9105141 C44.37927,49.9105141 43.1225651,49.8031482 41.8990301,49.5972582" id="Stroke-45" stroke="#343434" stroke-width="1.2597" stroke-linejoin="round"></path>
                </g>
                <g id="Group-45-Copy" transform="translate(346, 66)">
                    <path d="M64.429102,69.9986257 C64.429102,80.2758629 56.1672517,88.6073421 45.9759048,88.6073421 C35.7845578,88.6073421 27.5227075,80.2758629 27.5227075,69.9986257 C27.5227075,59.7213886 35.7845578,51.3899094 45.9759048,51.3899094 C56.1672517,51.3899094 64.429102,59.7213886 64.429102,69.9986257" id="Fill-1" fill="#D3E4B2"></path>
                    <line x1="40.0757007" y1="72.4891075" x2="51.9242993" y2="72.4891075" id="Stroke-3" stroke="#333333" stroke-width="1.2597" stroke-linejoin="round"></line>
                    <line x1="40.0757007" y1="75.9977831" x2="51.9242993" y2="75.9977831" id="Stroke-5" stroke="#333333" stroke-width="1.2597" stroke-linejoin="round"></line>
                    <path d="M64.0290585,74.6503946 C60.9717796,73.970042 56.5182286,73.3698423 56.5182286,73.3698423 L56.5182286,63.9679753" id="Stroke-7" stroke="#333333" stroke-width="1.2597" stroke-linejoin="round"></path>
                    <path d="M92,142 L92,106.233523 C92,91.2102272 81.5889796,78.6394824 67.6456599,75.4567197" id="Stroke-9" stroke="#333333" stroke-width="1.2597" stroke-linejoin="round"></path>
                    <path d="M27.9709415,74.6503946 C31.0282204,73.970042 35.4817714,73.3698423 35.4817714,73.3698423 L35.4817714,63.9679753" id="Stroke-11" stroke="#333333" stroke-width="1.2597" stroke-linejoin="round"></path>
                    <path d="M0,142 L0,106.233523 C0,91.2102272 10.4110204,78.6394824 24.3543401,75.4567197" id="Stroke-13" stroke="#333333" stroke-width="1.2597" stroke-linejoin="round"></path>
                    <path d="M77.6753497,111.719639 C77.6753497,103.959328 73.6705333,97.1425484 67.6317034,93.2554505 L67.6317034,93.2560816 L67.6317034,74.0206582 L64.0149143,73.2254409 L64.0149143,91.3847964 L64.0155401,91.3841653 C61.5271592,90.381939 58.8122204,89.830967 55.9696082,89.830967 L36.0600571,89.830967 C33.2174449,89.830967 30.5025061,90.381939 28.0141252,91.3841653 L28.0141252,91.3847964 L28.0141252,73.2254409 L24.3979619,74.0206582 L24.3979619,93.2560816 L24.3973361,93.2554505 C18.3585061,97.1425484 14.3543156,103.959328 14.3543156,111.719639" id="Stroke-15" stroke="#333333" stroke-width="1.2597" stroke-linejoin="round"></path>
                    <path d="M26.4769741,24.968246 L26.4769741,47.6060634 C26.4769741,57.9186436 34.7669878,66.2785234 44.9933823,66.2785234 L47.0067429,66.2785234 C57.2331374,66.2785234 65.523151,57.9186436 65.523151,47.6060634 L65.523151,26.4027928 C65.523151,24.0076739 64.3083755,19.8485611 60.4518857,18.2133166" id="Stroke-17" stroke="#333333" stroke-width="1.20742245" stroke-linejoin="round"></path>
                    <path d="M21.8132626,38.5569952 L21.8132626,28.4230234 C21.8132626,15.1712948 32.4658612,4.42891867 45.6068408,4.42891867 L45.6068408,4.42891867 C58.7471946,4.42891867 69.3997932,15.1712948 69.3997932,28.4230234 L69.3997932,37.2177483" id="Stroke-19" stroke="#333333" stroke-width="1.20742245" stroke-linejoin="round"></path>
                    <path d="M61.0974503,10.2104641 C61.249532,11.1009813 61.3283891,12.0167435 61.3283891,12.9508083 L61.3283891,12.9508083 C61.3283891,19.0430565 57.9619401,24.3419808 53.0020762,27.0589733 L53.0033279,27.0621289 C49.5348653,28.6203762 45.6933959,29.4869106 41.6516544,29.4869106 C34.3260762,29.4869106 27.6595184,26.6411686 22.6796272,21.9866228" id="Stroke-21" stroke="#333333" stroke-width="1.20742245" stroke-linejoin="round"></path>
                    <path d="M47.0758367,4.42860311 C49.6825034,1.69835699 53.3437279,0 57.3986122,0 C65.3124898,0 71.7274558,6.46966089 71.7274558,14.4496036 C71.7274558,17.7238793 70.6472381,20.7438118 68.8272653,23.1667001" id="Stroke-23" stroke="#333333" stroke-width="1.20742245" stroke-linejoin="round"></path>
                    <path d="M26.4772245,46.6399375 C25.944,46.8702981 25.3569524,46.9984164 24.7404898,46.9984164 L24.7404898,46.9984164 C22.305932,46.9984164 21.406585,45.0078486 21.406585,42.5534041 L21.406585,41.0248197 C21.406585,38.5703751 22.305932,36.5798073 24.7404898,36.5798073 L24.7404898,36.5798073 C25.3488163,36.5798073 25.9289796,36.7041389 26.4565714,36.9294505" id="Stroke-25" stroke="#333333" stroke-width="1.20742245" stroke-linejoin="round"></path>
                    <path d="M65.6871238,46.6399375 C66.2203483,46.8702981 66.8073959,46.9984164 67.4238585,46.9984164 L67.4238585,46.9984164 C69.8584163,46.9984164 70.7577633,45.0078486 70.7577633,42.5534041 L70.7577633,41.0248197 C70.7577633,38.5703751 69.8584163,36.5798073 67.4238585,36.5798073 L67.4238585,36.5798073 C66.815532,36.5798073 66.2353687,36.7041389 65.7077769,36.9294505" id="Stroke-27" stroke="#333333" stroke-width="1.20742245" stroke-linejoin="round"></path>
                    <path d="M44.2910531,43.7791747 C44.0181823,44.1231378 42.9936653,45.5362263 42.9936653,46.4715534 C42.9936653,47.4882955 43.7083864,48.3996398 46.0822367,48.3996398" id="Stroke-29" stroke="#333333" stroke-width="1.20742245" stroke-linejoin="round"></path>
                    <path d="M39.0461769,37.3671356 C36.695483,36.6628002 34.2922177,36.8527688 32.1949932,37.7413926" id="Stroke-31" stroke="#343434" stroke-width="1.20742245" stroke-linejoin="round"></path>
                    <path d="M34.2049116,38.5569952 C34.2049116,39.5049448 34.9665714,40.2730237 35.9065986,40.2730237 C36.8466259,40.2730237 37.6089116,39.5049448 37.6089116,38.5569952 C37.6089116,37.6090457 36.8466259,36.8409668 35.9065986,36.8409668 C34.9665714,36.8409668 34.2049116,37.6090457 34.2049116,38.5569952" id="Fill-33" fill="#343434"></path>
                    <path d="M52.7574313,37.3671356 C55.1081252,36.6628002 57.5113905,36.8527688 59.608615,37.7413926" id="Stroke-35" stroke="#343434" stroke-width="1.20742245" stroke-linejoin="round"></path>
                    <path d="M57.5987592,38.5569952 C57.5987592,39.5049448 56.8370993,40.2730237 55.8970721,40.2730237 C54.9570449,40.2730237 54.1947592,39.5049448 54.1947592,38.5569952 C54.1947592,37.6090457 54.9570449,36.8409668 55.8970721,36.8409668 C56.8370993,36.8409668 57.5987592,37.6090457 57.5987592,38.5569952" id="Fill-37" fill="#343434"></path>
                    <path d="M49.2319537,55.8313874 C47.2824299,56.4820772 45.174566,56.4454719 42.9321442,55.8313874" id="Stroke-39" stroke="#343434" stroke-width="1.20742245" stroke-linejoin="round"></path>
                    <path d="M53.4602612,33.8546733 C55.8635265,33.0215885 58.6604517,33.8060767 60.1455946,35.066433" id="Stroke-41" stroke="#343434" stroke-width="1.20742245" stroke-linejoin="round"></path>
                    <path d="M38.1273034,33.8546733 C35.7240381,33.0215885 32.9271129,33.8060767 31.4419701,35.066433" id="Stroke-43" stroke="#343434" stroke-width="1.20742245" stroke-linejoin="round"></path>
                </g>
            </g>
        </g>
    </g>
</svg>