<?xml version="1.0" encoding="UTF-8"?>
<svg width="61px" height="53px" viewBox="0 0 61 53" version="1.1" xmlns="http://www.w3.org/2000/svg" xmlns:xlink="http://www.w3.org/1999/xlink">
    <title>Group 4</title>
    <defs>
        <path d="M30.375,5.651 C26.762,2.587 22.252,0 17.489,0 L17.489,0 C6.536,0 0,6.82 0,17.111 L0,17.111 C0,25.428 7.065,32.113 7.881,32.861 L7.881,32.861 L26.843,51.22 C28.801,53.127 31.949,53.127 33.907,51.22 L33.907,51.22 L52.868,32.895 L52.914,32.85 C57.091,28.855 60.75,23.012 60.75,17.111 L60.75,17.111 C60.75,6.411 53.812,0 43.261,0 L43.261,0 C38.498,0 33.977,2.587 30.375,5.651 L30.375,5.651 Z" id="path-1"></path>
    </defs>
    <g id="Page-1" stroke="none" stroke-width="1" fill="none" fill-rule="evenodd">
        <g id="Startsida" transform="translate(-620.000000, -281.000000)">
            <g id="Group-4" transform="translate(620.000000, 281.000000)">
                <mask id="mask-2" fill="white">
                    <use xlink:href="#path-1"></use>
                </mask>
                <g id="Clip-2"></g>
                <polygon id="Fill-1" fill="#1616B2" mask="url(#mask-2)" points="-1.75 54 62.25 54 62.25 -1 -1.75 -1"></polygon>
                <polygon id="Fill-3" fill="#D43372" mask="url(#mask-2)" points="-1.75 54 62.25 54 62.25 -1 -1.75 -1"></polygon>
            </g>
        </g>
    </g>
</svg>