<?xml version="1.0" encoding="UTF-8"?>
<svg width="494px" height="60px" viewBox="0 0 494 60" version="1.1" xmlns="http://www.w3.org/2000/svg" xmlns:xlink="http://www.w3.org/1999/xlink">
    <title>Logotype black</title>
    <defs>
        <polygon id="path-1" points="0 60 494 60 494 0 0 0"></polygon>
    </defs>
    <g id="Page-1" stroke="none" stroke-width="1" fill="none" fill-rule="evenodd">
        <g id="Grafisk-manual---logotyp" transform="translate(-683.000000, -4165.000000)">
            <g id="Logotype-black" transform="translate(683.000000, 4165.000000)">
                <polygon id="Fill-1" fill="#333333" points="324.5018 10.1092084 324.5018 16.0647817 333.687545 16.0647817 333.687545 20.0546042 324.5018 20.0546042 324.5018 26.0094914 334 26.0094914 334 30 320 30 320 6 334 6 334 9.98982246 324.5018 9.98982246"></polygon>
                <polygon id="Fill-2" fill="#333333" points="458.5018 10.1092084 458.5018 16.0647817 467.687545 16.0647817 467.687545 20.0546042 458.5018 20.0546042 458.5018 26.0094914 468 26.0094914 468 30 454 30 454 6 468 6 468 9.98982246 458.5018 9.98982246"></polygon>
                <path d="M86.8814883,19.6312049 L84.5,13.3273737 L82.0642594,19.6312049 L86.8814883,19.6312049 Z M88.3968108,23.332482 L80.6031892,23.332482 L78.1131963,29 L74,29 L84.4457477,5 L84.5542523,5 L95,29 L90.7782991,29 L88.3968108,23.332482 Z" id="Fill-3" fill="#333333"></path>
                <g id="Group-62">
                    <path d="M104.442431,9.97029605 L104.442431,15.9289085 L108.45519,15.9289085 C110.117487,15.9289085 111.550616,14.6107132 111.550616,12.9492723 C111.550616,11.2878313 110.231741,9.97029605 108.569444,9.97029605 L104.442431,9.97029605 Z M112.008952,29.2204363 L104.442431,19.480841 L104.442431,29.2204363 L100.315418,29.2204363 L100.315418,6.13188554 L108.569444,6.13188554 C112.524747,6.13188554 115.677629,8.99666656 115.677629,12.8925047 C115.677629,16.7883428 112.811372,18.9653124 109.315067,19.3659857 L117.225011,29.2204363 L112.008952,29.2204363 Z" id="Fill-4" fill="#333333"></path>
                    <path d="M268.032578,9.97029605 L268.032578,15.9289085 L272.045338,15.9289085 C273.707634,15.9289085 275.140763,14.6107132 275.140763,12.9492723 C275.140763,11.2878313 273.821889,9.97029605 272.159592,9.97029605 L268.032578,9.97029605 Z M275.5991,29.2204363 L268.032578,19.480841 L268.032578,29.2204363 L263.905565,29.2204363 L263.905565,6.13188554 L272.159592,6.13188554 C276.114894,6.13188554 279.267776,8.99666656 279.267776,12.8925047 C279.267776,16.7883428 276.40152,18.9653124 272.905215,19.3659857 L280.815159,29.2204363 L275.5991,29.2204363 Z" id="Fill-6" fill="#333333"></path>
                    <path d="M134.984509,22.4600152 C134.984509,20.7985742 133.493924,19.481039 131.831627,19.481039 L128.335322,19.481039 L128.335322,25.3247962 L131.831627,25.3247962 C133.493924,25.3247962 134.984509,24.1788838 134.984509,22.4600152 L134.984509,22.4600152 Z M128.335322,9.97049408 L128.335322,15.6419684 L131.831627,15.6419684 C133.493924,15.6419684 134.697884,14.5534836 134.697884,12.834615 C134.697884,11.173174 133.493924,9.97049408 131.831627,9.97049408 L128.335322,9.97049408 Z M139.283894,22.4600152 C139.283894,26.2984257 136.188469,29.2206343 131.831627,29.2206343 L124.372755,29.2206343 L124.372755,6.13142348 L131.831627,6.13142348 C135.786929,6.13142348 138.824897,8.9962045 138.824897,12.8920426 C138.824897,14.8973894 138.079934,16.5014027 136.646806,17.5898875 C138.251646,18.564177 139.283894,20.4546685 139.283894,22.4600152 L139.283894,22.4600152 Z" id="Fill-8" fill="#333333"></path>
                    <polygon id="Fill-10" fill="#333333" points="151.670812 10.0848873 151.670812 15.8144493 160.097211 15.8144493 160.097211 19.6528598 151.670812 19.6528598 151.670812 25.3817618 160.383836 25.3817618 160.383836 29.2208324 147.541157 29.2208324 147.541157 6.13162151 160.383836 6.13162151 160.383836 9.97003201 151.670812 9.97003201"></polygon>
                    <polygon id="Fill-12" fill="#333333" points="173.315409 9.97029605 167.411184 9.97029605 167.411184 6.13188554 183.346647 6.13188554 183.346647 9.97029605 177.442422 9.97029605 177.442422 29.2204363 173.315409 29.2204363"></polygon>
                    <polygon id="Fill-14" fill="#333333" points="215.957119 10.0275917 215.957119 15.7571537 224.555229 15.7571537 224.555229 19.5955642 215.957119 19.5955642 215.957119 29.2203043 211.829445 29.2203043 211.829445 6.13175352 224.784397 6.13175352 224.784397 9.97016403"></polygon>
                    <path d="M248.818488,2.46503185 C248.818488,1.14749662 249.964991,0.115779399 251.225747,0.115779399 C252.487164,0.115779399 253.633667,1.14749662 253.633667,2.46503185 C253.633667,3.78256708 252.487164,4.8142843 251.225747,4.8142843 C249.964991,4.8142843 248.818488,3.83999472 248.818488,2.46503185 M252.37225,17.6477111 C252.37225,13.0066339 248.818488,9.51212911 244.17568,9.51212911 C239.532213,9.51212911 235.978451,13.0640615 235.978451,17.6477111 C235.978451,22.2881283 239.532213,25.7832932 244.17568,25.7832932 C248.761031,25.8400607 252.37225,22.2881283 252.37225,17.6477111 M234.774491,2.52245949 C234.774491,1.20426417 235.920993,0.173207037 237.18241,0.173207037 C238.443167,0.173207037 239.58967,1.20426417 239.58967,2.52245949 C239.58967,3.83999472 238.443167,4.87105185 237.18241,4.87105185 C235.920993,4.87105185 234.774491,3.83999472 234.774491,2.52245949 M231.79398,17.6477111 C231.79398,10.9445196 237.296664,5.61629097 244.17568,5.61629097 C250.996579,5.61629097 256.556721,10.9445196 256.556721,17.6477111 C256.556721,24.3509027 251.054036,29.6791313 244.17568,29.6791313 C237.296664,29.6791313 231.79398,24.3509027 231.79398,17.6477111" id="Fill-16" fill="#333333"></path>
                    <polygon id="Fill-18" fill="#333333" points="311.923686 5.61615895 311.923686 29.2202383 307.796672 29.2202383 307.796672 14.2098419 300.000983 21.0278887 292.147836 14.1524143 292.147836 29.2202383 288.020162 29.2202383 288.020162 5.61615895 288.077619 5.61615895 299.943525 15.7570877 311.751975 5.61615895"></polygon>
                    <path d="M357.058379,17.7047427 C357.058379,13.1210931 353.791243,10.0279217 348.918606,10.0279217 L346.85543,10.0279217 L346.85543,25.3247962 L348.918606,25.3247962 C353.791243,25.3247962 357.058379,22.2309647 357.058379,17.7047427 M361.242849,17.7047427 C361.242849,24.4653619 356.026791,29.2206343 348.918606,29.2206343 L342.727756,29.2206343 L342.727756,6.13208357 L348.918606,6.13208357 C356.026791,6.13142348 361.242849,10.8866959 361.242849,17.7047427" id="Fill-20" fill="#333333"></path>
                    <polygon id="Fill-22" fill="#333333" points="381.018898 25.3819598 381.018898 29.2203703 368.236318 29.2203703 368.236318 6.13181953 372.363331 6.13181953 372.363331 25.3819598"></polygon>
                    <mask id="mask-2" fill="white">
                        <use xlink:href="#path-1"></use>
                    </mask>
                    <g id="Clip-25"></g>
                    <polygon id="Fill-24" fill="#333333" mask="url(#mask-2)" points="388.298529 29.2201063 392.425543 29.2201063 392.425543 6.1315555 388.298529 6.1315555"></polygon>
                    <polygon id="Fill-26" fill="#333333" mask="url(#mask-2)" points="420.398887 6.13175352 420.398887 29.6790653 420.34143 29.6790653 405.667384 15.1267699 405.667384 29.2203043 401.539711 29.2203043 401.539711 5.6736526 401.597168 5.6736526 416.271874 20.1685204 416.271874 6.13175352"></polygon>
                    <polygon id="Fill-27" fill="#333333" mask="url(#mask-2)" points="494 6.13175352 494 29.6790653 493.942543 29.6790653 479.268497 15.1267699 479.268497 29.2203043 475.141484 29.2203043 475.141484 5.6736526 475.198281 5.6736526 489.930444 20.1685204 489.930444 6.13175352"></polygon>
                    <path d="M445.396278,29.2205683 L439.721222,29.2205683 C432.55624,29.2205683 427.396978,24.4078682 427.396978,17.7046767 C427.396978,10.9440576 432.613698,6.13201756 439.721222,6.13201756 L443.676524,6.13201756 L443.676524,9.97042807 L439.721222,9.97042807 C434.849246,9.97042807 431.581449,13.0642595 431.581449,17.6472491 C431.581449,22.2308987 434.849246,25.3247302 439.721222,25.3247302 L441.269264,25.3247302 L441.269264,19.5951682 L437.829756,19.5951682 L437.829756,15.7567576 L445.396278,15.7567576 L445.396278,29.2205683 Z" id="Fill-28" fill="#333333" mask="url(#mask-2)"></path>
                    <path d="M189.858333,25.3149609 L197.138229,25.3149609 C198.800526,25.3149609 200.11874,23.9366976 200.11874,22.270636 C200.11874,20.6052345 198.800526,19.2843988 197.138229,19.2843988 L196.106641,19.2269712 C191.92217,19.2269712 189.170167,17.0440609 189.170167,12.736988 C189.170167,8.37182745 192.380507,6.13148949 196.278352,6.13148949 L202.927539,6.13148949 L202.927539,9.97980131 L196.278352,9.97980131 C194.616055,9.97980131 193.297841,11.0134988 193.297841,12.736988 C193.297841,14.4023895 194.616055,15.2638041 196.278352,15.2638041 L197.30994,15.3212317 C201.666782,15.3212317 204.246413,17.676425 204.246413,22.270636 C204.246413,26.5783689 201.036074,29.2207004 197.138229,29.2207004 L189.858333,29.2207004 L189.858333,25.3149609 Z" id="Fill-29" fill="#333333" mask="url(#mask-2)"></path>
                    <polygon id="Fill-30" fill="#333333" mask="url(#mask-2)" points="103.858349 43.8430311 97.0651882 58.4402125 97.0083914 58.4402125 94.0087283 51.9904947 91.0084048 58.4408726 84.2152444 43.8430311 86.5359877 43.8430311 91.0084048 53.5747054 92.8760947 49.5574111 90.2158914 43.8430311 92.5366348 43.8430311 94.0087283 47.0682201 95.4801615 43.8430311 97.7447684 43.8430311 95.0839048 49.5006436 96.9522551 53.5747054 101.424012 43.8430311"></polygon>
                    <polygon id="Fill-31" fill="#333333" mask="url(#mask-2)" points="108.968277 45.7658009 108.968277 49.8959702 114.459074 49.8959702 114.459074 51.9330011 108.968277 51.9330011 108.968277 56.0631704 114.572667 56.0631704 114.572667 58.1002013 106.817263 58.1002013 106.817263 43.842305 114.572667 43.842305 114.572667 45.8786759 108.968277 45.8786759"></polygon>
                    <path d="M128.536158,50.9710552 C128.536158,47.9155088 126.328348,45.8223704 123.101498,45.8223704 L121.630065,45.8223704 L121.630065,56.0629724 L123.101498,56.0629724 C126.328348,56.1197399 128.536158,54.0266015 128.536158,50.9710552 M130.687172,50.9710552 C130.687172,55.157992 127.460321,58.1000033 123.045361,58.1000033 L119.479051,58.1000033 L119.479051,43.842107 L123.045361,43.842107 C127.460321,43.842107 130.687172,46.7841183 130.687172,50.9710552" id="Fill-32" fill="#333333" mask="url(#mask-2)"></path>
                    <polygon id="Fill-33" fill="#333333" mask="url(#mask-2)" points="134.63085 58.1002673 136.781864 58.1002673 136.781864 43.842371 134.63085 43.842371"></polygon>
                    <polygon id="Fill-34" fill="#333333" mask="url(#mask-2)" points="165.388822 43.842041 165.388822 58.0999373 163.237809 58.0999373 163.237809 51.9895046 156.274919 51.9895046 156.274919 58.0999373 154.123905 58.0999373 154.123905 43.842041 156.274919 43.842041 156.274919 49.9524737 163.237809 49.9524737 163.237809 43.842041"></polygon>
                    <path d="M185.507039,47.9157728 C185.507039,46.7276148 184.544795,45.8226344 183.356025,45.8226344 L180.978485,45.8226344 L180.978485,50.0089116 L183.356025,50.0089116 C184.544795,50.0095713 185.507039,49.1606984 185.507039,47.9157728 M187.601255,47.9157728 C187.601255,50.2920888 185.676768,52.0459421 183.299228,52.0459421 L180.921688,52.0459421 L180.921688,58.1002673 L178.770675,58.1002673 L178.770675,43.842371 L183.242432,43.842371 C185.676768,43.842371 187.601255,45.5962243 187.601255,47.9157728" id="Fill-35" fill="#333333" mask="url(#mask-2)"></path>
                    <path d="M191.319001,53.6878445 L191.319001,43.8432952 L193.470015,43.8432952 L193.470015,53.6878445 C193.470015,55.1591802 194.601988,56.4034457 196.357405,56.4034457 C198.055365,56.4034457 199.244135,55.1591802 199.244135,53.6878445 L199.244135,43.8432952 L201.395148,43.8432952 L201.395148,53.6878445 C201.395148,56.4034457 199.470662,58.4404766 196.413541,58.4404766 C193.243488,58.4404766 191.319001,56.3473382 191.319001,53.6878445" id="Fill-36" fill="#333333" mask="url(#mask-2)"></path>
                    <path d="M212.924831,53.969768 C212.924831,52.78161 211.848994,51.8766296 210.604088,51.8766296 L208.226548,51.8766296 L208.226548,56.0629064 L210.604088,56.0629064 C211.792858,56.0629064 212.924831,55.157926 212.924831,53.969768 L212.924831,53.969768 Z M208.226548,45.8223044 L208.226548,49.8395987 L210.604088,49.8395987 C211.848994,49.8395987 212.698304,49.0474933 212.698304,47.8025677 C212.698304,46.6144097 211.848994,45.8223044 210.604088,45.8223044 L208.226548,45.8223044 Z M215.075844,53.969768 C215.075844,56.5157266 213.208155,58.0999373 210.604088,58.0999373 L206.074874,58.0999373 L206.074874,43.842041 L210.604088,43.842041 C212.981628,43.842041 214.849318,45.5391267 214.849318,47.8593353 C214.849318,49.1603683 214.283331,50.1788838 213.377884,50.9142216 C214.283331,51.5366844 215.075844,52.6687349 215.075844,53.969768 L215.075844,53.969768 Z" id="Fill-37" fill="#333333" mask="url(#mask-2)"></path>
                    <polygon id="Fill-38" fill="#333333" mask="url(#mask-2)" points="227.114849 56.0632364 227.114849 58.1002673 219.529175 58.1002673 219.529175 43.842371 221.680189 43.842371 221.680189 56.120004 227.114849 56.120004"></polygon>
                    <polygon id="Fill-39" fill="#333333" mask="url(#mask-2)" points="230.888864 58.1002673 233.039877 58.1002673 233.039877 43.842371 230.888864 43.842371"></polygon>
                    <path d="M236.965394,50.9428694 C236.965394,46.7724347 240.192244,43.842305 244.607864,43.842305 L246.758878,43.842305 L246.758878,45.8707548 L244.607864,45.8707548 C241.324217,45.8707548 239.173204,47.8998647 239.173204,50.9989769 C239.173204,54.0426417 241.381014,56.0710915 244.607864,56.0710915 L246.758878,56.0710915 L246.758878,58.1002013 L244.607864,58.1002013 C240.192244,58.0434338 236.965394,55.1133041 236.965394,50.9428694" id="Fill-40" fill="#333333" mask="url(#mask-2)"></path>
                    <polygon id="Fill-41" fill="#333333" mask="url(#mask-2)" points="261.556886 45.7658009 261.556886 49.8959702 267.047682 49.8959702 267.047682 51.9330011 261.556886 51.9330011 261.556886 56.0631704 267.161276 56.0631704 267.161276 58.1002013 259.405872 58.1002013 259.405872 43.842305 267.161276 43.842305 267.161276 45.8786759 261.556886 45.8786759"></polygon>
                    <polygon id="Fill-42" fill="#333333" mask="url(#mask-2)" points="286.502565 43.564012 286.502565 58.105086 284.351551 58.105086 284.351551 47.9205914 279.313148 52.1075283 274.331541 47.9205914 274.331541 58.105086 272.180527 58.105086 272.180527 43.5072445 272.237324 43.5072445 279.369944 49.4480346"></polygon>
                    <path d="M298.446996,47.8592033 C298.446996,46.6710452 297.484753,45.7660649 296.295983,45.7660649 L293.918443,45.7660649 L293.918443,49.9530017 L296.295983,49.9530017 C297.541549,49.9530017 298.446996,49.1041288 298.446996,47.8592033 M300.598009,47.8592033 C300.598009,50.2355193 298.673523,51.9893726 296.295983,51.9893726 L293.918443,51.9893726 L293.918443,58.105086 L291.767429,58.1004654 L291.767429,43.8432291 L296.239186,43.8432291 C298.673523,43.8432291 300.598009,45.5396548 300.598009,47.8592033" id="Fill-43" fill="#333333" mask="url(#mask-2)"></path>
                    <polygon id="Fill-44" fill="#333333" mask="url(#mask-2)" points="311.750456 56.0632364 311.750456 58.1002673 304.164782 58.1002673 304.164782 43.842371 306.315795 43.842371 306.315795 56.120004 311.750456 56.120004"></polygon>
                    <path d="M327.12931,50.9735635 C327.12931,47.8619096 324.75177,45.541701 321.638513,45.541701 C318.524596,45.541701 316.147056,47.9180171 316.147056,50.9735635 C316.147056,54.0852173 318.524596,56.4054259 321.638513,56.4054259 C324.75177,56.4054259 327.12931,54.0852173 327.12931,50.9735635 M313.996042,50.9735635 C313.996042,46.8433942 317.392622,43.5053302 321.638513,43.5053302 C325.883743,43.5053302 329.280323,46.7866266 329.280323,50.9735635 C329.280323,55.1037328 325.883743,58.4417968 321.638513,58.4417968 C317.392622,58.4417968 313.996042,55.1037328 313.996042,50.9735635" id="Fill-45" fill="#333333" mask="url(#mask-2)"></path>
                    <polygon id="Fill-46" fill="#333333" mask="url(#mask-2)" points="337.471015 51.1973993 337.471015 58.0999373 335.320001 58.0999373 335.320001 51.1973993 330.961178 43.842041 333.338718 43.842041 336.395178 48.9907258 339.452298 43.842041 341.829838 43.842041"></polygon>
                    <polygon id="Fill-47" fill="#333333" mask="url(#mask-2)" points="359.359772 43.564012 359.359772 58.105086 357.208758 58.105086 357.208758 47.9205914 352.170355 52.1075283 347.132611 47.9205914 347.132611 58.105086 344.980937 58.105086 344.980937 43.5072445 345.037734 43.5072445 352.170355 49.4480346"></polygon>
                    <polygon id="Fill-48" fill="#333333" mask="url(#mask-2)" points="366.850872 45.7658009 366.850872 49.8959702 372.341669 49.8959702 372.341669 51.9330011 366.850872 51.9330011 366.850872 56.0631704 372.455263 56.0631704 372.455263 58.1002013 364.699859 58.1002013 364.699859 43.842305 372.455263 43.842305 372.455263 45.8786759 366.850872 45.8786759"></polygon>
                    <polygon id="Fill-49" fill="#333333" mask="url(#mask-2)" points="388.758649 43.8436912 388.758649 58.3847652 388.701853 58.3847652 379.644746 48.5963233 379.644746 58.1015875 377.493732 58.1015875 377.493732 43.5044061 377.549869 43.5044061 386.607636 53.2360804 386.607636 43.8430311"></polygon>
                    <polygon id="Fill-50" fill="#333333" mask="url(#mask-2)" points="395.985843 45.8789399 392.249803 45.8789399 392.249803 43.841909 401.81676 43.841909 401.81676 45.8789399 398.136856 45.8789399 398.136856 58.0998053 395.985843 58.0998053"></polygon>
                    <path d="M73.4935952,56.0632364 L77.7956219,56.0632364 C78.984392,56.0632364 80.0034321,55.1014885 80.0034321,53.9133305 C80.0034321,52.7251724 78.984392,51.7634245 77.7956219,51.7634245 L77.2864321,51.7634245 C74.3429053,51.7634245 72.9844053,50.1224463 72.9844053,47.8028978 C72.9844053,45.4826892 74.5126353,43.842371 77.2864321,43.842371 L81.3057957,43.842371 L81.3057957,45.8787419 L77.2296353,45.8787419 C76.0408652,45.8787419 75.0786219,46.6147398 75.0786219,47.8028978 C75.0786219,48.9910558 76.0408652,49.7263936 77.2296353,49.7263936 L77.7394856,49.7263936 C80.7391487,49.7263936 82.0983091,51.5370144 82.0983091,53.9133305 C82.0983091,56.232879 80.5132824,58.1002673 77.7394856,58.1002673 L73.4935952,58.1002673 L73.4935952,56.0632364 Z" id="Fill-51" fill="#333333" mask="url(#mask-2)"></path>
                    <path d="M141.51865,56.0632364 L145.820677,56.0632364 C147.009447,56.0632364 148.028487,55.1014885 148.028487,53.9133305 C148.028487,52.7251724 147.009447,51.7634245 145.820677,51.7634245 L145.311487,51.7634245 C142.36796,51.7634245 141.00946,50.1224463 141.00946,47.8028978 C141.00946,45.4826892 142.53769,43.842371 145.311487,43.842371 L149.386987,43.842371 L149.386987,45.8787419 L145.311487,45.8787419 C144.122717,45.8787419 143.160474,46.6147398 143.160474,47.8028978 C143.160474,48.9910558 144.122717,49.7263936 145.311487,49.7263936 L145.820677,49.7263936 C148.821,49.7263936 150.1795,51.5370144 150.1795,53.9133305 C150.1795,56.232879 148.594474,58.1002673 145.820677,58.1002673 L141.575447,58.1002673 L141.575447,56.0632364 L141.51865,56.0632364 Z" id="Fill-52" fill="#333333" mask="url(#mask-2)"></path>
                    <path d="M413.049316,56.0632364 L417.351343,56.0632364 C418.540113,56.0632364 419.559153,55.1014885 419.559153,53.9133305 C419.559153,52.7251724 418.540113,51.7634245 417.351343,51.7634245 L416.842153,51.7634245 C413.898626,51.7634245 412.540126,50.1224463 412.540126,47.8028978 C412.540126,45.4826892 414.068356,43.842371 416.842153,43.842371 L420.917653,43.842371 L420.917653,45.8787419 L416.842153,45.8787419 C415.653383,45.8787419 414.69114,46.6147398 414.69114,47.8028978 C414.69114,48.9910558 415.653383,49.7263936 416.842153,49.7263936 L417.351343,49.7263936 C420.351667,49.7263936 421.710167,51.5370144 421.710167,53.9133305 C421.710167,56.232879 420.12514,58.1002673 417.351343,58.1002673 L413.106113,58.1002673 L413.049316,56.0632364 Z" id="Fill-53" fill="#333333" mask="url(#mask-2)"></path>
                    <polygon id="Fill-54" fill="#333333" mask="url(#mask-2)" points="428.219805 45.7658009 428.219805 49.8959702 433.710602 49.8959702 433.710602 51.9330011 428.219805 51.9330011 428.219805 56.0631704 433.824196 56.0631704 433.824196 58.1002013 426.068792 58.1002013 426.068792 43.842305 433.824196 43.842305 433.824196 45.8786759 428.219805 45.8786759"></polygon>
                    <path d="M440.767868,45.8716789 L440.767868,49.9853461 L443.315138,49.9853461 C444.560705,49.9853461 445.466151,49.1404337 445.466151,47.9001287 C445.466151,46.7172514 444.503908,45.8716789 443.315138,45.8716789 L440.767868,45.8716789 Z M445.749475,58.0436978 L440.767868,51.7887059 L440.767868,58.105086 L438.616854,58.105086 L438.616854,43.8432291 L443.315138,43.8432291 C445.692678,43.8432291 447.617825,45.5898214 447.617825,47.9001287 C447.617825,50.2110961 445.749475,51.7887059 443.371934,51.9015809 L448.353541,58.0998053 L445.749475,58.0998053 L445.749475,58.0436978 Z" id="Fill-55" fill="#333333" mask="url(#mask-2)"></path>
                    <polygon id="Fill-56" fill="#333333" mask="url(#mask-2)" points="463.166145 43.8430311 456.372984 58.3266774 456.316187 58.3266774 449.523687 43.8430311 451.844431 43.8430311 456.316187 53.4987953 460.788605 43.8430311"></polygon>
                    <polygon id="Fill-57" fill="#333333" mask="url(#mask-2)" points="466.204575 58.1002673 468.355588 58.1002673 468.355588 43.842371 466.204575 43.842371"></polygon>
                    <path d="M472.299333,50.9428694 C472.299333,46.7724347 475.526183,43.842305 479.941803,43.842305 L482.092817,43.842305 L482.092817,45.8707548 L479.941803,45.8707548 C476.658156,45.8707548 474.507143,47.8998647 474.507143,50.9989769 C474.507143,54.0426417 476.714953,56.0710915 479.941803,56.0710915 L482.092817,56.0710915 L482.092817,58.1002013 L479.941803,58.1002013 C475.526183,58.0434338 472.299333,55.1133041 472.299333,50.9428694" id="Fill-58" fill="#333333" mask="url(#mask-2)"></path>
                    <polygon id="Fill-59" fill="#333333" mask="url(#mask-2)" points="488.301036 45.7658009 488.301036 49.8959702 493.791833 49.8959702 493.791833 51.9330011 488.301036 51.9330011 488.301036 56.0631704 493.905427 56.0631704 493.905427 58.1002013 486.150023 58.1002013 486.150023 43.842305 493.905427 43.842305 493.905427 45.8786759 488.301036 45.8786759"></polygon>
                    <path d="M20.357357,50.1775636 C14.3514265,50.1775636 9.48209225,45.3107363 9.48209225,39.307898 C9.48209225,33.3043995 14.3514265,28.4382323 20.357357,28.4382323 C26.3632874,28.4382323 31.2326217,33.3043995 31.2326217,39.307898 C31.2326217,45.3107363 26.3632874,50.1775636 20.357357,50.1775636 M20.357357,18.9606918 C9.11423396,18.9606918 -0.000330213904,28.0705634 -0.000330213904,39.307898 C-0.000330213904,50.5452325 9.11423396,59.6551041 20.357357,59.6551041 C31.6004799,59.6551041 40.7150441,50.5452325 40.7150441,39.307898 C40.7150441,28.0705634 31.6004799,18.9606918 20.357357,18.9606918" id="Fill-60" fill="#333333" mask="url(#mask-2)"></path>
                    <path d="M20.357357,0.000132017558 L20.357357,9.51067692 C36.8224826,9.51067692 50.170389,22.8510512 50.170389,39.3076999 C50.170389,44.9666326 48.5919666,50.2565761 45.8518516,54.7629955 L53.793496,60.000132 C57.5249131,53.9893726 59.6851725,46.90201 59.6851725,39.3076999 C59.6851725,17.5987326 42.0775067,0.000132017558 20.357357,0.000132017558" id="Fill-61" fill="#333333" mask="url(#mask-2)"></path>
                </g>
            </g>
        </g>
    </g>
</svg>