<?xml version="1.0" encoding="UTF-8"?>
<svg width="520px" height="117px" viewBox="0 0 520 117" version="1.1" xmlns="http://www.w3.org/2000/svg" xmlns:xlink="http://www.w3.org/1999/xlink">
    <title>logotype image size</title>
    <defs>
        <path d="M21.3048004,-1.63590072e-14 C44.0353198,-1.63590072e-14 62.4625581,18.7507092 62.4625581,41.8817233 C62.4625581,49.9730923 60.2015233,57.5241506 56.2959806,63.9281285 L56.2959806,63.9281285 L47.9852733,58.3482407 C50.8530388,53.547251 52.5047306,47.9108732 52.5047306,41.8817233 C52.5047306,24.3472117 38.5362112,10.1329859 21.3048004,10.1329859 L21.3048004,10.1329859 Z M21.3048004,20.2023706 C33.071064,20.2023706 42.6096008,29.9086904 42.6096008,41.8812581 C42.6096008,53.8544904 33.071064,63.5608103 21.3048004,63.5608103 C9.53853682,63.5608103 1.99261796e-11,53.8544904 1.99261796e-11,41.8812581 C1.99261796e-11,29.9086904 9.53853682,20.2023706 21.3048004,20.2023706 Z M21.3048004,30.3001332 C15.0187054,30.3001332 9.92386628,35.4852552 9.92386628,41.8812581 C9.92386628,48.2779256 15.0187054,53.4630476 21.3048004,53.4630476 C27.5908953,53.4630476 32.6857345,48.2779256 32.6857345,41.8812581 C32.6857345,35.4852552 27.5908953,30.3001332 21.3048004,30.3001332 Z" id="path-1"></path>
        <path d="M21.3048004,-1.63590072e-14 C44.0353198,-1.63590072e-14 62.4625581,18.7507092 62.4625581,41.8817233 C62.4625581,49.9730923 60.2015233,57.5241506 56.2959806,63.9281285 L56.2959806,63.9281285 L47.9852733,58.3482407 C50.8530388,53.547251 52.5047306,47.9108732 52.5047306,41.8817233 C52.5047306,24.3472117 38.5362112,10.1329859 21.3048004,10.1329859 L21.3048004,10.1329859 Z M21.3048004,20.2023706 C33.071064,20.2023706 42.6096008,29.9086904 42.6096008,41.8812581 C42.6096008,53.8544904 33.071064,63.5608103 21.3048004,63.5608103 C9.53853682,63.5608103 1.99261796e-11,53.8544904 1.99261796e-11,41.8812581 C1.99261796e-11,29.9086904 9.53853682,20.2023706 21.3048004,20.2023706 Z M21.3048004,30.3001332 C15.0187054,30.3001332 9.92386628,35.4852552 9.92386628,41.8812581 C9.92386628,48.2779256 15.0187054,53.4630476 21.3048004,53.4630476 C27.5908953,53.4630476 32.6857345,48.2779256 32.6857345,41.8812581 C32.6857345,35.4852552 27.5908953,30.3001332 21.3048004,30.3001332 Z" id="path-3"></path>
    </defs>
    <g id="Page-1" stroke="none" stroke-width="1" fill="none" fill-rule="evenodd">
        <g id="Grafisk-manual---logotyp" transform="translate(-877.000000, -1973.000000)">
            <g id="logotype-image-size" transform="translate(877.000000, 1973.311602)">
                <text id="256-px-/-45-mm" font-family="OpenSans-Semibold, Open Sans" font-size="14" font-weight="500" fill="#00005A">
                    <tspan x="209.072983" y="106.392158">256 px / 45 mm</tspan>
                </text>
                <rect id="Rectangle" stroke="#00005A" x="194.5" y="90.1883981" width="127" height="24"></rect>
                <g id="Group" transform="translate(1.746869, 0.000000)">
                    <g id="Group-12-Copy-2" transform="translate(-0.000327, 0.536323)">
                        <path d="M90.7416261,21.7894117 L88.1006606,15.2292537 L85.4002373,21.7894117 L90.7416261,21.7894117 Z M92.4221218,25.6415061 L83.7798527,25.6415061 L81.0193185,31.5392271 L76.4587199,31.5392271 L88.0412029,6.56318795 L88.1607716,6.56318795 L99.743908,31.5392271 L95.0624339,31.5392271 L92.4221218,25.6415061 Z" id="Fill-1" fill="#00005A"></path>
                        <g id="Group-79">
                            <path d="M109.493521,10.6233195 L109.493521,16.9721366 L113.692959,16.9721366 C115.432166,16.9721366 116.932338,15.5678604 116.932338,13.7973957 C116.932338,12.0269311 115.552336,10.6233195 113.812476,10.6233195 L109.493521,10.6233195 Z M117.412367,31.1338599 L109.493521,20.7569699 L109.493521,31.1338599 L105.174565,31.1338599 L105.174565,6.53343985 L113.812476,6.53343985 C117.951829,6.53343985 121.251294,9.58523174 121.251294,13.7369181 C121.251294,17.8872754 118.251602,20.207355 114.592278,20.634021 L122.870984,31.1338599 L117.412367,31.1338599 Z" id="Fill-2" fill="#00005A"></path>
                            <path d="M280.502277,10.6233195 L280.502277,16.9721366 L284.701715,16.9721366 C286.441575,16.9721366 287.941094,15.5678604 287.941094,13.7973957 C287.941094,12.0269311 286.561092,10.6233195 284.821232,10.6233195 L280.502277,10.6233195 Z M288.421123,31.1338599 L280.502277,20.7569699 L280.502277,31.1338599 L276.183321,31.1338599 L276.183321,6.53343985 L284.821232,6.53343985 C288.960585,6.53343985 292.26005,9.58523174 292.26005,13.7369181 C292.26005,17.8872754 289.260358,20.207355 285.601687,20.634021 L293.87974,31.1338599 L288.421123,31.1338599 Z" id="Fill-4" fill="#00005A"></path>
                            <path d="M141.629083,23.9306474 C141.629083,22.1601828 140.069478,20.7565712 138.329618,20.7565712 L134.670294,20.7565712 L134.670294,26.9831039 L138.329618,26.9831039 C140.069478,26.9831039 141.629083,25.7622542 141.629083,23.9306474 L141.629083,23.9306474 Z M134.670294,10.6235853 L134.670294,16.6666915 L138.329618,16.6666915 C140.069478,16.6666915 141.32931,15.506984 141.32931,13.6753772 C141.32931,11.9049126 140.069478,10.6235853 138.329618,10.6235853 L134.670294,10.6235853 Z M146.128294,23.9306474 C146.128294,28.0205271 142.888914,31.1341257 138.329618,31.1341257 L130.411424,31.1341257 L130.411424,6.53304109 L138.329618,6.53304109 C142.468971,6.53304109 145.648265,9.58549758 145.648265,13.7365194 C145.648265,15.8731725 144.868463,17.5824949 143.368943,18.7422024 C145.048066,19.7796256 146.128294,21.7939943 146.128294,23.9306474 L146.128294,23.9306474 Z" id="Fill-6" fill="#00005A"></path>
                            <polygon id="Fill-8" fill="#00005A" points="159.187501 10.745338 159.187501 16.8495864 168.005668 16.8495864 168.005668 20.939466 159.187501 20.939466 159.187501 27.0437144 168.305441 27.0437144 168.305441 31.1342586 154.928631 31.1342586 154.928631 6.53317401 168.305441 6.53317401 168.305441 10.6230537 159.187501 10.6230537"></polygon>
                            <polygon id="Fill-10" fill="#00005A" points="181.74312 10.6233195 175.564134 10.6233195 175.564134 6.53343985 192.241062 6.53343985 192.241062 10.6233195 186.062076 10.6233195 186.062076 31.1338599 181.74312 31.1338599"></polygon>
                            <polygon id="Fill-12" fill="#00005A" points="226.272903 10.6843287 226.272903 16.7885771 235.270672 16.7885771 235.270672 20.8784568 226.272903 20.8784568 226.272903 31.1343916 222.13355 31.1343916 222.13355 6.53330693 235.511013 6.53330693 235.511013 10.6231866"></polygon>
                            <path d="M260.585903,2.62652151 C260.585903,1.2229099 261.786302,0.123679981 263.105566,0.123679981 C264.425483,0.123679981 265.625229,1.2229099 265.625229,2.62652151 C265.625229,4.0307977 264.425483,5.12936303 263.105566,5.12936303 C261.786302,5.12936303 260.585903,4.09193987 260.585903,2.62652151 M264.305312,18.8032782 C264.305312,13.8587373 260.585903,10.1350461 255.727486,10.1350461 C250.868417,10.1350461 247.149008,13.9198795 247.149008,18.8032782 C247.149008,23.747819 250.868417,27.4715102 255.727486,27.4715102 C260.525818,27.5326524 264.305312,23.747819 264.305312,18.8032782 M245.889176,2.68766368 C245.889176,1.28338749 247.088922,0.184822153 248.408186,0.184822153 C249.728103,0.184822153 250.927849,1.28338749 250.927849,2.68766368 C250.927849,4.09193987 249.728103,5.1905052 248.408186,5.1905052 C247.088922,5.1905052 245.889176,4.09193987 245.889176,2.68766368 M242.769967,18.8032782 C242.769967,11.660942 248.528357,5.98402426 255.727486,5.98402426 C262.865878,5.98402426 268.684353,11.660942 268.684353,18.8032782 C268.684353,25.9449497 262.925963,31.6225321 255.727486,31.6225321 C248.528357,31.6225321 242.769967,25.9449497 242.769967,18.8032782" id="Fill-14" fill="#00005A"></path>
                            <polygon id="Fill-16" fill="#00005A" points="326.435572 5.98382489 326.435572 31.1338599 322.116617 31.1338599 322.116617 15.1405298 313.958082 22.4044856 305.739462 15.0793876 305.739462 31.1338599 301.419853 31.1338599 301.419853 5.98382489 301.479939 5.98382489 313.897997 16.78871 326.255317 5.98382489"></polygon>
                            <polygon id="Fill-18" fill="#00005A" points="340.292869 10.745338 340.292869 16.8495864 349.111035 16.8495864 349.111035 20.939466 340.292869 20.939466 340.292869 27.0437144 349.410809 27.0437144 349.410809 31.1342586 336.033999 31.1342586 336.033999 6.53317401 349.410809 6.53317401 349.410809 10.6230537 340.292869 10.6230537"></polygon>
                            <path d="M373.66991,18.8641545 C373.66991,13.9807558 370.250928,10.6843952 365.151517,10.6843952 L362.991713,10.6843952 L362.991713,26.9827716 L365.151517,26.9827716 C370.250928,26.9827716 373.66991,23.686411 373.66991,18.8641545 M378.048951,18.8641545 C378.048951,26.0669682 372.590335,31.1337934 365.151517,31.1337934 L358.732843,31.1337934 L358.732843,6.53337339 L365.151517,6.53337339 C372.590335,6.53337339 378.048951,11.6001986 378.048951,18.8641545" id="Fill-20" fill="#00005A"></path>
                            <polygon id="Fill-22" fill="#00005A" points="398.7448 27.0439802 398.7448 31.1338599 385.36799 31.1338599 385.36799 6.53343985 389.686946 6.53343985 389.686946 27.0439802"></polygon>
                            <polygon id="Clip-25" points="0.000326550383 63.9287931 516.982491 63.9287931 516.982491 -2.21528222e-15 0.000326550383 -2.21528222e-15"></polygon>
                            <polygon id="Fill-24" fill="#00005A" points="406.363547 31.1339928 410.682503 31.1339928 410.682503 6.53290818 406.363547 6.53290818"></polygon>
                            <polygon id="Fill-26" fill="#00005A" points="439.957092 6.53324047 439.957092 31.6221333 439.897007 31.6221333 424.540648 16.117276 424.540648 31.1343251 420.220387 31.1343251 420.220387 6.04476768 420.281125 6.04476768 435.638137 21.4891474 435.638137 6.53324047"></polygon>
                            <polygon id="Fill-27" fill="#00005A" points="516.982165 6.53324047 516.982165 31.6221333 516.922079 31.6221333 501.565721 16.117276 501.565721 31.1343251 497.246112 31.1343251 497.246112 6.04476768 497.306198 6.04476768 512.723295 21.4891474 512.723295 6.53324047"></polygon>
                            <path d="M466.117501,31.1340593 L460.178202,31.1340593 C452.679952,31.1340593 447.280768,26.0060919 447.280768,18.8644203 C447.280768,11.660942 452.740038,6.53297463 460.178202,6.53297463 L464.317555,6.53297463 L464.317555,10.6235189 L460.178202,10.6235189 C455.080098,10.6235189 451.659809,13.9198795 451.659809,18.8032782 C451.659809,23.6866769 455.080098,26.9830374 460.178202,26.9830374 L461.858631,26.9830374 L461.858631,20.8787891 L458.198654,20.8787891 L458.198654,16.7889094 L466.117501,16.7889094 L466.117501,31.1340593 Z" id="Fill-28" fill="#00005A"></path>
                            <polygon id="Fill-29" fill="#00005A" points="479.411041 10.745338 479.411041 16.8495864 488.22986 16.8495864 488.22986 20.939466 479.411041 20.939466 479.411041 27.0437144 488.529634 27.0437144 488.529634 31.1342586 475.15217 31.1342586 475.15217 6.53317401 488.529634 6.53317401 488.529634 10.6230537 479.411041 10.6230537"></polygon>
                            <path d="M198.959706,26.9726034 L206.578779,26.9726034 C208.317987,26.9726034 209.697336,25.5038621 209.697336,23.7294099 C209.697336,21.9549578 208.317987,20.5473586 206.578779,20.5473586 L205.498551,20.4862164 C201.11951,20.4862164 198.239989,18.1608201 198.239989,13.5705051 C198.239989,8.91971249 201.599539,6.53317401 205.678807,6.53317401 L212.636942,6.53317401 L212.636942,10.6336871 L205.678807,10.6336871 C203.938946,10.6336871 202.558944,11.7349108 202.558944,13.5705051 C202.558944,15.3456219 203.938946,16.263419 205.678807,16.263419 L206.758382,16.3245612 C211.317026,16.3245612 214.016944,18.833384 214.016944,23.7294099 C214.016944,28.3190604 210.657394,31.1342586 206.578779,31.1342586 L198.959706,31.1342586 L198.959706,26.9726034 Z" id="Fill-30" fill="#00005A"></path>
                            <polygon id="Fill-31" fill="#00005A" points="108.690533 46.7139487 101.581531 62.267321 101.522099 62.267321 98.3819905 55.394808 95.2425351 62.267321 88.13288 46.7139487 90.5624149 46.7139487 95.2425351 57.0828636 97.1972657 52.8029115 94.4130971 46.7139487 96.8419789 46.7139487 98.3819905 50.1498729 99.9226552 46.7139487 102.292105 46.7139487 99.5079362 52.7424339 101.462667 57.0828636 106.142787 46.7139487"></polygon>
                            <polygon id="Fill-32" fill="#00005A" points="114.038122 48.7625438 114.038122 53.163451 119.784756 53.163451 119.784756 55.3333335 114.038122 55.3333335 114.038122 59.7342407 119.902967 59.7342407 119.902967 61.9041232 111.786884 61.9041232 111.786884 46.7129518 119.902967 46.7129518 119.902967 48.8834989 114.038122 48.8834989"></polygon>
                            <path d="M134.516424,54.3086704 C134.516424,51.0535144 132.205753,48.8231543 128.829222,48.8231543 L127.288557,48.8231543 L127.288557,59.7343736 L128.829222,59.7343736 C132.205753,59.7941866 134.516424,57.5638265 134.516424,54.3086704 M136.767662,54.3086704 C136.767662,58.7693906 133.390478,61.9042561 128.76979,61.9042561 L124.97854,61.9042561 L124.97854,46.7130847 L128.76979,46.7130847 C133.390478,46.7130847 136.767662,49.8479502 136.767662,54.3086704" id="Fill-33" fill="#00005A"></path>
                            <polygon id="Fill-34" fill="#00005A" points="140.895063 61.9044555 143.146301 61.9044555 143.146301 46.7132841 140.895063 46.7132841"></polygon>
                            <polygon id="Fill-35" fill="#00005A" points="173.083461 46.7129518 173.083461 61.9041232 170.832223 61.9041232 170.832223 55.3938111 163.544924 55.3938111 163.544924 61.9041232 161.294339 61.9041232 161.294339 46.7129518 163.544924 46.7129518 163.544924 53.223264 170.832223 53.223264 170.832223 46.7129518"></polygon>
                            <path d="M194.137667,51.0532485 C194.137667,49.7872068 193.130585,48.8228884 191.886428,48.8228884 L189.398115,48.8228884 L189.398115,53.2836086 L191.886428,53.2836086 C193.130585,53.2836086 194.137667,52.3797678 194.137667,51.0532485 M196.329473,51.0532485 C196.329473,53.585332 194.31531,55.4541557 191.826996,55.4541557 L189.338682,55.4541557 L189.338682,61.9046549 L187.088097,61.9046549 L187.088097,46.7128189 L191.768217,46.7128189 C194.31531,46.7128189 196.329473,48.5816427 196.329473,51.0532485" id="Fill-36" fill="#00005A"></path>
                            <path d="M200.219994,57.2032871 L200.219994,46.7140816 L202.471233,46.7140816 L202.471233,57.2032871 C202.471233,58.7703875 203.655958,60.0969068 205.492477,60.0969068 C207.269564,60.0969068 208.513721,58.7703875 208.513721,57.2032871 L208.513721,46.7140816 L210.764959,46.7140816 L210.764959,57.2032871 C210.764959,60.0969068 208.750797,62.2674539 205.551909,62.2674539 C202.234157,62.2674539 200.219994,60.0370938 200.219994,57.2032871" id="Fill-37" fill="#00005A"></path>
                            <path d="M222.830735,57.5037477 C222.830735,56.237706 221.705442,55.2733876 220.401853,55.2733876 L217.913539,55.2733876 L217.913539,59.7341078 L220.401853,59.7341078 C221.64601,59.7341078 222.830735,58.7697894 222.830735,57.5037477 L222.830735,57.5037477 Z M217.913539,48.8228884 L217.913539,53.1028405 L220.401853,53.1028405 C221.705442,53.1028405 222.593659,52.2588127 222.593659,50.9329579 C222.593659,49.6669162 221.705442,48.8228884 220.401853,48.8228884 L217.913539,48.8228884 Z M225.081973,57.5037477 C225.081973,60.2165993 223.127243,61.9046549 220.401853,61.9046549 L215.721733,61.9046549 L215.721733,46.7128189 L220.401853,46.7128189 C222.890167,46.7128189 224.844898,48.5211651 224.844898,50.9934355 C224.844898,52.3797678 224.252535,53.4643768 223.304886,54.2485916 C224.252535,54.9118513 225.081973,56.1174154 225.081973,57.5037477 L225.081973,57.5037477 Z" id="Fill-38" fill="#00005A"></path>
                            <polygon id="Fill-39" fill="#00005A" points="237.681136 59.7344401 237.681136 61.9043226 229.742697 61.9043226 229.742697 46.7131512 231.993935 46.7131512 231.993935 59.7942531 237.681136 59.7942531"></polygon>
                            <polygon id="Fill-40" fill="#00005A" points="241.630633 61.9044555 243.881871 61.9044555 243.881871 46.7132841 241.630633 46.7132841"></polygon>
                            <path d="M247.98981,54.2788304 C247.98981,49.8353895 251.366341,46.7131512 255.987682,46.7131512 L258.23892,46.7131512 L258.23892,48.8743941 L255.987682,48.8743941 C252.551719,48.8743941 250.30048,51.0363015 250.30048,54.3386434 C250.30048,57.5811723 252.610498,59.7430797 255.987682,59.7430797 L258.23892,59.7430797 L258.23892,61.9043226 L255.987682,61.9043226 C251.366341,61.8445096 247.98981,58.7222713 247.98981,54.2788304" id="Fill-41" fill="#00005A"></path>
                            <polygon id="Fill-42" fill="#00005A" points="273.725115 48.7625438 273.725115 53.163451 279.471749 53.163451 279.471749 55.3333335 273.725115 55.3333335 273.725115 59.7342407 279.58996 59.7342407 279.58996 61.9041232 271.47453 61.9041232 271.47453 46.7129518 279.58996 46.7129518 279.58996 48.8834989 273.725768 48.8834989 273.725768 48.7625438"></polygon>
                            <polygon id="Fill-43" fill="#00005A" points="299.831904 46.4166781 299.831904 61.9095729 297.580666 61.9095729 297.580666 51.0581665 292.30753 55.5195513 287.035048 51.0581665 287.035048 61.9095729 284.843241 61.9095729 284.843241 46.3562005 284.902674 46.3562005 292.366962 52.6864091"></polygon>
                            <path d="M312.331992,50.9931697 C312.331992,49.727128 311.32491,48.7628096 310.080753,48.7628096 L307.59244,48.7628096 L307.59244,53.2235298 L310.080753,53.2235298 C311.38369,53.2235298 312.331992,52.319689 312.331992,50.9931697 M314.582577,50.9931697 C314.582577,53.5252531 312.568414,55.3940769 310.080753,55.3940769 L307.59244,55.3940769 L307.59244,61.9097058 L305.341201,61.9043891 L305.341201,46.7138822 L310.021321,46.7138822 C312.568414,46.7138822 314.582577,48.5215638 314.582577,50.9931697" id="Fill-44" fill="#00005A"></path>
                            <polygon id="Fill-45" fill="#00005A" points="326.254402 59.7344401 326.254402 61.9043226 318.315962 61.9043226 318.315962 46.7131512 320.566548 46.7131512 320.566548 59.7942531 326.254402 59.7942531"></polygon>
                            <path d="M342.348503,54.3112623 C342.348503,50.9956287 339.86019,48.5240228 336.60187,48.5240228 C333.34355,48.5240228 330.855236,51.0561063 330.855236,54.3112623 C330.855236,57.626896 333.34355,60.0985018 336.60187,60.0985018 C339.86019,60.0985018 342.348503,57.626896 342.348503,54.3112623 M328.603998,54.3112623 C328.603998,49.9103551 332.158172,46.3534757 336.60187,46.3534757 C341.044914,46.3534757 344.599742,49.8505421 344.599742,54.3112623 C344.599742,58.7121696 341.044914,62.269049 336.60187,62.269049 C332.158172,62.269049 328.603998,58.7121696 328.603998,54.3112623" id="Fill-46" fill="#00005A"></path>
                            <polygon id="Fill-47" fill="#00005A" points="353.171232 54.5497833 353.171232 61.9041232 350.919994 61.9041232 350.919994 54.5497833 346.358085 46.7129518 348.846399 46.7129518 352.045287 52.198468 355.244827 46.7129518 357.732488 46.7129518"></polygon>
                            <polygon id="Fill-48" fill="#00005A" points="376.07822 46.4166781 376.07822 61.9095729 373.826981 61.9095729 373.826981 51.0581665 368.554499 55.5195513 363.282016 51.0581665 363.282016 61.9095729 361.030778 61.9095729 361.030778 46.3562005 361.09021 46.3562005 368.554499 52.6864091"></polygon>
                            <polygon id="Fill-49" fill="#00005A" points="383.917976 48.7625438 383.917976 53.163451 389.66461 53.163451 389.66461 55.3333335 383.917976 55.3333335 383.917976 59.7342407 389.782821 59.7342407 389.782821 61.9041232 381.666738 61.9041232 381.666738 46.7129518 389.782821 46.7129518 389.782821 48.8834989 383.917976 48.8834989"></polygon>
                            <polygon id="Fill-50" fill="#00005A" points="406.844752 46.7145468 406.844752 62.2074416 406.78532 62.2074416 397.306868 51.7787137 397.306868 61.9063828 395.05563 61.9063828 395.05563 46.3530105 395.115062 46.3530105 404.594167 56.7219254 404.594167 46.7138822"></polygon>
                            <polygon id="Fill-51" fill="#00005A" points="414.408378 48.8832331 410.498263 48.8832331 410.498263 46.712686 420.510298 46.712686 420.510298 48.8832331 416.659616 48.8832331 416.659616 61.904522 414.408378 61.904522"></polygon>
                            <path d="M194.018737,51.0532485 C194.018737,49.7872068 193.011656,48.8228884 191.767499,48.8228884 L189.279185,48.8228884 L189.279185,53.2836086 L191.767499,53.2836086 C193.011656,53.2836086 194.018737,52.3797678 194.018737,51.0532485 M196.210543,51.0532485 C196.210543,53.585332 194.196381,55.4541557 191.708067,55.4541557 L189.219753,55.4541557 L189.219753,61.9046549 L186.969167,61.9046549 L186.969167,46.7128189 L191.649288,46.7128189 C194.196381,46.7128189 196.210543,48.5816427 196.210543,51.0532485" id="Fill-52" fill="#00005A"></path>
                            <path d="M200.101065,57.2032871 L200.101065,46.7140816 L202.352303,46.7140816 L202.352303,57.2032871 C202.352303,58.7703875 203.537028,60.0969068 205.373547,60.0969068 C207.150634,60.0969068 208.394791,58.7703875 208.394791,57.2032871 L208.394791,46.7140816 L210.64603,46.7140816 L210.64603,57.2032871 C210.64603,60.0969068 208.631867,62.2674539 205.432979,62.2674539 C202.115228,62.2674539 200.101065,60.0370938 200.101065,57.2032871" id="Fill-53" fill="#00005A"></path>
                            <path d="M222.712132,57.5037477 C222.712132,56.237706 221.586186,55.2733876 220.28325,55.2733876 L217.794936,55.2733876 L217.794936,59.7341078 L220.28325,59.7341078 C221.527407,59.7341078 222.712132,58.7697894 222.712132,57.5037477 L222.712132,57.5037477 Z M217.794936,48.8228884 L217.794936,53.1028405 L220.28325,53.1028405 C221.586186,53.1028405 222.475056,52.2588127 222.475056,50.9329579 C222.475056,49.6669162 221.586186,48.8228884 220.28325,48.8228884 L217.794936,48.8228884 Z M224.96337,57.5037477 C224.96337,60.2165993 223.007987,61.9046549 220.28325,61.9046549 L215.60313,61.9046549 L215.60313,46.7128189 L220.28325,46.7128189 C222.770911,46.7128189 224.726295,48.5211651 224.726295,50.9934355 C224.726295,52.3797678 224.133932,53.4643768 223.186283,54.2485916 C224.133932,54.9118513 224.96337,56.1174154 224.96337,57.5037477 L224.96337,57.5037477 Z" id="Fill-54" fill="#00005A"></path>
                            <polygon id="Fill-55" fill="#00005A" points="237.562207 59.7344401 237.562207 61.9043226 229.623767 61.9043226 229.623767 46.7131512 231.875005 46.7131512 231.875005 59.7942531 237.562207 59.7942531"></polygon>
                            <polygon id="Fill-56" fill="#00005A" points="241.511768 61.9044555 243.763007 61.9044555 243.763007 46.7132841 241.511768 46.7132841"></polygon>
                            <path d="M247.870815,54.2788304 C247.870815,49.8353895 251.247346,46.7131512 255.868687,46.7131512 L258.119925,46.7131512 L258.119925,48.8743941 L255.868687,48.8743941 C252.432724,48.8743941 250.181485,51.0363015 250.181485,54.3386434 C250.181485,57.5811723 252.492156,59.7430797 255.868687,59.7430797 L258.119925,59.7430797 L258.119925,61.9043226 L255.868687,61.9043226 C251.247346,61.8445096 247.870815,58.7222713 247.870815,54.2788304" id="Fill-57" fill="#00005A"></path>
                            <polygon id="Fill-58" fill="#00005A" points="273.606447 48.7625438 273.606447 53.163451 279.35308 53.163451 279.35308 55.3333335 273.606447 55.3333335 273.606447 59.7342407 279.471292 59.7342407 279.471292 61.9041232 271.355208 61.9041232 271.355208 46.7129518 279.471292 46.7129518 279.471292 48.8834989 273.606447 48.8834989"></polygon>
                            <polygon id="Fill-59" fill="#00005A" points="299.712648 46.4166781 299.712648 61.9095729 297.46141 61.9095729 297.46141 51.0581665 292.188927 55.5195513 286.916445 51.0581665 286.916445 61.9095729 284.724638 61.9095729 284.724638 46.3562005 284.784071 46.3562005 292.248359 52.6864091"></polygon>
                            <path d="M312.212736,50.9931697 C312.212736,49.727128 311.205654,48.7628096 309.961497,48.7628096 L307.473183,48.7628096 L307.473183,53.2235298 L309.961497,53.2235298 C311.265086,53.2235298 312.212736,52.319689 312.212736,50.9931697 M314.463974,50.9931697 C314.463974,53.5252531 312.449811,55.3940769 309.961497,55.3940769 L307.473183,55.3940769 L307.473183,61.9097058 L305.222598,61.9043891 L305.222598,46.7138822 L309.902718,46.7138822 C312.449811,46.7138822 314.463974,48.5215638 314.463974,50.9931697" id="Fill-60" fill="#00005A"></path>
                            <polygon id="Fill-61" fill="#00005A" points="326.135146 59.7344401 326.135146 61.9043226 318.196706 61.9043226 318.196706 46.7131512 320.447945 46.7131512 320.447945 59.7942531 326.135146 59.7942531"></polygon>
                            <path d="M342.229247,54.3112623 C342.229247,50.9956287 339.740933,48.5240228 336.482614,48.5240228 C333.224947,48.5240228 330.73598,51.0561063 330.73598,54.3112623 C330.73598,57.626896 333.224947,60.0985018 336.482614,60.0985018 C339.740933,60.0985018 342.229247,57.626896 342.229247,54.3112623 M328.485395,54.3112623 C328.485395,49.9103551 332.039569,46.3534757 336.482614,46.3534757 C340.926311,46.3534757 344.480486,49.8505421 344.480486,54.3112623 C344.480486,58.7121696 340.926311,62.269049 336.482614,62.269049 C332.039569,62.269049 328.485395,58.7121696 328.485395,54.3112623" id="Fill-62" fill="#00005A"></path>
                            <polygon id="Fill-63" fill="#00005A" points="353.051976 54.5497833 353.051976 61.9041232 350.801391 61.9041232 350.801391 54.5497833 346.239482 46.7129518 348.727796 46.7129518 351.926684 52.198468 355.126224 46.7129518 357.613885 46.7129518"></polygon>
                            <polygon id="Fill-64" fill="#00005A" points="375.959616 46.4166781 375.959616 61.9095729 373.708378 61.9095729 373.708378 51.0581665 368.435242 55.5195513 363.16276 51.0581665 363.16276 61.9095729 360.912175 61.9095729 360.912175 46.3562005 360.970954 46.3562005 368.435242 52.6864091"></polygon>
                            <polygon id="Fill-65" fill="#00005A" points="383.79872 48.7625438 383.79872 53.163451 389.545353 53.163451 389.545353 55.3333335 383.79872 55.3333335 383.79872 59.7342407 389.663565 59.7342407 389.663565 61.9041232 381.548134 61.9041232 381.548134 46.7129518 389.663565 46.7129518 389.663565 48.8834989 383.79872 48.8834989"></polygon>
                            <polygon id="Fill-66" fill="#00005A" points="406.726149 46.7145468 406.726149 62.2074416 406.666717 62.2074416 397.188265 51.7787137 397.188265 61.9063828 394.936374 61.9063828 394.936374 46.3530105 394.995806 46.3530105 404.474911 56.7219254 404.474911 46.7138822"></polygon>
                            <polygon id="Fill-67" fill="#00005A" points="414.289056 48.8832331 410.379595 48.8832331 410.379595 46.712686 420.39163 46.712686 420.39163 48.8832331 416.540294 48.8832331 416.540294 61.904522 414.289056 61.904522"></polygon>
                            <path d="M76.9130659,59.7344401 L81.4155426,59.7344401 C82.6596996,59.7344401 83.7255601,58.7096441 83.7255601,57.4436024 C83.7255601,56.1775607 82.6596996,55.1527647 81.4155426,55.1527647 L80.8819593,55.1527647 C77.8012829,55.1527647 76.3801357,53.4048961 76.3801357,50.9326257 C76.3801357,48.4610198 77.9795795,46.7131512 80.8819593,46.7131512 L85.0885814,46.7131512 L85.0885814,48.8830337 L80.8231802,48.8830337 C79.5790233,48.8830337 78.5719419,49.6672485 78.5719419,50.9326257 C78.5719419,52.1986674 79.5790233,52.9822176 80.8231802,52.9822176 L81.3561105,52.9822176 C84.496219,52.9822176 85.9180194,54.911519 85.9180194,57.4436024 C85.9180194,59.9152082 84.2591434,61.9043226 81.3561105,61.9043226 L76.9130659,61.9043226 L76.9130659,59.7344401 Z" id="Fill-68" fill="#00005A"></path>
                            <path d="M148.102683,59.7344401 L152.60516,59.7344401 C153.849317,59.7344401 154.91583,58.7096441 154.91583,57.4436024 C154.91583,56.1775607 153.849317,55.1527647 152.60516,55.1527647 L152.07223,55.1527647 C148.991553,55.1527647 147.569753,53.4048961 147.569753,50.9326257 C147.569753,48.4610198 149.169197,46.7131512 152.07223,46.7131512 L156.337631,46.7131512 L156.337631,48.8830337 L152.07223,48.8830337 C150.828073,48.8830337 149.820991,49.6672485 149.820991,50.9326257 C149.820991,52.1986674 150.828073,52.9822176 152.07223,52.9822176 L152.60516,52.9822176 C155.745268,52.9822176 157.167069,54.911519 157.167069,57.4436024 C157.167069,59.9152082 155.508193,61.9043226 152.60516,61.9043226 L148.162115,61.9043226 L148.162115,59.7344401 L148.102683,59.7344401 Z" id="Fill-69" fill="#00005A"></path>
                            <path d="M432.265328,59.7344401 L436.768458,59.7344401 C438.011962,59.7344401 439.078476,58.7096441 439.078476,57.4436024 C439.078476,56.1775607 438.011962,55.1527647 436.768458,55.1527647 L436.234875,55.1527647 C433.154198,55.1527647 431.732398,53.4048961 431.732398,50.9326257 C431.732398,48.4610198 433.331842,46.7131512 436.234875,46.7131512 L440.500276,46.7131512 L440.500276,48.8830337 L436.234875,48.8830337 C434.990718,48.8830337 433.983636,49.6672485 433.983636,50.9326257 C433.983636,52.1986674 434.990718,52.9822176 436.234875,52.9822176 L436.768458,52.9822176 C439.907914,52.9822176 441.329714,54.911519 441.329714,57.4436024 C441.329714,59.9152082 439.670838,61.9043226 436.768458,61.9043226 L432.32476,61.9043226 L432.265328,59.7344401 Z" id="Fill-70" fill="#00005A"></path>
                            <polygon id="Fill-71" fill="#00005A" points="448.141882 48.7625438 448.141882 53.163451 453.888515 53.163451 453.888515 55.3333335 448.141882 55.3333335 448.141882 59.7342407 454.006727 59.7342407 454.006727 61.9041232 445.890643 61.9041232 445.890643 46.7129518 454.006727 46.7129518 454.006727 48.8834989 448.141882 48.8834989"></polygon>
                            <path d="M461.273452,48.8754574 L461.273452,53.2584207 L463.93941,53.2584207 C465.242999,53.2584207 466.190648,52.3579029 466.190648,51.0367003 C466.190648,49.7759753 465.183567,48.8754574 463.93941,48.8754574 L461.273452,48.8754574 Z M466.486503,61.8442438 L461.273452,55.179747 L461.273452,61.9093735 L459.022867,61.9093735 L459.022867,46.7142145 L463.93941,46.7142145 C466.427724,46.7142145 468.44254,48.5750632 468.44254,51.0367003 C468.44254,53.4990019 466.486503,55.179747 463.998842,55.3000376 L469.211892,61.9040568 L466.486503,61.9040568 L466.486503,61.8442438 Z" id="Fill-72" fill="#00005A"></path>
                            <polygon id="Fill-73" fill="#00005A" points="484.714284 46.7139487 477.604629 62.1457013 477.545197 62.1457013 470.436848 46.7139487 472.865077 46.7139487 477.545197 57.0017837 482.225317 46.7139487"></polygon>
                            <polygon id="Fill-74" fill="#00005A" points="487.893383 61.9044555 490.143968 61.9044555 490.143968 46.7132841 487.893383 46.7132841"></polygon>
                            <path d="M494.272218,54.2788304 C494.272218,49.8353895 497.648749,46.7131512 502.269437,46.7131512 L504.520675,46.7131512 L504.520675,48.8743941 L502.269437,48.8743941 C498.833474,48.8743941 496.582235,51.0363015 496.582235,54.3386434 C496.582235,57.5811723 498.892906,59.7430797 502.269437,59.7430797 L504.520675,59.7430797 L504.520675,61.9043226 L502.269437,61.9043226 C497.648749,61.8445096 494.272218,58.7222713 494.272218,54.2788304" id="Fill-75" fill="#00005A"></path>
                            <polygon id="Fill-76" fill="#00005A" points="511.018179 48.7625438 511.018179 53.163451 516.764813 53.163451 516.764813 55.3333335 511.018179 55.3333335 511.018179 59.7342407 516.883024 59.7342407 516.883024 61.9041232 508.766941 61.9041232 508.766941 46.7129518 516.883024 46.7129518 516.883024 48.8834989 511.018179 48.8834989"></polygon>
                            <g id="Group" transform="translate(0.000000, 0.000266)">
                                <g id="Group-3" transform="translate(0.000000, -0.000000)">
                                    <mask id="mask-2" fill="white">
                                        <use xlink:href="#path-1"></use>
                                    </mask>
                                    <use id="Combined-Shape" fill="#7EC13D" xlink:href="#path-1"></use>
                                    <g id="Group" mask="url(#mask-2)" fill="#95C23E">
                                        <g id="colors/6/blue">
                                            <rect id="Rectangle" x="0" y="0" width="62.9302326" height="64.4651163"></rect>
                                        </g>
                                    </g>
                                </g>
                            </g>
                        </g>
                    </g>
                </g>
                <line x1="194.5" y1="102.188398" x2="0.5" y2="102.188398" id="Line" stroke="#00005A" stroke-linecap="square"></line>
                <line x1="519.5" y1="102.188398" x2="322.5" y2="102.188398" id="Line" stroke="#00005A" stroke-linecap="square"></line>
                <g id="Group" transform="translate(1.746869, 0.000000)">
                    <g id="Group-12-Copy-2" transform="translate(-0.000327, 0.536323)">
                        <path d="M90.7416261,21.7894117 L88.1006606,15.2292537 L85.4002373,21.7894117 L90.7416261,21.7894117 Z M92.4221218,25.6415061 L83.7798527,25.6415061 L81.0193185,31.5392271 L76.4587199,31.5392271 L88.0412029,6.56318795 L88.1607716,6.56318795 L99.743908,31.5392271 L95.0624339,31.5392271 L92.4221218,25.6415061 Z" id="Fill-1" fill="#00005A"></path>
                        <g id="Group-79">
                            <path d="M109.493521,10.6233195 L109.493521,16.9721366 L113.692959,16.9721366 C115.432166,16.9721366 116.932338,15.5678604 116.932338,13.7973957 C116.932338,12.0269311 115.552336,10.6233195 113.812476,10.6233195 L109.493521,10.6233195 Z M117.412367,31.1338599 L109.493521,20.7569699 L109.493521,31.1338599 L105.174565,31.1338599 L105.174565,6.53343985 L113.812476,6.53343985 C117.951829,6.53343985 121.251294,9.58523174 121.251294,13.7369181 C121.251294,17.8872754 118.251602,20.207355 114.592278,20.634021 L122.870984,31.1338599 L117.412367,31.1338599 Z" id="Fill-2" fill="#00005A"></path>
                            <path d="M280.502277,10.6233195 L280.502277,16.9721366 L284.701715,16.9721366 C286.441575,16.9721366 287.941094,15.5678604 287.941094,13.7973957 C287.941094,12.0269311 286.561092,10.6233195 284.821232,10.6233195 L280.502277,10.6233195 Z M288.421123,31.1338599 L280.502277,20.7569699 L280.502277,31.1338599 L276.183321,31.1338599 L276.183321,6.53343985 L284.821232,6.53343985 C288.960585,6.53343985 292.26005,9.58523174 292.26005,13.7369181 C292.26005,17.8872754 289.260358,20.207355 285.601687,20.634021 L293.87974,31.1338599 L288.421123,31.1338599 Z" id="Fill-4" fill="#00005A"></path>
                            <path d="M141.629083,23.9306474 C141.629083,22.1601828 140.069478,20.7565712 138.329618,20.7565712 L134.670294,20.7565712 L134.670294,26.9831039 L138.329618,26.9831039 C140.069478,26.9831039 141.629083,25.7622542 141.629083,23.9306474 L141.629083,23.9306474 Z M134.670294,10.6235853 L134.670294,16.6666915 L138.329618,16.6666915 C140.069478,16.6666915 141.32931,15.506984 141.32931,13.6753772 C141.32931,11.9049126 140.069478,10.6235853 138.329618,10.6235853 L134.670294,10.6235853 Z M146.128294,23.9306474 C146.128294,28.0205271 142.888914,31.1341257 138.329618,31.1341257 L130.411424,31.1341257 L130.411424,6.53304109 L138.329618,6.53304109 C142.468971,6.53304109 145.648265,9.58549758 145.648265,13.7365194 C145.648265,15.8731725 144.868463,17.5824949 143.368943,18.7422024 C145.048066,19.7796256 146.128294,21.7939943 146.128294,23.9306474 L146.128294,23.9306474 Z" id="Fill-6" fill="#00005A"></path>
                            <polygon id="Fill-8" fill="#00005A" points="159.187501 10.745338 159.187501 16.8495864 168.005668 16.8495864 168.005668 20.939466 159.187501 20.939466 159.187501 27.0437144 168.305441 27.0437144 168.305441 31.1342586 154.928631 31.1342586 154.928631 6.53317401 168.305441 6.53317401 168.305441 10.6230537 159.187501 10.6230537"></polygon>
                            <polygon id="Fill-10" fill="#00005A" points="181.74312 10.6233195 175.564134 10.6233195 175.564134 6.53343985 192.241062 6.53343985 192.241062 10.6233195 186.062076 10.6233195 186.062076 31.1338599 181.74312 31.1338599"></polygon>
                            <polygon id="Fill-12" fill="#00005A" points="226.272903 10.6843287 226.272903 16.7885771 235.270672 16.7885771 235.270672 20.8784568 226.272903 20.8784568 226.272903 31.1343916 222.13355 31.1343916 222.13355 6.53330693 235.511013 6.53330693 235.511013 10.6231866"></polygon>
                            <path d="M260.585903,2.62652151 C260.585903,1.2229099 261.786302,0.123679981 263.105566,0.123679981 C264.425483,0.123679981 265.625229,1.2229099 265.625229,2.62652151 C265.625229,4.0307977 264.425483,5.12936303 263.105566,5.12936303 C261.786302,5.12936303 260.585903,4.09193987 260.585903,2.62652151 M264.305312,18.8032782 C264.305312,13.8587373 260.585903,10.1350461 255.727486,10.1350461 C250.868417,10.1350461 247.149008,13.9198795 247.149008,18.8032782 C247.149008,23.747819 250.868417,27.4715102 255.727486,27.4715102 C260.525818,27.5326524 264.305312,23.747819 264.305312,18.8032782 M245.889176,2.68766368 C245.889176,1.28338749 247.088922,0.184822153 248.408186,0.184822153 C249.728103,0.184822153 250.927849,1.28338749 250.927849,2.68766368 C250.927849,4.09193987 249.728103,5.1905052 248.408186,5.1905052 C247.088922,5.1905052 245.889176,4.09193987 245.889176,2.68766368 M242.769967,18.8032782 C242.769967,11.660942 248.528357,5.98402426 255.727486,5.98402426 C262.865878,5.98402426 268.684353,11.660942 268.684353,18.8032782 C268.684353,25.9449497 262.925963,31.6225321 255.727486,31.6225321 C248.528357,31.6225321 242.769967,25.9449497 242.769967,18.8032782" id="Fill-14" fill="#00005A"></path>
                            <polygon id="Fill-16" fill="#00005A" points="326.435572 5.98382489 326.435572 31.1338599 322.116617 31.1338599 322.116617 15.1405298 313.958082 22.4044856 305.739462 15.0793876 305.739462 31.1338599 301.419853 31.1338599 301.419853 5.98382489 301.479939 5.98382489 313.897997 16.78871 326.255317 5.98382489"></polygon>
                            <polygon id="Fill-18" fill="#00005A" points="340.292869 10.745338 340.292869 16.8495864 349.111035 16.8495864 349.111035 20.939466 340.292869 20.939466 340.292869 27.0437144 349.410809 27.0437144 349.410809 31.1342586 336.033999 31.1342586 336.033999 6.53317401 349.410809 6.53317401 349.410809 10.6230537 340.292869 10.6230537"></polygon>
                            <path d="M373.66991,18.8641545 C373.66991,13.9807558 370.250928,10.6843952 365.151517,10.6843952 L362.991713,10.6843952 L362.991713,26.9827716 L365.151517,26.9827716 C370.250928,26.9827716 373.66991,23.686411 373.66991,18.8641545 M378.048951,18.8641545 C378.048951,26.0669682 372.590335,31.1337934 365.151517,31.1337934 L358.732843,31.1337934 L358.732843,6.53337339 L365.151517,6.53337339 C372.590335,6.53337339 378.048951,11.6001986 378.048951,18.8641545" id="Fill-20" fill="#00005A"></path>
                            <polygon id="Fill-22" fill="#00005A" points="398.7448 27.0439802 398.7448 31.1338599 385.36799 31.1338599 385.36799 6.53343985 389.686946 6.53343985 389.686946 27.0439802"></polygon>
                            <polygon id="Clip-25" points="0.000326550383 63.9287931 516.982491 63.9287931 516.982491 -2.21528222e-15 0.000326550383 -2.21528222e-15"></polygon>
                            <polygon id="Fill-24" fill="#00005A" points="406.363547 31.1339928 410.682503 31.1339928 410.682503 6.53290818 406.363547 6.53290818"></polygon>
                            <polygon id="Fill-26" fill="#00005A" points="439.957092 6.53324047 439.957092 31.6221333 439.897007 31.6221333 424.540648 16.117276 424.540648 31.1343251 420.220387 31.1343251 420.220387 6.04476768 420.281125 6.04476768 435.638137 21.4891474 435.638137 6.53324047"></polygon>
                            <polygon id="Fill-27" fill="#00005A" points="516.982165 6.53324047 516.982165 31.6221333 516.922079 31.6221333 501.565721 16.117276 501.565721 31.1343251 497.246112 31.1343251 497.246112 6.04476768 497.306198 6.04476768 512.723295 21.4891474 512.723295 6.53324047"></polygon>
                            <path d="M466.117501,31.1340593 L460.178202,31.1340593 C452.679952,31.1340593 447.280768,26.0060919 447.280768,18.8644203 C447.280768,11.660942 452.740038,6.53297463 460.178202,6.53297463 L464.317555,6.53297463 L464.317555,10.6235189 L460.178202,10.6235189 C455.080098,10.6235189 451.659809,13.9198795 451.659809,18.8032782 C451.659809,23.6866769 455.080098,26.9830374 460.178202,26.9830374 L461.858631,26.9830374 L461.858631,20.8787891 L458.198654,20.8787891 L458.198654,16.7889094 L466.117501,16.7889094 L466.117501,31.1340593 Z" id="Fill-28" fill="#00005A"></path>
                            <polygon id="Fill-29" fill="#00005A" points="479.411041 10.745338 479.411041 16.8495864 488.22986 16.8495864 488.22986 20.939466 479.411041 20.939466 479.411041 27.0437144 488.529634 27.0437144 488.529634 31.1342586 475.15217 31.1342586 475.15217 6.53317401 488.529634 6.53317401 488.529634 10.6230537 479.411041 10.6230537"></polygon>
                            <path d="M198.959706,26.9726034 L206.578779,26.9726034 C208.317987,26.9726034 209.697336,25.5038621 209.697336,23.7294099 C209.697336,21.9549578 208.317987,20.5473586 206.578779,20.5473586 L205.498551,20.4862164 C201.11951,20.4862164 198.239989,18.1608201 198.239989,13.5705051 C198.239989,8.91971249 201.599539,6.53317401 205.678807,6.53317401 L212.636942,6.53317401 L212.636942,10.6336871 L205.678807,10.6336871 C203.938946,10.6336871 202.558944,11.7349108 202.558944,13.5705051 C202.558944,15.3456219 203.938946,16.263419 205.678807,16.263419 L206.758382,16.3245612 C211.317026,16.3245612 214.016944,18.833384 214.016944,23.7294099 C214.016944,28.3190604 210.657394,31.1342586 206.578779,31.1342586 L198.959706,31.1342586 L198.959706,26.9726034 Z" id="Fill-30" fill="#00005A"></path>
                            <polygon id="Fill-31" fill="#00005A" points="108.690533 46.7139487 101.581531 62.267321 101.522099 62.267321 98.3819905 55.394808 95.2425351 62.267321 88.13288 46.7139487 90.5624149 46.7139487 95.2425351 57.0828636 97.1972657 52.8029115 94.4130971 46.7139487 96.8419789 46.7139487 98.3819905 50.1498729 99.9226552 46.7139487 102.292105 46.7139487 99.5079362 52.7424339 101.462667 57.0828636 106.142787 46.7139487"></polygon>
                            <polygon id="Fill-32" fill="#00005A" points="114.038122 48.7625438 114.038122 53.163451 119.784756 53.163451 119.784756 55.3333335 114.038122 55.3333335 114.038122 59.7342407 119.902967 59.7342407 119.902967 61.9041232 111.786884 61.9041232 111.786884 46.7129518 119.902967 46.7129518 119.902967 48.8834989 114.038122 48.8834989"></polygon>
                            <path d="M134.516424,54.3086704 C134.516424,51.0535144 132.205753,48.8231543 128.829222,48.8231543 L127.288557,48.8231543 L127.288557,59.7343736 L128.829222,59.7343736 C132.205753,59.7941866 134.516424,57.5638265 134.516424,54.3086704 M136.767662,54.3086704 C136.767662,58.7693906 133.390478,61.9042561 128.76979,61.9042561 L124.97854,61.9042561 L124.97854,46.7130847 L128.76979,46.7130847 C133.390478,46.7130847 136.767662,49.8479502 136.767662,54.3086704" id="Fill-33" fill="#00005A"></path>
                            <polygon id="Fill-34" fill="#00005A" points="140.895063 61.9044555 143.146301 61.9044555 143.146301 46.7132841 140.895063 46.7132841"></polygon>
                            <polygon id="Fill-35" fill="#00005A" points="173.083461 46.7129518 173.083461 61.9041232 170.832223 61.9041232 170.832223 55.3938111 163.544924 55.3938111 163.544924 61.9041232 161.294339 61.9041232 161.294339 46.7129518 163.544924 46.7129518 163.544924 53.223264 170.832223 53.223264 170.832223 46.7129518"></polygon>
                            <path d="M194.137667,51.0532485 C194.137667,49.7872068 193.130585,48.8228884 191.886428,48.8228884 L189.398115,48.8228884 L189.398115,53.2836086 L191.886428,53.2836086 C193.130585,53.2836086 194.137667,52.3797678 194.137667,51.0532485 M196.329473,51.0532485 C196.329473,53.585332 194.31531,55.4541557 191.826996,55.4541557 L189.338682,55.4541557 L189.338682,61.9046549 L187.088097,61.9046549 L187.088097,46.7128189 L191.768217,46.7128189 C194.31531,46.7128189 196.329473,48.5816427 196.329473,51.0532485" id="Fill-36" fill="#00005A"></path>
                            <path d="M200.219994,57.2032871 L200.219994,46.7140816 L202.471233,46.7140816 L202.471233,57.2032871 C202.471233,58.7703875 203.655958,60.0969068 205.492477,60.0969068 C207.269564,60.0969068 208.513721,58.7703875 208.513721,57.2032871 L208.513721,46.7140816 L210.764959,46.7140816 L210.764959,57.2032871 C210.764959,60.0969068 208.750797,62.2674539 205.551909,62.2674539 C202.234157,62.2674539 200.219994,60.0370938 200.219994,57.2032871" id="Fill-37" fill="#00005A"></path>
                            <path d="M222.830735,57.5037477 C222.830735,56.237706 221.705442,55.2733876 220.401853,55.2733876 L217.913539,55.2733876 L217.913539,59.7341078 L220.401853,59.7341078 C221.64601,59.7341078 222.830735,58.7697894 222.830735,57.5037477 L222.830735,57.5037477 Z M217.913539,48.8228884 L217.913539,53.1028405 L220.401853,53.1028405 C221.705442,53.1028405 222.593659,52.2588127 222.593659,50.9329579 C222.593659,49.6669162 221.705442,48.8228884 220.401853,48.8228884 L217.913539,48.8228884 Z M225.081973,57.5037477 C225.081973,60.2165993 223.127243,61.9046549 220.401853,61.9046549 L215.721733,61.9046549 L215.721733,46.7128189 L220.401853,46.7128189 C222.890167,46.7128189 224.844898,48.5211651 224.844898,50.9934355 C224.844898,52.3797678 224.252535,53.4643768 223.304886,54.2485916 C224.252535,54.9118513 225.081973,56.1174154 225.081973,57.5037477 L225.081973,57.5037477 Z" id="Fill-38" fill="#00005A"></path>
                            <polygon id="Fill-39" fill="#00005A" points="237.681136 59.7344401 237.681136 61.9043226 229.742697 61.9043226 229.742697 46.7131512 231.993935 46.7131512 231.993935 59.7942531 237.681136 59.7942531"></polygon>
                            <polygon id="Fill-40" fill="#00005A" points="241.630633 61.9044555 243.881871 61.9044555 243.881871 46.7132841 241.630633 46.7132841"></polygon>
                            <path d="M247.98981,54.2788304 C247.98981,49.8353895 251.366341,46.7131512 255.987682,46.7131512 L258.23892,46.7131512 L258.23892,48.8743941 L255.987682,48.8743941 C252.551719,48.8743941 250.30048,51.0363015 250.30048,54.3386434 C250.30048,57.5811723 252.610498,59.7430797 255.987682,59.7430797 L258.23892,59.7430797 L258.23892,61.9043226 L255.987682,61.9043226 C251.366341,61.8445096 247.98981,58.7222713 247.98981,54.2788304" id="Fill-41" fill="#00005A"></path>
                            <polygon id="Fill-42" fill="#00005A" points="273.725115 48.7625438 273.725115 53.163451 279.471749 53.163451 279.471749 55.3333335 273.725115 55.3333335 273.725115 59.7342407 279.58996 59.7342407 279.58996 61.9041232 271.47453 61.9041232 271.47453 46.7129518 279.58996 46.7129518 279.58996 48.8834989 273.725768 48.8834989 273.725768 48.7625438"></polygon>
                            <polygon id="Fill-43" fill="#00005A" points="299.831904 46.4166781 299.831904 61.9095729 297.580666 61.9095729 297.580666 51.0581665 292.30753 55.5195513 287.035048 51.0581665 287.035048 61.9095729 284.843241 61.9095729 284.843241 46.3562005 284.902674 46.3562005 292.366962 52.6864091"></polygon>
                            <path d="M312.331992,50.9931697 C312.331992,49.727128 311.32491,48.7628096 310.080753,48.7628096 L307.59244,48.7628096 L307.59244,53.2235298 L310.080753,53.2235298 C311.38369,53.2235298 312.331992,52.319689 312.331992,50.9931697 M314.582577,50.9931697 C314.582577,53.5252531 312.568414,55.3940769 310.080753,55.3940769 L307.59244,55.3940769 L307.59244,61.9097058 L305.341201,61.9043891 L305.341201,46.7138822 L310.021321,46.7138822 C312.568414,46.7138822 314.582577,48.5215638 314.582577,50.9931697" id="Fill-44" fill="#00005A"></path>
                            <polygon id="Fill-45" fill="#00005A" points="326.254402 59.7344401 326.254402 61.9043226 318.315962 61.9043226 318.315962 46.7131512 320.566548 46.7131512 320.566548 59.7942531 326.254402 59.7942531"></polygon>
                            <path d="M342.348503,54.3112623 C342.348503,50.9956287 339.86019,48.5240228 336.60187,48.5240228 C333.34355,48.5240228 330.855236,51.0561063 330.855236,54.3112623 C330.855236,57.626896 333.34355,60.0985018 336.60187,60.0985018 C339.86019,60.0985018 342.348503,57.626896 342.348503,54.3112623 M328.603998,54.3112623 C328.603998,49.9103551 332.158172,46.3534757 336.60187,46.3534757 C341.044914,46.3534757 344.599742,49.8505421 344.599742,54.3112623 C344.599742,58.7121696 341.044914,62.269049 336.60187,62.269049 C332.158172,62.269049 328.603998,58.7121696 328.603998,54.3112623" id="Fill-46" fill="#00005A"></path>
                            <polygon id="Fill-47" fill="#00005A" points="353.171232 54.5497833 353.171232 61.9041232 350.919994 61.9041232 350.919994 54.5497833 346.358085 46.7129518 348.846399 46.7129518 352.045287 52.198468 355.244827 46.7129518 357.732488 46.7129518"></polygon>
                            <polygon id="Fill-48" fill="#00005A" points="376.07822 46.4166781 376.07822 61.9095729 373.826981 61.9095729 373.826981 51.0581665 368.554499 55.5195513 363.282016 51.0581665 363.282016 61.9095729 361.030778 61.9095729 361.030778 46.3562005 361.09021 46.3562005 368.554499 52.6864091"></polygon>
                            <polygon id="Fill-49" fill="#00005A" points="383.917976 48.7625438 383.917976 53.163451 389.66461 53.163451 389.66461 55.3333335 383.917976 55.3333335 383.917976 59.7342407 389.782821 59.7342407 389.782821 61.9041232 381.666738 61.9041232 381.666738 46.7129518 389.782821 46.7129518 389.782821 48.8834989 383.917976 48.8834989"></polygon>
                            <polygon id="Fill-50" fill="#00005A" points="406.844752 46.7145468 406.844752 62.2074416 406.78532 62.2074416 397.306868 51.7787137 397.306868 61.9063828 395.05563 61.9063828 395.05563 46.3530105 395.115062 46.3530105 404.594167 56.7219254 404.594167 46.7138822"></polygon>
                            <polygon id="Fill-51" fill="#00005A" points="414.408378 48.8832331 410.498263 48.8832331 410.498263 46.712686 420.510298 46.712686 420.510298 48.8832331 416.659616 48.8832331 416.659616 61.904522 414.408378 61.904522"></polygon>
                            <path d="M194.018737,51.0532485 C194.018737,49.7872068 193.011656,48.8228884 191.767499,48.8228884 L189.279185,48.8228884 L189.279185,53.2836086 L191.767499,53.2836086 C193.011656,53.2836086 194.018737,52.3797678 194.018737,51.0532485 M196.210543,51.0532485 C196.210543,53.585332 194.196381,55.4541557 191.708067,55.4541557 L189.219753,55.4541557 L189.219753,61.9046549 L186.969167,61.9046549 L186.969167,46.7128189 L191.649288,46.7128189 C194.196381,46.7128189 196.210543,48.5816427 196.210543,51.0532485" id="Fill-52" fill="#00005A"></path>
                            <path d="M200.101065,57.2032871 L200.101065,46.7140816 L202.352303,46.7140816 L202.352303,57.2032871 C202.352303,58.7703875 203.537028,60.0969068 205.373547,60.0969068 C207.150634,60.0969068 208.394791,58.7703875 208.394791,57.2032871 L208.394791,46.7140816 L210.64603,46.7140816 L210.64603,57.2032871 C210.64603,60.0969068 208.631867,62.2674539 205.432979,62.2674539 C202.115228,62.2674539 200.101065,60.0370938 200.101065,57.2032871" id="Fill-53" fill="#00005A"></path>
                            <path d="M222.712132,57.5037477 C222.712132,56.237706 221.586186,55.2733876 220.28325,55.2733876 L217.794936,55.2733876 L217.794936,59.7341078 L220.28325,59.7341078 C221.527407,59.7341078 222.712132,58.7697894 222.712132,57.5037477 L222.712132,57.5037477 Z M217.794936,48.8228884 L217.794936,53.1028405 L220.28325,53.1028405 C221.586186,53.1028405 222.475056,52.2588127 222.475056,50.9329579 C222.475056,49.6669162 221.586186,48.8228884 220.28325,48.8228884 L217.794936,48.8228884 Z M224.96337,57.5037477 C224.96337,60.2165993 223.007987,61.9046549 220.28325,61.9046549 L215.60313,61.9046549 L215.60313,46.7128189 L220.28325,46.7128189 C222.770911,46.7128189 224.726295,48.5211651 224.726295,50.9934355 C224.726295,52.3797678 224.133932,53.4643768 223.186283,54.2485916 C224.133932,54.9118513 224.96337,56.1174154 224.96337,57.5037477 L224.96337,57.5037477 Z" id="Fill-54" fill="#00005A"></path>
                            <polygon id="Fill-55" fill="#00005A" points="237.562207 59.7344401 237.562207 61.9043226 229.623767 61.9043226 229.623767 46.7131512 231.875005 46.7131512 231.875005 59.7942531 237.562207 59.7942531"></polygon>
                            <polygon id="Fill-56" fill="#00005A" points="241.511768 61.9044555 243.763007 61.9044555 243.763007 46.7132841 241.511768 46.7132841"></polygon>
                            <path d="M247.870815,54.2788304 C247.870815,49.8353895 251.247346,46.7131512 255.868687,46.7131512 L258.119925,46.7131512 L258.119925,48.8743941 L255.868687,48.8743941 C252.432724,48.8743941 250.181485,51.0363015 250.181485,54.3386434 C250.181485,57.5811723 252.492156,59.7430797 255.868687,59.7430797 L258.119925,59.7430797 L258.119925,61.9043226 L255.868687,61.9043226 C251.247346,61.8445096 247.870815,58.7222713 247.870815,54.2788304" id="Fill-57" fill="#00005A"></path>
                            <polygon id="Fill-58" fill="#00005A" points="273.606447 48.7625438 273.606447 53.163451 279.35308 53.163451 279.35308 55.3333335 273.606447 55.3333335 273.606447 59.7342407 279.471292 59.7342407 279.471292 61.9041232 271.355208 61.9041232 271.355208 46.7129518 279.471292 46.7129518 279.471292 48.8834989 273.606447 48.8834989"></polygon>
                            <polygon id="Fill-59" fill="#00005A" points="299.712648 46.4166781 299.712648 61.9095729 297.46141 61.9095729 297.46141 51.0581665 292.188927 55.5195513 286.916445 51.0581665 286.916445 61.9095729 284.724638 61.9095729 284.724638 46.3562005 284.784071 46.3562005 292.248359 52.6864091"></polygon>
                            <path d="M312.212736,50.9931697 C312.212736,49.727128 311.205654,48.7628096 309.961497,48.7628096 L307.473183,48.7628096 L307.473183,53.2235298 L309.961497,53.2235298 C311.265086,53.2235298 312.212736,52.319689 312.212736,50.9931697 M314.463974,50.9931697 C314.463974,53.5252531 312.449811,55.3940769 309.961497,55.3940769 L307.473183,55.3940769 L307.473183,61.9097058 L305.222598,61.9043891 L305.222598,46.7138822 L309.902718,46.7138822 C312.449811,46.7138822 314.463974,48.5215638 314.463974,50.9931697" id="Fill-60" fill="#00005A"></path>
                            <polygon id="Fill-61" fill="#00005A" points="326.135146 59.7344401 326.135146 61.9043226 318.196706 61.9043226 318.196706 46.7131512 320.447945 46.7131512 320.447945 59.7942531 326.135146 59.7942531"></polygon>
                            <path d="M342.229247,54.3112623 C342.229247,50.9956287 339.740933,48.5240228 336.482614,48.5240228 C333.224947,48.5240228 330.73598,51.0561063 330.73598,54.3112623 C330.73598,57.626896 333.224947,60.0985018 336.482614,60.0985018 C339.740933,60.0985018 342.229247,57.626896 342.229247,54.3112623 M328.485395,54.3112623 C328.485395,49.9103551 332.039569,46.3534757 336.482614,46.3534757 C340.926311,46.3534757 344.480486,49.8505421 344.480486,54.3112623 C344.480486,58.7121696 340.926311,62.269049 336.482614,62.269049 C332.039569,62.269049 328.485395,58.7121696 328.485395,54.3112623" id="Fill-62" fill="#00005A"></path>
                            <polygon id="Fill-63" fill="#00005A" points="353.051976 54.5497833 353.051976 61.9041232 350.801391 61.9041232 350.801391 54.5497833 346.239482 46.7129518 348.727796 46.7129518 351.926684 52.198468 355.126224 46.7129518 357.613885 46.7129518"></polygon>
                            <polygon id="Fill-64" fill="#00005A" points="375.959616 46.4166781 375.959616 61.9095729 373.708378 61.9095729 373.708378 51.0581665 368.435242 55.5195513 363.16276 51.0581665 363.16276 61.9095729 360.912175 61.9095729 360.912175 46.3562005 360.970954 46.3562005 368.435242 52.6864091"></polygon>
                            <polygon id="Fill-65" fill="#00005A" points="383.79872 48.7625438 383.79872 53.163451 389.545353 53.163451 389.545353 55.3333335 383.79872 55.3333335 383.79872 59.7342407 389.663565 59.7342407 389.663565 61.9041232 381.548134 61.9041232 381.548134 46.7129518 389.663565 46.7129518 389.663565 48.8834989 383.79872 48.8834989"></polygon>
                            <polygon id="Fill-66" fill="#00005A" points="406.726149 46.7145468 406.726149 62.2074416 406.666717 62.2074416 397.188265 51.7787137 397.188265 61.9063828 394.936374 61.9063828 394.936374 46.3530105 394.995806 46.3530105 404.474911 56.7219254 404.474911 46.7138822"></polygon>
                            <polygon id="Fill-67" fill="#00005A" points="414.289056 48.8832331 410.379595 48.8832331 410.379595 46.712686 420.39163 46.712686 420.39163 48.8832331 416.540294 48.8832331 416.540294 61.904522 414.289056 61.904522"></polygon>
                            <path d="M76.9130659,59.7344401 L81.4155426,59.7344401 C82.6596996,59.7344401 83.7255601,58.7096441 83.7255601,57.4436024 C83.7255601,56.1775607 82.6596996,55.1527647 81.4155426,55.1527647 L80.8819593,55.1527647 C77.8012829,55.1527647 76.3801357,53.4048961 76.3801357,50.9326257 C76.3801357,48.4610198 77.9795795,46.7131512 80.8819593,46.7131512 L85.0885814,46.7131512 L85.0885814,48.8830337 L80.8231802,48.8830337 C79.5790233,48.8830337 78.5719419,49.6672485 78.5719419,50.9326257 C78.5719419,52.1986674 79.5790233,52.9822176 80.8231802,52.9822176 L81.3561105,52.9822176 C84.496219,52.9822176 85.9180194,54.911519 85.9180194,57.4436024 C85.9180194,59.9152082 84.2591434,61.9043226 81.3561105,61.9043226 L76.9130659,61.9043226 L76.9130659,59.7344401 Z" id="Fill-68" fill="#00005A"></path>
                            <path d="M148.102683,59.7344401 L152.60516,59.7344401 C153.849317,59.7344401 154.91583,58.7096441 154.91583,57.4436024 C154.91583,56.1775607 153.849317,55.1527647 152.60516,55.1527647 L152.07223,55.1527647 C148.991553,55.1527647 147.569753,53.4048961 147.569753,50.9326257 C147.569753,48.4610198 149.169197,46.7131512 152.07223,46.7131512 L156.337631,46.7131512 L156.337631,48.8830337 L152.07223,48.8830337 C150.828073,48.8830337 149.820991,49.6672485 149.820991,50.9326257 C149.820991,52.1986674 150.828073,52.9822176 152.07223,52.9822176 L152.60516,52.9822176 C155.745268,52.9822176 157.167069,54.911519 157.167069,57.4436024 C157.167069,59.9152082 155.508193,61.9043226 152.60516,61.9043226 L148.162115,61.9043226 L148.162115,59.7344401 L148.102683,59.7344401 Z" id="Fill-69" fill="#00005A"></path>
                            <path d="M432.265328,59.7344401 L436.768458,59.7344401 C438.011962,59.7344401 439.078476,58.7096441 439.078476,57.4436024 C439.078476,56.1775607 438.011962,55.1527647 436.768458,55.1527647 L436.234875,55.1527647 C433.154198,55.1527647 431.732398,53.4048961 431.732398,50.9326257 C431.732398,48.4610198 433.331842,46.7131512 436.234875,46.7131512 L440.500276,46.7131512 L440.500276,48.8830337 L436.234875,48.8830337 C434.990718,48.8830337 433.983636,49.6672485 433.983636,50.9326257 C433.983636,52.1986674 434.990718,52.9822176 436.234875,52.9822176 L436.768458,52.9822176 C439.907914,52.9822176 441.329714,54.911519 441.329714,57.4436024 C441.329714,59.9152082 439.670838,61.9043226 436.768458,61.9043226 L432.32476,61.9043226 L432.265328,59.7344401 Z" id="Fill-70" fill="#00005A"></path>
                            <polygon id="Fill-71" fill="#00005A" points="448.141882 48.7625438 448.141882 53.163451 453.888515 53.163451 453.888515 55.3333335 448.141882 55.3333335 448.141882 59.7342407 454.006727 59.7342407 454.006727 61.9041232 445.890643 61.9041232 445.890643 46.7129518 454.006727 46.7129518 454.006727 48.8834989 448.141882 48.8834989"></polygon>
                            <path d="M461.273452,48.8754574 L461.273452,53.2584207 L463.93941,53.2584207 C465.242999,53.2584207 466.190648,52.3579029 466.190648,51.0367003 C466.190648,49.7759753 465.183567,48.8754574 463.93941,48.8754574 L461.273452,48.8754574 Z M466.486503,61.8442438 L461.273452,55.179747 L461.273452,61.9093735 L459.022867,61.9093735 L459.022867,46.7142145 L463.93941,46.7142145 C466.427724,46.7142145 468.44254,48.5750632 468.44254,51.0367003 C468.44254,53.4990019 466.486503,55.179747 463.998842,55.3000376 L469.211892,61.9040568 L466.486503,61.9040568 L466.486503,61.8442438 Z" id="Fill-72" fill="#00005A"></path>
                            <polygon id="Fill-73" fill="#00005A" points="484.714284 46.7139487 477.604629 62.1457013 477.545197 62.1457013 470.436848 46.7139487 472.865077 46.7139487 477.545197 57.0017837 482.225317 46.7139487"></polygon>
                            <polygon id="Fill-74" fill="#00005A" points="487.893383 61.9044555 490.143968 61.9044555 490.143968 46.7132841 487.893383 46.7132841"></polygon>
                            <path d="M494.272218,54.2788304 C494.272218,49.8353895 497.648749,46.7131512 502.269437,46.7131512 L504.520675,46.7131512 L504.520675,48.8743941 L502.269437,48.8743941 C498.833474,48.8743941 496.582235,51.0363015 496.582235,54.3386434 C496.582235,57.5811723 498.892906,59.7430797 502.269437,59.7430797 L504.520675,59.7430797 L504.520675,61.9043226 L502.269437,61.9043226 C497.648749,61.8445096 494.272218,58.7222713 494.272218,54.2788304" id="Fill-75" fill="#00005A"></path>
                            <polygon id="Fill-76" fill="#00005A" points="511.018179 48.7625438 511.018179 53.163451 516.764813 53.163451 516.764813 55.3333335 511.018179 55.3333335 511.018179 59.7342407 516.883024 59.7342407 516.883024 61.9041232 508.766941 61.9041232 508.766941 46.7129518 516.883024 46.7129518 516.883024 48.8834989 511.018179 48.8834989"></polygon>
                            <g id="Group" transform="translate(0.000000, 0.000266)">
                                <g id="Group-3" transform="translate(0.000000, -0.000000)">
                                    <mask id="mask-4" fill="white">
                                        <use xlink:href="#path-3"></use>
                                    </mask>
                                    <use id="Combined-Shape" fill="#7EC13D" xlink:href="#path-3"></use>
                                    <g id="Group" mask="url(#mask-4)" fill="#95C23E">
                                        <g id="colors/6/blue">
                                            <rect id="Rectangle" x="0" y="0" width="62.9302326" height="64.4651163"></rect>
                                        </g>
                                    </g>
                                </g>
                            </g>
                        </g>
                    </g>
                </g>
                <line x1="0.5" y1="93.1883981" x2="0.5" y2="110.188398" id="Line-6" stroke="#00005A" stroke-linecap="square"></line>
                <line x1="519.5" y1="93.1883981" x2="519.5" y2="110.188398" id="Line-6" stroke="#00005A" stroke-linecap="square"></line>
            </g>
        </g>
    </g>
</svg>