<?xml version="1.0" encoding="UTF-8"?>
<svg width="63px" height="64px" viewBox="0 0 63 64" version="1.1" xmlns="http://www.w3.org/2000/svg" xmlns:xlink="http://www.w3.org/1999/xlink">
    <title>Logotype green</title>
    <g id="Page-1" stroke="none" stroke-width="1" fill="none" fill-rule="evenodd">
        <g id="Grafisk-manual---logotyp" transform="translate(-1340.000000, -4165.000000)" fill="#7EC13D">
            <g id="Logotype-green" transform="translate(1340.000000, 4165.000000)">
                <path d="M21.5,52.9859685 C15.1567003,52.9859685 10.0140315,47.8432997 10.0140315,41.5 C10.0140315,35.1567003 15.1567003,30.0140315 21.5,30.0140315 C27.8432997,30.0140315 32.9859685,35.1567003 32.9859685,41.5 C32.9859685,47.8432997 27.8432997,52.9859685 21.5,52.9859685 M21.5,20 C9.62630662,20 0,29.6263066 0,41.5 C0,53.3747057 9.62630662,63 21.5,63 C33.3747057,63 43,53.3747057 43,41.5 C43,29.6263066 33.3747057,20 21.5,20" id="Fill-4"></path>
                <path d="M22,0 L22,10.1444721 C39.1654399,10.1444721 53.0802583,24.374529 53.0802583,41.9288497 C53.0802583,47.9642333 51.4344626,53.6072044 48.577553,58.4132337 L56.8564952,64 C60.7476481,57.5885546 63,50.0284857 63,41.9288497 C63,18.7724341 44.6434316,0 22,0" id="Fill-6"></path>
            </g>
        </g>
    </g>
</svg>