<?xml version="1.0" encoding="UTF-8"?>
<svg width="87px" height="75px" viewBox="0 0 87 75" version="1.1" xmlns="http://www.w3.org/2000/svg" xmlns:xlink="http://www.w3.org/1999/xlink">
    <title>D2AE54EA-DA9E-47F3-BADE-9BE53DDD79C6@1x</title>
    <g id="Page-1" stroke="none" stroke-width="1" fill="none" fill-rule="evenodd">
        <g id="justerad-spacing-AD-synk21juni" transform="translate(-371.000000, -2158.000000)">
            <g id="Group-25" transform="translate(371.000000, 2159.000000)">
                <polygon id="Fill-1" fill="#D4E4B2" points="14.7031006 74 82.6671682 74 14.7031006 5.95790616"></polygon>
                <polygon id="Fill-2" fill="#95C23F" points="0 65.0963383 8.78627695 65.0963383 8.78627695 19.7238214 0 19.7238214"></polygon>
                <polygon id="Stroke-3" stroke="#343434" stroke-width="1.8" stroke-linecap="round" stroke-linejoin="round" points="86 71.2949075 17.4426766 71.2949075 17.4426766 2.27898033"></polygon>
                <polygon id="Stroke-5" stroke="#343434" stroke-width="1.8" stroke-linecap="round" stroke-linejoin="round" points="55.7225159 58.4942293 29.0122698 58.4942293 29.0122698 31.6053091"></polygon>
                <line x1="23.0349561" y1="13.8934453" x2="17.5209911" y2="13.8934453" id="Stroke-6" stroke="#343434" stroke-width="1.8" stroke-linecap="round" stroke-linejoin="round"></line>
                <line x1="23.0349561" y1="23.9903835" x2="17.5209911" y2="23.9903835" id="Stroke-7" stroke="#343434" stroke-width="1.8" stroke-linecap="round" stroke-linejoin="round"></line>
                <line x1="23.0349561" y1="34.0872916" x2="17.5209911" y2="34.0872916" id="Stroke-8" stroke="#343434" stroke-width="1.8" stroke-linecap="round" stroke-linejoin="round"></line>
                <line x1="23.0349561" y1="44.1842298" x2="17.5209911" y2="44.1842298" id="Stroke-9" stroke="#343434" stroke-width="1.8" stroke-linecap="round" stroke-linejoin="round"></line>
                <line x1="23.0349561" y1="54.2811379" x2="17.5209911" y2="54.2811379" id="Stroke-10" stroke="#343434" stroke-width="1.8" stroke-linecap="round" stroke-linejoin="round"></line>
                <line x1="23.0349561" y1="64.3780761" x2="17.5209911" y2="64.3780761" id="Stroke-11" stroke="#343434" stroke-width="1.8" stroke-linecap="round" stroke-linejoin="round"></line>
                <g id="Group-24" transform="translate(3.506211, 0.000000)" stroke="#343434" stroke-linecap="round" stroke-linejoin="round" stroke-width="1.5">
                    <path d="M7.34866911,18.0459728 L7.34866911,69.4427306 C7.34866911,71.4769602 5.69519617,73.1414938 3.67448384,73.1414938 L3.67448384,73.1414938 C1.65347294,73.1414938 0,71.4769602 0,69.4427306 L0,18.0459728 L3.67448384,0 L7.34866911,18.0459728 Z" id="Stroke-12"></path>
                    <line x1="0.000149284303" y1="65.0965487" x2="7.3488184" y2="65.0965487" id="Stroke-14"></line>
                    <line x1="0.000149284303" y1="61.3052112" x2="7.3488184" y2="61.3052112" id="Stroke-16"></line>
                    <line x1="0.000149284303" y1="18.0459728" x2="7.3488184" y2="18.0459728" id="Stroke-18"></line>
                    <line x1="4.50113074" y1="61.3052112" x2="4.50113074" y2="23.5808926" id="Stroke-20"></line>
                    <line x1="1.78281286" y1="9.29045992" x2="5.53731309" y2="9.29045992" id="Stroke-22"></line>
                </g>
            </g>
        </g>
    </g>
</svg>