<?xml version="1.0" encoding="UTF-8"?>
<svg width="382px" height="145px" viewBox="0 0 382 145" version="1.1" xmlns="http://www.w3.org/2000/svg" xmlns:xlink="http://www.w3.org/1999/xlink">
    <title>Group 6</title>
    <g id="Page-1" stroke="none" stroke-width="1" fill="none" fill-rule="evenodd">
        <g id="Grid-designmönstersida-placeholder" transform="translate(-371.000000, -3030.000000)">
            <g id="Group-6" transform="translate(371.000000, 3030.000000)">
                <rect id="Rectangle" stroke="#1616B2" fill="#E0EDF5" x="83.5" y="0.5" width="177" height="103"></rect>
                <g id="1200-px" transform="translate(84.468750, 119.398438)" fill="#333333" fill-rule="nonzero">
                    <path d="M4.1171875,11.6015625 L2.8515625,11.6015625 L2.8515625,3.4609375 C2.8515625,2.78385417 2.87239583,2.14322917 2.9140625,1.5390625 C2.8046875,1.6484375 2.68229167,1.76302083 2.546875,1.8828125 C2.41145833,2.00260417 1.79166667,2.51041667 0.6875,3.40625 L0,2.515625 L3.0234375,0.1796875 L4.1171875,0.1796875 L4.1171875,11.6015625 Z" id="Path"></path>
                    <path d="M15.96875,11.6015625 L8.4609375,11.6015625 L8.4609375,10.484375 L11.46875,7.4609375 C12.3854167,6.53385417 12.9895833,5.87239583 13.28125,5.4765625 C13.5729167,5.08072917 13.7916667,4.6953125 13.9375,4.3203125 C14.0833333,3.9453125 14.15625,3.54166667 14.15625,3.109375 C14.15625,2.5 13.9713542,2.01692708 13.6015625,1.66015625 C13.2317708,1.30338542 12.71875,1.125 12.0625,1.125 C11.5885417,1.125 11.1393229,1.203125 10.7148438,1.359375 C10.2903646,1.515625 9.81770833,1.79947917 9.296875,2.2109375 L8.609375,1.328125 C9.66145833,0.453125 10.8072917,0.015625 12.046875,0.015625 C13.1197917,0.015625 13.9609375,0.290364583 14.5703125,0.83984375 C15.1796875,1.38932292 15.484375,2.12760417 15.484375,3.0546875 C15.484375,3.77864583 15.28125,4.49479167 14.875,5.203125 C14.46875,5.91145833 13.7083333,6.80729167 12.59375,7.890625 L10.09375,10.3359375 L10.09375,10.3984375 L15.96875,10.3984375 L15.96875,11.6015625 Z" id="Path"></path>
                    <path d="M25.1796875,5.875 C25.1796875,7.84895833 24.8684896,9.32291667 24.2460938,10.296875 C23.6236979,11.2708333 22.671875,11.7578125 21.390625,11.7578125 C20.1614583,11.7578125 19.2265625,11.2591146 18.5859375,10.2617188 C17.9453125,9.26432292 17.625,7.80208333 17.625,5.875 C17.625,3.88541667 17.9348958,2.40885417 18.5546875,1.4453125 C19.1744792,0.481770833 20.1197917,0 21.390625,0 C22.6302083,0 23.5716146,0.502604167 24.2148438,1.5078125 C24.8580729,2.51302083 25.1796875,3.96875 25.1796875,5.875 Z M18.9375,5.875 C18.9375,7.53645833 19.1328125,8.74609375 19.5234375,9.50390625 C19.9140625,10.2617188 20.5364583,10.640625 21.390625,10.640625 C22.2552083,10.640625 22.8815104,10.2565104 23.2695312,9.48828125 C23.6575521,8.72005208 23.8515625,7.515625 23.8515625,5.875 C23.8515625,4.234375 23.6575521,3.03255208 23.2695312,2.26953125 C22.8815104,1.50651042 22.2552083,1.125 21.390625,1.125 C20.5364583,1.125 19.9140625,1.50130208 19.5234375,2.25390625 C19.1328125,3.00651042 18.9375,4.21354167 18.9375,5.875 Z" id="Shape"></path>
                    <path d="M34.328125,5.875 C34.328125,7.84895833 34.0169271,9.32291667 33.3945312,10.296875 C32.7721354,11.2708333 31.8203125,11.7578125 30.5390625,11.7578125 C29.3098958,11.7578125 28.375,11.2591146 27.734375,10.2617188 C27.09375,9.26432292 26.7734375,7.80208333 26.7734375,5.875 C26.7734375,3.88541667 27.0833333,2.40885417 27.703125,1.4453125 C28.3229167,0.481770833 29.2682292,0 30.5390625,0 C31.7786458,0 32.7200521,0.502604167 33.3632812,1.5078125 C34.0065104,2.51302083 34.328125,3.96875 34.328125,5.875 Z M28.0859375,5.875 C28.0859375,7.53645833 28.28125,8.74609375 28.671875,9.50390625 C29.0625,10.2617188 29.6848958,10.640625 30.5390625,10.640625 C31.4036458,10.640625 32.0299479,10.2565104 32.4179688,9.48828125 C32.8059896,8.72005208 33,7.515625 33,5.875 C33,4.234375 32.8059896,3.03255208 32.4179688,2.26953125 C32.0299479,1.50651042 31.4036458,1.125 30.5390625,1.125 C29.6848958,1.125 29.0625,1.50130208 28.671875,2.25390625 C28.28125,3.00651042 28.0859375,4.21354167 28.0859375,5.875 Z" id="Shape"></path>
                    <path d="M44.640625,11.7578125 C44.0833333,11.7578125 43.5742188,11.6549479 43.1132812,11.4492188 C42.6523438,11.2434896 42.265625,10.9270833 41.953125,10.5 L41.859375,10.5 C41.921875,11 41.953125,11.4739583 41.953125,11.921875 L41.953125,15.4453125 L40.65625,15.4453125 L40.65625,3.0390625 L41.7109375,3.0390625 L41.890625,4.2109375 L41.953125,4.2109375 C42.2864583,3.7421875 42.6744792,3.40364583 43.1171875,3.1953125 C43.5598958,2.98697917 44.0677083,2.8828125 44.640625,2.8828125 C45.7760417,2.8828125 46.6523438,3.27083333 47.2695312,4.046875 C47.8867188,4.82291667 48.1953125,5.91145833 48.1953125,7.3125 C48.1953125,8.71875 47.8815104,9.81119792 47.2539062,10.5898438 C46.6263021,11.3684896 45.7552083,11.7578125 44.640625,11.7578125 Z M44.453125,3.984375 C43.578125,3.984375 42.9453125,4.2265625 42.5546875,4.7109375 C42.1640625,5.1953125 41.9635417,5.96614583 41.953125,7.0234375 L41.953125,7.3125 C41.953125,8.515625 42.1536458,9.37630208 42.5546875,9.89453125 C42.9557292,10.4127604 43.5989583,10.671875 44.484375,10.671875 C45.2239583,10.671875 45.8033854,10.3723958 46.2226562,9.7734375 C46.6419271,9.17447917 46.8515625,8.34895833 46.8515625,7.296875 C46.8515625,6.22916667 46.6419271,5.41015625 46.2226562,4.83984375 C45.8033854,4.26953125 45.2135417,3.984375 44.453125,3.984375 Z" id="Shape"></path>
                    <polygon id="Path" points="52.5234375 7.21875 49.546875 3.0390625 51.0234375 3.0390625 53.28125 6.3203125 55.53125 3.0390625 56.9921875 3.0390625 54.015625 7.21875 57.1484375 11.6015625 55.6796875 11.6015625 53.28125 8.1328125 50.859375 11.6015625 49.390625 11.6015625"></polygon>
                </g>
                <rect id="Rectangle-Copy-16" stroke="#1616B2" fill="#E0EDF5" x="303.5" y="0.5" width="78" height="113"></rect>
                <g id="768-px" transform="translate(304.734375, 129.414062)" fill="#333333" fill-rule="nonzero">
                    <polygon id="Path" points="1.4921875 11.5859375 6.2265625 1.359375 0 1.359375 0 0.1640625 7.6015625 0.1640625 7.6015625 1.203125 2.9296875 11.5859375"></polygon>
                    <path d="M9.328125,6.703125 C9.328125,4.45833333 9.76432292,2.77994792 10.6367188,1.66796875 C11.5091146,0.555989583 12.7994792,0 14.5078125,0 C15.0963542,0 15.5598958,0.0494791667 15.8984375,0.1484375 L15.8984375,1.265625 C15.4973958,1.13541667 15.0390625,1.0703125 14.5234375,1.0703125 C13.2994792,1.0703125 12.3645833,1.45182292 11.71875,2.21484375 C11.0729167,2.97786458 10.71875,4.17708333 10.65625,5.8125 L10.75,5.8125 C11.3229167,4.91666667 12.2291667,4.46875 13.46875,4.46875 C14.4947917,4.46875 15.3033854,4.77864583 15.8945312,5.3984375 C16.4856771,6.01822917 16.78125,6.859375 16.78125,7.921875 C16.78125,9.109375 16.4570312,10.0429688 15.8085938,10.7226562 C15.1601562,11.4023438 14.2838542,11.7421875 13.1796875,11.7421875 C11.9973958,11.7421875 11.0598958,11.2981771 10.3671875,10.4101562 C9.67447917,9.52213542 9.328125,8.28645833 9.328125,6.703125 Z M13.1640625,10.640625 C13.9036458,10.640625 14.4778646,10.4075521 14.8867188,9.94140625 C15.2955729,9.47526042 15.5,8.80208333 15.5,7.921875 C15.5,7.16666667 15.3098958,6.57291667 14.9296875,6.140625 C14.5494792,5.70833333 13.9817708,5.4921875 13.2265625,5.4921875 C12.7578125,5.4921875 12.328125,5.58854167 11.9375,5.78125 C11.546875,5.97395833 11.2356771,6.23958333 11.0039062,6.578125 C10.7721354,6.91666667 10.65625,7.26822917 10.65625,7.6328125 C10.65625,8.16927083 10.7604167,8.66927083 10.96875,9.1328125 C11.1770833,9.59635417 11.4726562,9.96354167 11.8554688,10.234375 C12.2382812,10.5052083 12.6744792,10.640625 13.1640625,10.640625 Z" id="Shape"></path>
                    <path d="M22.125,0 C23.1666667,0 23.9921875,0.2421875 24.6015625,0.7265625 C25.2109375,1.2109375 25.515625,1.88020833 25.515625,2.734375 C25.515625,3.296875 25.3411458,3.80989583 24.9921875,4.2734375 C24.6432292,4.73697917 24.0859375,5.15885417 23.3203125,5.5390625 C24.2473958,5.98177083 24.90625,6.44661458 25.296875,6.93359375 C25.6875,7.42057292 25.8828125,7.984375 25.8828125,8.625 C25.8828125,9.57291667 25.5520833,10.3294271 24.890625,10.8945312 C24.2291667,11.4596354 23.3229167,11.7421875 22.171875,11.7421875 C20.953125,11.7421875 20.015625,11.4752604 19.359375,10.9414062 C18.703125,10.4075521 18.375,9.65104167 18.375,8.671875 C18.375,7.36458333 19.171875,6.34635417 20.765625,5.6171875 C20.046875,5.2109375 19.53125,4.77213542 19.21875,4.30078125 C18.90625,3.82942708 18.75,3.30208333 18.75,2.71875 C18.75,1.890625 19.0559896,1.23046875 19.6679688,0.73828125 C20.2799479,0.24609375 21.0989583,0 22.125,0 Z M19.65625,8.703125 C19.65625,9.328125 19.8736979,9.81510417 20.3085938,10.1640625 C20.7434896,10.5130208 21.3541667,10.6875 22.140625,10.6875 C22.9166667,10.6875 23.5208333,10.5052083 23.953125,10.140625 C24.3854167,9.77604167 24.6015625,9.27604167 24.6015625,8.640625 C24.6015625,8.13541667 24.3984375,7.68619792 23.9921875,7.29296875 C23.5859375,6.89973958 22.8776042,6.51822917 21.8671875,6.1484375 C21.0911458,6.48177083 20.5286458,6.85026042 20.1796875,7.25390625 C19.8307292,7.65755208 19.65625,8.140625 19.65625,8.703125 Z M22.109375,1.0546875 C21.4583333,1.0546875 20.9479167,1.2109375 20.578125,1.5234375 C20.2083333,1.8359375 20.0234375,2.25260417 20.0234375,2.7734375 C20.0234375,3.25260417 20.1770833,3.6640625 20.484375,4.0078125 C20.7916667,4.3515625 21.359375,4.6953125 22.1875,5.0390625 C22.9322917,4.7265625 23.4596354,4.390625 23.7695312,4.03125 C24.0794271,3.671875 24.234375,3.25260417 24.234375,2.7734375 C24.234375,2.24739583 24.0455729,1.82942708 23.6679688,1.51953125 C23.2903646,1.20963542 22.7708333,1.0546875 22.109375,1.0546875 Z" id="Shape"></path>
                    <path d="M36.2265625,11.7421875 C35.6692708,11.7421875 35.1601562,11.6393229 34.6992188,11.4335938 C34.2382812,11.2278646 33.8515625,10.9114583 33.5390625,10.484375 L33.4453125,10.484375 C33.5078125,10.984375 33.5390625,11.4583333 33.5390625,11.90625 L33.5390625,15.4296875 L32.2421875,15.4296875 L32.2421875,3.0234375 L33.296875,3.0234375 L33.4765625,4.1953125 L33.5390625,4.1953125 C33.8723958,3.7265625 34.2604167,3.38802083 34.703125,3.1796875 C35.1458333,2.97135417 35.6536458,2.8671875 36.2265625,2.8671875 C37.3619792,2.8671875 38.2382812,3.25520833 38.8554688,4.03125 C39.4726562,4.80729167 39.78125,5.89583333 39.78125,7.296875 C39.78125,8.703125 39.4674479,9.79557292 38.8398438,10.5742188 C38.2122396,11.3528646 37.3411458,11.7421875 36.2265625,11.7421875 Z M36.0390625,3.96875 C35.1640625,3.96875 34.53125,4.2109375 34.140625,4.6953125 C33.75,5.1796875 33.5494792,5.95052083 33.5390625,7.0078125 L33.5390625,7.296875 C33.5390625,8.5 33.7395833,9.36067708 34.140625,9.87890625 C34.5416667,10.3971354 35.1848958,10.65625 36.0703125,10.65625 C36.8098958,10.65625 37.3893229,10.3567708 37.8085938,9.7578125 C38.2278646,9.15885417 38.4375,8.33333333 38.4375,7.28125 C38.4375,6.21354167 38.2278646,5.39453125 37.8085938,4.82421875 C37.3893229,4.25390625 36.7994792,3.96875 36.0390625,3.96875 Z" id="Shape"></path>
                    <polygon id="Path" points="44.109375 7.203125 41.1328125 3.0234375 42.609375 3.0234375 44.8671875 6.3046875 47.1171875 3.0234375 48.578125 3.0234375 45.6015625 7.203125 48.734375 11.5859375 47.265625 11.5859375 44.8671875 8.1171875 42.4453125 11.5859375 40.9765625 11.5859375"></polygon>
                </g>
                <g id="375-px" transform="translate(0.734375, 77.414062)" fill="#333333" fill-rule="nonzero">
                    <path d="M7.125,2.8515625 C7.125,3.58072917 6.92057292,4.17708333 6.51171875,4.640625 C6.10286458,5.10416667 5.5234375,5.4140625 4.7734375,5.5703125 L4.7734375,5.6328125 C5.69010417,5.74739583 6.36979167,6.0390625 6.8125,6.5078125 C7.25520833,6.9765625 7.4765625,7.59114583 7.4765625,8.3515625 C7.4765625,9.44010417 7.09895833,10.2773438 6.34375,10.8632812 C5.58854167,11.4492188 4.515625,11.7421875 3.125,11.7421875 C2.52083333,11.7421875 1.96744792,11.6966146 1.46484375,11.6054688 C0.962239583,11.5143229 0.473958333,11.3541667 0,11.125 L0,9.890625 C0.494791667,10.1354167 1.02213542,10.3216146 1.58203125,10.4492188 C2.14192708,10.5768229 2.671875,10.640625 3.171875,10.640625 C5.14583333,10.640625 6.1328125,9.8671875 6.1328125,8.3203125 C6.1328125,6.93489583 5.04427083,6.2421875 2.8671875,6.2421875 L1.7421875,6.2421875 L1.7421875,5.125 L2.8828125,5.125 C3.7734375,5.125 4.47916667,4.92838542 5,4.53515625 C5.52083333,4.14192708 5.78125,3.59635417 5.78125,2.8984375 C5.78125,2.34114583 5.58984375,1.90364583 5.20703125,1.5859375 C4.82421875,1.26822917 4.3046875,1.109375 3.6484375,1.109375 C3.1484375,1.109375 2.67708333,1.17708333 2.234375,1.3125 C1.79166667,1.44791667 1.28645833,1.69791667 0.71875,2.0625 L0.0625,1.1875 C0.53125,0.817708333 1.07161458,0.52734375 1.68359375,0.31640625 C2.29557292,0.10546875 2.94010417,0 3.6171875,0 C4.7265625,0 5.58854167,0.25390625 6.203125,0.76171875 C6.81770833,1.26953125 7.125,1.96614583 7.125,2.8515625 Z" id="Path"></path>
                    <polygon id="Path" points="10.640625 11.5859375 15.375 1.359375 9.1484375 1.359375 9.1484375 0.1640625 16.75 0.1640625 16.75 1.203125 12.078125 11.5859375"></polygon>
                    <path d="M21.9140625,4.609375 C23.1171875,4.609375 24.0638021,4.90755208 24.7539062,5.50390625 C25.4440104,6.10026042 25.7890625,6.91666667 25.7890625,7.953125 C25.7890625,9.13541667 25.4127604,10.0625 24.6601562,10.734375 C23.9075521,11.40625 22.8697917,11.7421875 21.546875,11.7421875 C20.2604167,11.7421875 19.2786458,11.5364583 18.6015625,11.125 L18.6015625,9.875 C18.9661458,10.109375 19.4192708,10.2929688 19.9609375,10.4257812 C20.5026042,10.5585938 21.0364583,10.625 21.5625,10.625 C22.4791667,10.625 23.1914062,10.4088542 23.6992188,9.9765625 C24.2070312,9.54427083 24.4609375,8.91927083 24.4609375,8.1015625 C24.4609375,6.5078125 23.484375,5.7109375 21.53125,5.7109375 C21.0364583,5.7109375 20.375,5.78645833 19.546875,5.9375 L18.875,5.5078125 L19.3046875,0.1640625 L24.984375,0.1640625 L24.984375,1.359375 L20.4140625,1.359375 L20.125,4.7890625 C20.7239583,4.66927083 21.3203125,4.609375 21.9140625,4.609375 Z" id="Path"></path>
                    <path d="M36.2265625,11.7421875 C35.6692708,11.7421875 35.1601562,11.6393229 34.6992188,11.4335938 C34.2382812,11.2278646 33.8515625,10.9114583 33.5390625,10.484375 L33.4453125,10.484375 C33.5078125,10.984375 33.5390625,11.4583333 33.5390625,11.90625 L33.5390625,15.4296875 L32.2421875,15.4296875 L32.2421875,3.0234375 L33.296875,3.0234375 L33.4765625,4.1953125 L33.5390625,4.1953125 C33.8723958,3.7265625 34.2604167,3.38802083 34.703125,3.1796875 C35.1458333,2.97135417 35.6536458,2.8671875 36.2265625,2.8671875 C37.3619792,2.8671875 38.2382812,3.25520833 38.8554688,4.03125 C39.4726562,4.80729167 39.78125,5.89583333 39.78125,7.296875 C39.78125,8.703125 39.4674479,9.79557292 38.8398438,10.5742188 C38.2122396,11.3528646 37.3411458,11.7421875 36.2265625,11.7421875 Z M36.0390625,3.96875 C35.1640625,3.96875 34.53125,4.2109375 34.140625,4.6953125 C33.75,5.1796875 33.5494792,5.95052083 33.5390625,7.0078125 L33.5390625,7.296875 C33.5390625,8.5 33.7395833,9.36067708 34.140625,9.87890625 C34.5416667,10.3971354 35.1848958,10.65625 36.0703125,10.65625 C36.8098958,10.65625 37.3893229,10.3567708 37.8085938,9.7578125 C38.2278646,9.15885417 38.4375,8.33333333 38.4375,7.28125 C38.4375,6.21354167 38.2278646,5.39453125 37.8085938,4.82421875 C37.3893229,4.25390625 36.7994792,3.96875 36.0390625,3.96875 Z" id="Shape"></path>
                    <polygon id="Path" points="44.109375 7.203125 41.1328125 3.0234375 42.609375 3.0234375 44.8671875 6.3046875 47.1171875 3.0234375 48.578125 3.0234375 45.6015625 7.203125 48.734375 11.5859375 47.265625 11.5859375 44.8671875 8.1171875 42.4453125 11.5859375 40.9765625 11.5859375"></polygon>
                </g>
                <rect id="Rectangle-Copy-24" stroke="#1616B2" fill="#E0EDF5" x="0.5" y="0.5" width="34" height="61"></rect>
            </g>
        </g>
    </g>
</svg>