<?xml version="1.0" encoding="UTF-8"?>
<svg width="646px" height="289px" viewBox="0 0 646 289" version="1.1" xmlns="http://www.w3.org/2000/svg" xmlns:xlink="http://www.w3.org/1999/xlink">
    <title>Group 8</title>
    <g id="Page-1" stroke="none" stroke-width="1" fill="none" fill-rule="evenodd">
        <g id="Grid-designmönstersida-placeholder" transform="translate(-359.000000, -544.000000)">
            <g id="Group-8" transform="translate(359.000000, 544.000000)">
                <g id="Group-6">
                    <rect id="Rectangle" fill="#FFFFFF" x="12" y="1" width="630" height="288"></rect>
                    <rect id="Rectangle" fill="#FFFFFF" x="12" y="1" width="630" height="288"></rect>
                    <g id="Group-5" transform="translate(9.000000, 0.000000)">
                        <g id="Group-4" fill="#E0EDF5">
                            <rect id="Rectangle" x="0" y="0" width="32.5862069" height="288"></rect>
                            <rect id="Rectangle-Copy-37" x="54.3103448" y="0" width="32.5862069" height="288"></rect>
                            <rect id="Rectangle-Copy-39" x="108.62069" y="0" width="32.5862069" height="288"></rect>
                            <rect id="Rectangle-Copy-41" x="162.931034" y="0" width="32.5862069" height="288"></rect>
                            <rect id="Rectangle-Copy-42" x="217.241379" y="0" width="32.5862069" height="288"></rect>
                            <rect id="Rectangle-Copy-43" x="271.551724" y="0" width="32.5862069" height="288"></rect>
                            <rect id="Rectangle-Copy-44" x="325.862069" y="0" width="32.5862069" height="288"></rect>
                            <rect id="Rectangle-Copy-45" x="380.172414" y="0" width="32.5862069" height="288"></rect>
                            <rect id="Rectangle-Copy-46" x="434.482759" y="0" width="32.5862069" height="288"></rect>
                            <rect id="Rectangle-Copy-47" x="488.793103" y="0" width="32.5862069" height="288"></rect>
                            <rect id="Rectangle-Copy-48" x="543.103448" y="0" width="32.5862069" height="288"></rect>
                            <rect id="Rectangle-Copy-49" x="597.413793" y="0" width="32.5862069" height="288"></rect>
                        </g>
                        <rect id="Rectangle-Copy-51" fill-opacity="0.60784528" fill="#1616B2" x="0" y="0" width="630" height="231"></rect>
                    </g>
                    <rect id="Rectangle-Copy-62" fill="#FFFFFF" transform="translate(641.500000, 144.500000) scale(-1, 1) translate(-641.500000, -144.500000) " x="637" y="0" width="9" height="289"></rect>
                    <rect id="Rectangle-Copy-75" fill="#FFFFFF" transform="translate(4.500000, 144.500000) scale(-1, 1) translate(-4.500000, -144.500000) " x="0" y="0" width="9" height="289"></rect>
                </g>
                <g id="Rityta" transform="translate(301.570312, 105.257812)" fill="#FFFFFF" fill-rule="nonzero">
                    <path d="M1.328125,6.9921875 L1.328125,11.7421875 L0,11.7421875 L0,0.3203125 L3.1328125,0.3203125 C4.53385417,0.3203125 5.56901042,0.588541667 6.23828125,1.125 C6.90755208,1.66145833 7.2421875,2.46875 7.2421875,3.546875 C7.2421875,5.05729167 6.4765625,6.078125 4.9453125,6.609375 L8.046875,11.7421875 L6.4765625,11.7421875 L3.7109375,6.9921875 L1.328125,6.9921875 Z M1.328125,5.8515625 L3.1484375,5.8515625 C4.0859375,5.8515625 4.7734375,5.66536458 5.2109375,5.29296875 C5.6484375,4.92057292 5.8671875,4.36197917 5.8671875,3.6171875 C5.8671875,2.86197917 5.64453125,2.31770833 5.19921875,1.984375 C4.75390625,1.65104167 4.0390625,1.484375 3.0546875,1.484375 L1.328125,1.484375 L1.328125,5.8515625 Z" id="Shape"></path>
                    <path d="M10.9921875,11.7421875 L9.6953125,11.7421875 L9.6953125,3.1796875 L10.9921875,3.1796875 L10.9921875,11.7421875 Z M9.5859375,0.859375 C9.5859375,0.5625 9.65885417,0.345052083 9.8046875,0.20703125 C9.95052083,0.0690104167 10.1328125,0 10.3515625,0 C10.5598958,0 10.7395833,0.0703125 10.890625,0.2109375 C11.0416667,0.3515625 11.1171875,0.567708333 11.1171875,0.859375 C11.1171875,1.15104167 11.0416667,1.36848958 10.890625,1.51171875 C10.7395833,1.65494792 10.5598958,1.7265625 10.3515625,1.7265625 C10.1328125,1.7265625 9.95052083,1.65494792 9.8046875,1.51171875 C9.65885417,1.36848958 9.5859375,1.15104167 9.5859375,0.859375 Z" id="Shape"></path>
                    <path d="M16.5078125,10.828125 C16.7369792,10.828125 16.9583333,10.8111979 17.171875,10.7773438 C17.3854167,10.7434896 17.5546875,10.7083333 17.6796875,10.671875 L17.6796875,11.6640625 C17.5390625,11.7317708 17.3320312,11.7877604 17.0585938,11.8320312 C16.7851562,11.8763021 16.5390625,11.8984375 16.3203125,11.8984375 C14.6640625,11.8984375 13.8359375,11.0260417 13.8359375,9.28125 L13.8359375,4.1875 L12.609375,4.1875 L12.609375,3.5625 L13.8359375,3.0234375 L14.3828125,1.1953125 L15.1328125,1.1953125 L15.1328125,3.1796875 L17.6171875,3.1796875 L17.6171875,4.1875 L15.1328125,4.1875 L15.1328125,9.2265625 C15.1328125,9.7421875 15.2552083,10.1380208 15.5,10.4140625 C15.7447917,10.6901042 16.0807292,10.828125 16.5078125,10.828125 Z" id="Path"></path>
                    <path d="M18.03125,3.1796875 L19.421875,3.1796875 L21.296875,8.0625 C21.7083333,9.17708333 21.9635417,9.98177083 22.0625,10.4765625 L22.125,10.4765625 C22.1927083,10.2109375 22.3346354,9.75651042 22.5507812,9.11328125 C22.7669271,8.47005208 23.4739583,6.4921875 24.671875,3.1796875 L26.0625,3.1796875 L22.3828125,12.9296875 C22.0182292,13.8932292 21.5924479,14.5768229 21.1054688,14.9804688 C20.6184896,15.3841146 20.0208333,15.5859375 19.3125,15.5859375 C18.9166667,15.5859375 18.5260417,15.5416667 18.140625,15.453125 L18.140625,14.4140625 C18.4270833,14.4765625 18.7473958,14.5078125 19.1015625,14.5078125 C19.9921875,14.5078125 20.6276042,14.0078125 21.0078125,13.0078125 L21.484375,11.7890625 L18.03125,3.1796875 Z" id="Path"></path>
                    <path d="M30.21875,10.828125 C30.4479167,10.828125 30.6692708,10.8111979 30.8828125,10.7773438 C31.0963542,10.7434896 31.265625,10.7083333 31.390625,10.671875 L31.390625,11.6640625 C31.25,11.7317708 31.0429688,11.7877604 30.7695312,11.8320312 C30.4960938,11.8763021 30.25,11.8984375 30.03125,11.8984375 C28.375,11.8984375 27.546875,11.0260417 27.546875,9.28125 L27.546875,4.1875 L26.3203125,4.1875 L26.3203125,3.5625 L27.546875,3.0234375 L28.09375,1.1953125 L28.84375,1.1953125 L28.84375,3.1796875 L31.328125,3.1796875 L31.328125,4.1875 L28.84375,4.1875 L28.84375,9.2265625 C28.84375,9.7421875 28.9661458,10.1380208 29.2109375,10.4140625 C29.4557292,10.6901042 29.7916667,10.828125 30.21875,10.828125 Z" id="Path"></path>
                    <path d="M38.3671875,11.7421875 L38.109375,10.5234375 L38.046875,10.5234375 C37.6197917,11.0598958 37.1940104,11.4231771 36.7695312,11.6132812 C36.3450521,11.8033854 35.8151042,11.8984375 35.1796875,11.8984375 C34.3307292,11.8984375 33.6653646,11.6796875 33.1835938,11.2421875 C32.7018229,10.8046875 32.4609375,10.1822917 32.4609375,9.375 C32.4609375,7.64583333 33.84375,6.73958333 36.609375,6.65625 L38.0625,6.609375 L38.0625,6.078125 C38.0625,5.40625 37.9179688,4.91015625 37.6289062,4.58984375 C37.3398438,4.26953125 36.8776042,4.109375 36.2421875,4.109375 C35.5286458,4.109375 34.7213542,4.328125 33.8203125,4.765625 L33.421875,3.7734375 C33.84375,3.54427083 34.3059896,3.36458333 34.8085938,3.234375 C35.3111979,3.10416667 35.8151042,3.0390625 36.3203125,3.0390625 C37.3411458,3.0390625 38.0976562,3.265625 38.5898438,3.71875 C39.0820312,4.171875 39.328125,4.8984375 39.328125,5.8984375 L39.328125,11.7421875 L38.3671875,11.7421875 Z M35.4375,10.828125 C36.2447917,10.828125 36.8789062,10.6067708 37.3398438,10.1640625 C37.8007812,9.72135417 38.03125,9.1015625 38.03125,8.3046875 L38.03125,7.53125 L36.734375,7.5859375 C35.703125,7.62239583 34.9596354,7.78255208 34.5039062,8.06640625 C34.0481771,8.35026042 33.8203125,8.79166667 33.8203125,9.390625 C33.8203125,9.859375 33.9622396,10.2161458 34.2460938,10.4609375 C34.5299479,10.7057292 34.9270833,10.828125 35.4375,10.828125 Z" id="Shape"></path>
                </g>
            </g>
        </g>
    </g>
</svg>