<?xml version="1.0" encoding="UTF-8"?>
<svg width="204px" height="34px" viewBox="0 0 204 34" version="1.1" xmlns="http://www.w3.org/2000/svg" xmlns:xlink="http://www.w3.org/1999/xlink">
    <title>Logotypes/Title/PrimaryIkoner</title>
    <defs>
        <path d="M11.216719,0 C23.1840617,0 32.8857792,9.86989741 32.8857792,22.0454762 C32.8857792,26.3045675 31.6953718,30.2792529 29.639151,33.6501443 L25.2636643,30.713033 C26.7735081,28.1859139 27.6431038,25.2190676 27.6431038,22.0454762 C27.6431038,12.8157543 20.2888478,5.33374658 11.216719,5.33374658 Z M11.216719,10.6340151 C17.411514,10.6340151 22.433438,15.7431755 22.433438,22.0452313 C22.433438,28.3476369 17.411514,33.4567973 11.216719,33.4567973 C5.02192394,33.4567973 0,28.3476369 0,22.0452313 C0,15.7431755 5.02192394,10.6340151 11.216719,10.6340151 Z M11.216719,15.9492211 C7.90716624,15.9492211 5.22479522,18.6785377 5.22479522,22.0452313 C5.22479522,25.4122747 7.90716624,28.1415914 11.216719,28.1415914 C14.5262717,28.1415914 17.2086428,25.4122747 17.2086428,22.0452313 C17.2086428,18.6785377 14.5262717,15.9492211 11.216719,15.9492211 Z" id="path-1"></path>
    </defs>
    <g id="Landningssida" stroke="none" stroke-width="1" fill="none" fill-rule="evenodd">
        <g id="Knapp-Ladda-upp" transform="translate(-802.000000, -5420.000000)">
            <g id="Logotypes/Title/Primary" transform="translate(802.521541, 5420.000000)">
                <g id="✏️-TITLE" transform="translate(59.875000, 5.687500)" fill="#333333" fill-rule="nonzero">
                    <path d="M18.953125,12.671875 C18.953125,16.4322917 17.8828125,19.3125 15.7421875,21.3125 C13.6015625,23.3125 10.5104167,24.3125 6.46875,24.3125 L0,24.3125 L0,1.46875 L7.171875,1.46875 C10.9010417,1.46875 13.796875,2.453125 15.859375,4.421875 C17.921875,6.390625 18.953125,9.140625 18.953125,12.671875 Z M13.921875,12.796875 C13.921875,7.890625 11.7552083,5.4375 7.421875,5.4375 L4.84375,5.4375 L4.84375,20.3125 L6.921875,20.3125 C11.5885417,20.3125 13.921875,17.8072917 13.921875,12.796875 Z" id="Shape"></path>
                    <path d="M37.171875,17.96875 C37.171875,20.03125 36.4296875,21.65625 34.9453125,22.84375 C33.4609375,24.03125 31.3958333,24.625 28.75,24.625 C26.3125,24.625 24.15625,24.1666667 22.28125,23.25 L22.28125,18.75 C23.8229167,19.4375 25.1276042,19.921875 26.1953125,20.203125 C27.2630208,20.484375 28.2395833,20.625 29.125,20.625 C30.1875,20.625 31.0026042,20.421875 31.5703125,20.015625 C32.1380208,19.609375 32.421875,19.0052083 32.421875,18.203125 C32.421875,17.7552083 32.296875,17.3567708 32.046875,17.0078125 C31.796875,16.6588542 31.4296875,16.3229167 30.9453125,16 C30.4609375,15.6770833 29.4739583,15.1614583 27.984375,14.453125 C26.5885417,13.796875 25.5416667,13.1666667 24.84375,12.5625 C24.1458333,11.9583333 23.5885417,11.2552083 23.171875,10.453125 C22.7552083,9.65104167 22.546875,8.71354167 22.546875,7.640625 C22.546875,5.61979167 23.2317708,4.03125 24.6015625,2.875 C25.9713542,1.71875 27.8645833,1.140625 30.28125,1.140625 C31.46875,1.140625 32.6015625,1.28125 33.6796875,1.5625 C34.7578125,1.84375 35.8854167,2.23958333 37.0625,2.75 L35.5,6.515625 C34.28125,6.015625 33.2734375,5.66666667 32.4765625,5.46875 C31.6796875,5.27083333 30.8958333,5.171875 30.125,5.171875 C29.2083333,5.171875 28.5052083,5.38541667 28.015625,5.8125 C27.5260417,6.23958333 27.28125,6.796875 27.28125,7.484375 C27.28125,7.91145833 27.3802083,8.28385417 27.578125,8.6015625 C27.7760417,8.91927083 28.0911458,9.2265625 28.5234375,9.5234375 C28.9557292,9.8203125 29.9791667,10.3541667 31.59375,11.125 C33.7291667,12.1458333 35.1927083,13.1692708 35.984375,14.1953125 C36.7760417,15.2213542 37.171875,16.4791667 37.171875,17.96875 Z" id="Path"></path>
                    <path d="M68.578125,12.671875 C68.578125,16.4322917 67.5078125,19.3125 65.3671875,21.3125 C63.2265625,23.3125 60.1354167,24.3125 56.09375,24.3125 L49.625,24.3125 L49.625,1.46875 L56.796875,1.46875 C60.5260417,1.46875 63.421875,2.453125 65.484375,4.421875 C67.546875,6.390625 68.578125,9.140625 68.578125,12.671875 Z M63.546875,12.796875 C63.546875,7.890625 61.3802083,5.4375 57.046875,5.4375 L54.46875,5.4375 L54.46875,20.3125 L56.546875,20.3125 C61.2135417,20.3125 63.546875,17.8072917 63.546875,12.796875 Z" id="Shape"></path>
                    <path d="M72.734375,2.328125 C72.734375,0.776041667 73.5989583,0 75.328125,0 C77.0572917,0 77.921875,0.776041667 77.921875,2.328125 C77.921875,3.06770833 77.7057292,3.64322917 77.2734375,4.0546875 C76.8411458,4.46614583 76.1927083,4.671875 75.328125,4.671875 C73.5989583,4.671875 72.734375,3.890625 72.734375,2.328125 Z M77.703125,24.3125 L72.9375,24.3125 L72.9375,6.84375 L77.703125,6.84375 L77.703125,24.3125 Z" id="Shape"></path>
                    <path d="M92.453125,6.515625 C93.0989583,6.515625 93.6354167,6.5625 94.0625,6.65625 L93.703125,11.125 C93.3177083,11.0208333 92.8489583,10.96875 92.296875,10.96875 C90.7760417,10.96875 89.5911458,11.359375 88.7421875,12.140625 C87.8932292,12.921875 87.46875,14.015625 87.46875,15.421875 L87.46875,24.3125 L82.703125,24.3125 L82.703125,6.84375 L86.3125,6.84375 L87.015625,9.78125 L87.25,9.78125 C87.7916667,8.80208333 88.5234375,8.01302083 89.4453125,7.4140625 C90.3671875,6.81510417 91.3697917,6.515625 92.453125,6.515625 Z" id="Path"></path>
                    <path d="M104.46875,9.90625 C103.458333,9.90625 102.666667,10.2265625 102.09375,10.8671875 C101.520833,11.5078125 101.192708,12.4166667 101.109375,13.59375 L107.796875,13.59375 C107.776042,12.4166667 107.46875,11.5078125 106.875,10.8671875 C106.28125,10.2265625 105.479167,9.90625 104.46875,9.90625 Z M105.140625,24.625 C102.328125,24.625 100.130208,23.8489583 98.546875,22.296875 C96.9635417,20.7447917 96.171875,18.546875 96.171875,15.703125 C96.171875,12.7760417 96.9036458,10.5130208 98.3671875,8.9140625 C99.8307292,7.31510417 101.854167,6.515625 104.4375,6.515625 C106.90625,6.515625 108.828125,7.21875 110.203125,8.625 C111.578125,10.03125 112.265625,11.9739583 112.265625,14.453125 L112.265625,16.765625 L101,16.765625 C101.052083,18.1197917 101.453125,19.1770833 102.203125,19.9375 C102.953125,20.6979167 104.005208,21.078125 105.359375,21.078125 C106.411458,21.078125 107.40625,20.96875 108.34375,20.75 C109.28125,20.53125 110.260417,20.1822917 111.28125,19.703125 L111.28125,23.390625 C110.447917,23.8072917 109.557292,24.1171875 108.609375,24.3203125 C107.661458,24.5234375 106.505208,24.625 105.140625,24.625 Z" id="Shape"></path>
                    <path d="M123.234375,24.625 C117.796875,24.625 115.078125,21.640625 115.078125,15.671875 C115.078125,12.703125 115.817708,10.4348958 117.296875,8.8671875 C118.776042,7.29947917 120.895833,6.515625 123.65625,6.515625 C125.677083,6.515625 127.489583,6.91145833 129.09375,7.703125 L127.6875,11.390625 C126.9375,11.0885417 126.239583,10.8411458 125.59375,10.6484375 C124.947917,10.4557292 124.302083,10.359375 123.65625,10.359375 C121.177083,10.359375 119.9375,12.1197917 119.9375,15.640625 C119.9375,19.0572917 121.177083,20.765625 123.65625,20.765625 C124.572917,20.765625 125.421875,20.6432292 126.203125,20.3984375 C126.984375,20.1536458 127.765625,19.7708333 128.546875,19.25 L128.546875,23.328125 C127.776042,23.8177083 126.997396,24.15625 126.210938,24.34375 C125.424479,24.53125 124.432292,24.625 123.234375,24.625 Z" id="Path"></path>
                    <path d="M139.953125,20.828125 C140.786458,20.828125 141.786458,20.6458333 142.953125,20.28125 L142.953125,23.828125 C141.765625,24.359375 140.307292,24.625 138.578125,24.625 C136.671875,24.625 135.283854,24.1432292 134.414062,23.1796875 C133.544271,22.2161458 133.109375,20.7708333 133.109375,18.84375 L133.109375,10.421875 L130.828125,10.421875 L130.828125,8.40625 L133.453125,6.8125 L134.828125,3.125 L137.875,3.125 L137.875,6.84375 L142.765625,6.84375 L142.765625,10.421875 L137.875,10.421875 L137.875,18.84375 C137.875,19.5208333 138.065104,20.0208333 138.445312,20.34375 C138.825521,20.6666667 139.328125,20.828125 139.953125,20.828125 Z" id="Path"></path>
                </g>
                <rect id="Divider" fill="#333333" x="44" y="0" width="1" height="34"></rect>
                <g id="Symbol" transform="translate(0.000000, 0.000000)">
                    <mask id="mask-2" fill="white">
                        <use xlink:href="#path-1"></use>
                    </mask>
                    <use id="Main-Symbol" fill="#95C23E" xlink:href="#path-1"></use>
                </g>
            </g>
        </g>
    </g>
</svg>