<svg width="311" height="88" viewBox="0 0 311 88" fill="none" xmlns="http://www.w3.org/2000/svg">
<g clip-path="url(#clip0_71_12133)">
<path d="M305 0H6C2.68629 0 0 2.68629 0 6V34C0 37.3137 2.68629 40 6 40H305C308.314 40 311 37.3137 311 34V6C311 2.68629 308.314 0 305 0Z" fill="white"/>
<path d="M304.5 0.5H6.5C3.18629 0.5 0.5 3.18629 0.5 6.5V33.5C0.5 36.8137 3.18629 39.5 6.5 39.5H304.5C307.814 39.5 310.5 36.8137 310.5 33.5V6.5C310.5 3.18629 307.814 0.5 304.5 0.5Z" stroke="#00005A"/>
<path d="M138.719 25L137.578 21.8281H133.211L132.094 25H130.125L134.398 13.5312H136.43L140.703 25H138.719ZM137.086 20.2188L136.016 17.1094C135.938 16.901 135.828 16.5729 135.688 16.125C135.552 15.6771 135.458 15.349 135.406 15.1406C135.266 15.7812 135.06 16.4818 134.789 17.2422L133.758 20.2188H137.086Z" fill="#00005A"/>
<path d="M143.984 25L140.703 16.3594H142.641L144.398 21.3828C144.701 22.2266 144.883 22.9089 144.945 23.4297H145.008C145.055 23.0547 145.237 22.3724 145.555 21.3828L147.312 16.3594H149.266L145.969 25H143.984Z" fill="#00005A"/>
<path d="M154.992 16.2031C156.07 16.2031 156.909 16.5938 157.508 17.375C158.112 18.1562 158.414 19.2526 158.414 20.6641C158.414 22.0807 158.109 23.1849 157.5 23.9766C156.891 24.763 156.044 25.1562 154.961 25.1562C153.867 25.1562 153.018 24.763 152.414 23.9766H152.289L151.953 25H150.578V12.8438H152.414V15.7344C152.414 15.9479 152.404 16.2656 152.383 16.6875C152.362 17.1094 152.346 17.3776 152.336 17.4922H152.414C152.997 16.6328 153.857 16.2031 154.992 16.2031ZM154.516 17.7031C153.776 17.7031 153.242 17.9219 152.914 18.3594C152.591 18.7917 152.424 19.5182 152.414 20.5391V20.6641C152.414 21.7161 152.581 22.4792 152.914 22.9531C153.247 23.4219 153.792 23.6562 154.547 23.6562C155.198 23.6562 155.69 23.3984 156.023 22.8828C156.362 22.3672 156.531 21.6224 156.531 20.6484C156.531 18.6849 155.859 17.7031 154.516 17.7031Z" fill="#00005A"/>
<path d="M164.93 16.2031C165.299 16.2031 165.604 16.2292 165.844 16.2812L165.664 17.9922C165.404 17.9297 165.133 17.8984 164.852 17.8984C164.117 17.8984 163.521 18.138 163.062 18.6172C162.609 19.0964 162.383 19.7188 162.383 20.4844V25H160.547V16.3594H161.984L162.227 17.8828H162.32C162.607 17.3672 162.979 16.9583 163.438 16.6562C163.901 16.3542 164.398 16.2031 164.93 16.2031Z" fill="#00005A"/>
<path d="M166.141 16.3594H168.141L169.898 21.2578C170.164 21.9557 170.341 22.612 170.43 23.2266H170.492C170.539 22.9401 170.625 22.5938 170.75 22.1875C170.875 21.776 171.536 19.8333 172.734 16.3594H174.719L171.023 26.1484C170.352 27.9453 169.232 28.8438 167.664 28.8438C167.258 28.8438 166.862 28.7995 166.477 28.7109V27.2578C166.753 27.3203 167.068 27.3516 167.422 27.3516C168.307 27.3516 168.93 26.8385 169.289 25.8125L169.609 25L166.141 16.3594Z" fill="#00005A"/>
<path d="M179.25 23.6719C179.698 23.6719 180.146 23.6016 180.594 23.4609V24.8438C180.391 24.9323 180.128 25.0052 179.805 25.0625C179.487 25.125 179.156 25.1562 178.812 25.1562C177.073 25.1562 176.203 24.2396 176.203 22.4062V17.75H175.023V16.9375L176.289 16.2656L176.914 14.4375H178.047V16.3594H180.508V17.75H178.047V22.375C178.047 22.8177 178.156 23.1458 178.375 23.3594C178.599 23.5677 178.891 23.6719 179.25 23.6719Z" fill="#00005A"/>
<path d="M305 48H6C2.68629 48 0 50.6863 0 54V82C0 85.3137 2.68629 88 6 88H305C308.314 88 311 85.3137 311 82V54C311 50.6863 308.314 48 305 48Z" fill="#00005A"/>
<path d="M89.7812 69.8984C89.7812 70.9141 89.4141 71.7109 88.6797 72.2891C87.9453 72.8672 86.9323 73.1562 85.6406 73.1562C84.349 73.1562 83.2917 72.9557 82.4688 72.5547V70.7891C82.9896 71.0339 83.5417 71.2266 84.125 71.3672C84.7135 71.5078 85.2604 71.5781 85.7656 71.5781C86.5052 71.5781 87.0495 71.4375 87.3984 71.1562C87.7526 70.875 87.9297 70.4974 87.9297 70.0234C87.9297 69.5964 87.7682 69.2344 87.4453 68.9375C87.1224 68.6406 86.4557 68.2891 85.4453 67.8828C84.4036 67.4609 83.6693 66.9792 83.2422 66.4375C82.8151 65.8958 82.6016 65.2448 82.6016 64.4844C82.6016 63.5312 82.9401 62.7812 83.6172 62.2344C84.2943 61.6875 85.2031 61.4141 86.3438 61.4141C87.4375 61.4141 88.526 61.6536 89.6094 62.1328L89.0156 63.6562C88 63.2292 87.0938 63.0156 86.2969 63.0156C85.6927 63.0156 85.2344 63.1484 84.9219 63.4141C84.6094 63.6745 84.4531 64.0208 84.4531 64.4531C84.4531 64.75 84.5156 65.0052 84.6406 65.2188C84.7656 65.4271 84.9714 65.625 85.2578 65.8125C85.5443 66 86.0599 66.2474 86.8047 66.5547C87.6432 66.9036 88.2578 67.2292 88.6484 67.5312C89.0391 67.8333 89.3255 68.1745 89.5078 68.5547C89.6901 68.9349 89.7812 69.3828 89.7812 69.8984Z" fill="white"/>
<path d="M93.5703 68.4375L94.6094 67.1406L97.2188 64.3594H99.3359L95.8594 68.0703L99.5547 73H97.3984L94.625 69.2109L93.6172 70.0391V73H91.7969V60.8438H93.6172V66.7734L93.5234 68.4375H93.5703Z" fill="white"/>
<path d="M102.789 73H100.953V64.3594H102.789V73ZM100.844 62.0703C100.844 61.7422 100.932 61.4896 101.109 61.3125C101.292 61.1354 101.549 61.0469 101.883 61.0469C102.206 61.0469 102.456 61.1354 102.633 61.3125C102.815 61.4896 102.906 61.7422 102.906 62.0703C102.906 62.3828 102.815 62.6302 102.633 62.8125C102.456 62.9896 102.206 63.0781 101.883 63.0781C101.549 63.0781 101.292 62.9896 101.109 62.8125C100.932 62.6302 100.844 62.3828 100.844 62.0703Z" fill="white"/>
<path d="M108.906 73.1562C107.599 73.1562 106.604 72.776 105.922 72.0156C105.245 71.25 104.906 70.1536 104.906 68.7266C104.906 67.2734 105.26 66.1562 105.969 65.375C106.682 64.5938 107.711 64.2031 109.055 64.2031C109.966 64.2031 110.786 64.3724 111.516 64.7109L110.961 66.1875C110.185 65.8854 109.544 65.7344 109.039 65.7344C107.544 65.7344 106.797 66.7266 106.797 68.7109C106.797 69.6797 106.982 70.4089 107.352 70.8984C107.727 71.3828 108.273 71.625 108.992 71.625C109.81 71.625 110.583 71.4219 111.312 71.0156V72.6172C110.984 72.8099 110.633 72.9479 110.258 73.0312C109.888 73.1146 109.438 73.1562 108.906 73.1562Z" fill="white"/>
<path d="M115.117 68.4375L116.156 67.1406L118.766 64.3594H120.883L117.406 68.0703L121.102 73H118.945L116.172 69.2109L115.164 70.0391V73H113.344V60.8438H115.164V66.7734L115.07 68.4375H115.117Z" fill="white"/>
<path d="M127.906 73L127.539 71.7969H127.477C127.06 72.3229 126.641 72.6823 126.219 72.875C125.797 73.0625 125.255 73.1562 124.594 73.1562C123.745 73.1562 123.081 72.9271 122.602 72.4688C122.128 72.0104 121.891 71.362 121.891 70.5234C121.891 69.6328 122.221 68.9609 122.883 68.5078C123.544 68.0547 124.552 67.8073 125.906 67.7656L127.398 67.7188V67.2578C127.398 66.7057 127.268 66.2943 127.008 66.0234C126.753 65.7474 126.354 65.6094 125.812 65.6094C125.37 65.6094 124.945 65.6745 124.539 65.8047C124.133 65.9349 123.742 66.0885 123.367 66.2656L122.773 64.9531C123.242 64.7083 123.755 64.5234 124.312 64.3984C124.87 64.2682 125.396 64.2031 125.891 64.2031C126.99 64.2031 127.818 64.4427 128.375 64.9219C128.938 65.401 129.219 66.1536 129.219 67.1797V73H127.906ZM125.172 71.75C125.839 71.75 126.372 71.5651 126.773 71.1953C127.18 70.8203 127.383 70.2969 127.383 69.625V68.875L126.273 68.9219C125.409 68.9531 124.779 69.099 124.383 69.3594C123.992 69.6146 123.797 70.0078 123.797 70.5391C123.797 70.9245 123.911 71.224 124.141 71.4375C124.37 71.6458 124.714 71.75 125.172 71.75Z" fill="white"/>
<path d="M137.773 73H135.938V64.3594H137.773V73ZM135.828 62.0703C135.828 61.7422 135.917 61.4896 136.094 61.3125C136.276 61.1354 136.534 61.0469 136.867 61.0469C137.19 61.0469 137.44 61.1354 137.617 61.3125C137.799 61.4896 137.891 61.7422 137.891 62.0703C137.891 62.3828 137.799 62.6302 137.617 62.8125C137.44 62.9896 137.19 63.0781 136.867 63.0781C136.534 63.0781 136.276 62.9896 136.094 62.8125C135.917 62.6302 135.828 62.3828 135.828 62.0703Z" fill="white"/>
<path d="M148.008 73H146.164V67.6875C146.164 67.0208 146.029 66.5234 145.758 66.1953C145.492 65.8672 145.068 65.7031 144.484 65.7031C143.708 65.7031 143.141 65.9323 142.781 66.3906C142.422 66.849 142.242 67.6172 142.242 68.6953V73H140.406V64.3594H141.844L142.102 65.4922H142.195C142.456 65.0807 142.826 64.763 143.305 64.5391C143.784 64.3151 144.315 64.2031 144.898 64.2031C146.971 64.2031 148.008 65.2578 148.008 67.3672V73Z" fill="white"/>
<path d="M158.492 73.1562C157.148 73.1562 156.096 72.7656 155.336 71.9844C154.581 71.1979 154.203 70.1172 154.203 68.7422C154.203 67.3307 154.555 66.2214 155.258 65.4141C155.961 64.6068 156.927 64.2031 158.156 64.2031C159.297 64.2031 160.198 64.5495 160.859 65.2422C161.521 65.9349 161.852 66.888 161.852 68.1016V69.0938H156.094C156.12 69.9323 156.346 70.5781 156.773 71.0312C157.201 71.4792 157.802 71.7031 158.578 71.7031C159.089 71.7031 159.562 71.6562 160 71.5625C160.443 71.4635 160.917 71.3021 161.422 71.0781V72.5703C160.974 72.7839 160.521 72.9349 160.062 73.0234C159.604 73.112 159.081 73.1562 158.492 73.1562ZM158.156 65.5938C157.573 65.5938 157.104 65.7786 156.75 66.1484C156.401 66.5182 156.193 67.0573 156.125 67.7656H160.047C160.036 67.0521 159.865 66.513 159.531 66.1484C159.198 65.7786 158.74 65.5938 158.156 65.5938Z" fill="white"/>
<path d="M171.539 73H169.695V67.6875C169.695 67.0208 169.56 66.5234 169.289 66.1953C169.023 65.8672 168.599 65.7031 168.016 65.7031C167.24 65.7031 166.672 65.9323 166.312 66.3906C165.953 66.849 165.773 67.6172 165.773 68.6953V73H163.938V64.3594H165.375L165.633 65.4922H165.727C165.987 65.0807 166.357 64.763 166.836 64.5391C167.315 64.3151 167.846 64.2031 168.43 64.2031C170.503 64.2031 171.539 65.2578 171.539 67.3672V73Z" fill="white"/>
<path d="M175.867 68.4375L176.906 67.1406L179.516 64.3594H181.633L178.156 68.0703L181.852 73H179.695L176.922 69.2109L175.914 70.0391V73H174.094V60.8438H175.914V66.7734L175.82 68.4375H175.867Z" fill="white"/>
<path d="M188.656 73L188.289 71.7969H188.227C187.81 72.3229 187.391 72.6823 186.969 72.875C186.547 73.0625 186.005 73.1562 185.344 73.1562C184.495 73.1562 183.831 72.9271 183.352 72.4688C182.878 72.0104 182.641 71.362 182.641 70.5234C182.641 69.6328 182.971 68.9609 183.633 68.5078C184.294 68.0547 185.302 67.8073 186.656 67.7656L188.148 67.7188V67.2578C188.148 66.7057 188.018 66.2943 187.758 66.0234C187.503 65.7474 187.104 65.6094 186.562 65.6094C186.12 65.6094 185.695 65.6745 185.289 65.8047C184.883 65.9349 184.492 66.0885 184.117 66.2656L183.523 64.9531C183.992 64.7083 184.505 64.5234 185.062 64.3984C185.62 64.2682 186.146 64.2031 186.641 64.2031C187.74 64.2031 188.568 64.4427 189.125 64.9219C189.688 65.401 189.969 66.1536 189.969 67.1797V73H188.656ZM185.922 71.75C186.589 71.75 187.122 71.5651 187.523 71.1953C187.93 70.8203 188.133 70.2969 188.133 69.625V68.875L187.023 68.9219C186.159 68.9531 185.529 69.099 185.133 69.3594C184.742 69.6146 184.547 70.0078 184.547 70.5391C184.547 70.9245 184.661 71.224 184.891 71.4375C185.12 71.6458 185.464 71.75 185.922 71.75ZM184.141 62.0703C184.141 61.7474 184.227 61.5156 184.398 61.375C184.576 61.2292 184.789 61.1562 185.039 61.1562C185.315 61.1562 185.534 61.237 185.695 61.3984C185.862 61.5599 185.945 61.7839 185.945 62.0703C185.945 62.3464 185.862 62.5677 185.695 62.7344C185.529 62.901 185.31 62.9844 185.039 62.9844C184.789 62.9844 184.576 62.9089 184.398 62.7578C184.227 62.6068 184.141 62.3776 184.141 62.0703ZM187.211 62.0703C187.211 61.7474 187.297 61.5156 187.469 61.375C187.646 61.2292 187.859 61.1562 188.109 61.1562C188.385 61.1562 188.607 61.237 188.773 61.3984C188.94 61.5599 189.023 61.7839 189.023 62.0703C189.023 62.3516 188.938 62.5755 188.766 62.7422C188.594 62.9036 188.375 62.9844 188.109 62.9844C187.859 62.9844 187.646 62.9089 187.469 62.7578C187.297 62.6068 187.211 62.3776 187.211 62.0703Z" fill="white"/>
<path d="M195.75 71.6719C196.198 71.6719 196.646 71.6016 197.094 71.4609V72.8438C196.891 72.9323 196.628 73.0052 196.305 73.0625C195.987 73.125 195.656 73.1562 195.312 73.1562C193.573 73.1562 192.703 72.2396 192.703 70.4062V65.75H191.523V64.9375L192.789 64.2656L193.414 62.4375H194.547V64.3594H197.008V65.75H194.547V70.375C194.547 70.8177 194.656 71.1458 194.875 71.3594C195.099 71.5677 195.391 71.6719 195.75 71.6719Z" fill="white"/>
<path d="M204.633 70.5391C204.633 71.3828 204.326 72.0312 203.711 72.4844C203.096 72.9323 202.216 73.1562 201.07 73.1562C199.919 73.1562 198.995 72.9818 198.297 72.6328V71.0469C199.312 71.5156 200.258 71.75 201.133 71.75C202.263 71.75 202.828 71.4089 202.828 70.7266C202.828 70.5078 202.766 70.3255 202.641 70.1797C202.516 70.0339 202.31 69.8828 202.023 69.7266C201.737 69.5703 201.339 69.3932 200.828 69.1953C199.833 68.8099 199.159 68.4245 198.805 68.0391C198.456 67.6536 198.281 67.1536 198.281 66.5391C198.281 65.7995 198.578 65.2266 199.172 64.8203C199.771 64.4089 200.583 64.2031 201.609 64.2031C202.625 64.2031 203.586 64.4089 204.492 64.8203L203.898 66.2031C202.966 65.8177 202.182 65.625 201.547 65.625C200.578 65.625 200.094 65.901 200.094 66.4531C200.094 66.724 200.219 66.9531 200.469 67.1406C200.724 67.3281 201.276 67.5859 202.125 67.9141C202.839 68.1901 203.357 68.4427 203.68 68.6719C204.003 68.901 204.242 69.1667 204.398 69.4688C204.555 69.7656 204.633 70.1224 204.633 70.5391Z" fill="white"/>
<path d="M208.594 73L205.312 64.3594H207.25L209.008 69.3828C209.31 70.2266 209.492 70.9089 209.555 71.4297H209.617C209.664 71.0547 209.846 70.3724 210.164 69.3828L211.922 64.3594H213.875L210.578 73H208.594Z" fill="white"/>
<path d="M220.594 73L220.227 71.7969H220.164C219.747 72.3229 219.328 72.6823 218.906 72.875C218.484 73.0625 217.943 73.1562 217.281 73.1562C216.432 73.1562 215.768 72.9271 215.289 72.4688C214.815 72.0104 214.578 71.362 214.578 70.5234C214.578 69.6328 214.909 68.9609 215.57 68.5078C216.232 68.0547 217.24 67.8073 218.594 67.7656L220.086 67.7188V67.2578C220.086 66.7057 219.956 66.2943 219.695 66.0234C219.44 65.7474 219.042 65.6094 218.5 65.6094C218.057 65.6094 217.633 65.6745 217.227 65.8047C216.82 65.9349 216.43 66.0885 216.055 66.2656L215.461 64.9531C215.93 64.7083 216.443 64.5234 217 64.3984C217.557 64.2682 218.083 64.2031 218.578 64.2031C219.677 64.2031 220.505 64.4427 221.062 64.9219C221.625 65.401 221.906 66.1536 221.906 67.1797V73H220.594ZM217.859 71.75C218.526 71.75 219.06 71.5651 219.461 71.1953C219.867 70.8203 220.07 70.2969 220.07 69.625V68.875L218.961 68.9219C218.096 68.9531 217.466 69.099 217.07 69.3594C216.68 69.6146 216.484 70.0078 216.484 70.5391C216.484 70.9245 216.599 71.224 216.828 71.4375C217.057 71.6458 217.401 71.75 217.859 71.75Z" fill="white"/>
<path d="M228.852 64.2031C229.221 64.2031 229.526 64.2292 229.766 64.2812L229.586 65.9922C229.326 65.9297 229.055 65.8984 228.773 65.8984C228.039 65.8984 227.443 66.138 226.984 66.6172C226.531 67.0964 226.305 67.7188 226.305 68.4844V73H224.469V64.3594H225.906L226.148 65.8828H226.242C226.529 65.3672 226.901 64.9583 227.359 64.6562C227.823 64.3542 228.32 64.2031 228.852 64.2031Z" fill="white"/>
</g>
<defs>
<clipPath id="clip0_71_12133">
<rect width="311" height="88" fill="white"/>
</clipPath>
</defs>
</svg>
