<?xml version="1.0" encoding="UTF-8"?>
<svg width="292px" height="262px" viewBox="0 0 292 262" version="1.1" xmlns="http://www.w3.org/2000/svg" xmlns:xlink="http://www.w3.org/1999/xlink">
    <title>Group 22Ikoner</title>
    <defs>
        <polygon id="path-1" points="0 261.327 291.398 261.327 291.398 0 0 0"></polygon>
    </defs>
    <g id="Page-1" stroke="none" stroke-width="1" fill="none" fill-rule="evenodd">
        <g id="Group-22" transform="translate(0, 0)">
            <path d="M109.0097,239.7453 L106.2937,239.7453 L106.2937,204.4623 C106.2937,193.2913 115.3827,184.2023 126.5537,184.2023 L148.9807,183.8173 C149.0997,183.8173 159.0327,183.8553 170.7997,179.3153 C178.8957,176.1923 208.4557,153.1823 219.5837,144.5193 L221.0687,143.3633 C231.2957,135.4093 277.0697,97.5493 288.0237,87.6903 C276.4777,77.7253 263.0587,82.1733 257.4297,86.0563 C251.8387,89.9123 225.4297,110.9533 225.1637,111.1653 L223.4707,109.0413 C224.5607,108.1733 250.2197,87.7293 255.8877,83.8203 C262.3227,79.3823 277.9357,74.2753 290.9767,86.7043 C291.2477,86.9623 291.4007,87.3203 291.397743,87.6943 C291.3957,88.0693 291.2397,88.4263 290.9657,88.6803 C282.4097,96.6543 233.3737,137.2343 222.7367,145.5073 L221.2517,146.6633 C208.9817,156.2143 180.2477,178.5823 171.7767,181.8493 C159.4997,186.5863 149.4087,186.5323 148.9897,186.5333 L126.5767,186.9183 C116.8797,186.9183 109.0097,194.7883 109.0097,204.4623 L109.0097,239.7453 Z" id="Fill-1" fill="#333333"></path>
            <path d="M110.1398,163.5073 L107.9018,161.9683 C109.0988,160.2273 110.3928,158.9293 111.9738,157.8833 L113.4718,160.1493 C112.1918,160.9963 111.1328,162.0633 110.1398,163.5073" id="Fill-3" fill="#333333"></path>
            <path d="M150.0304,158.1326 L150.0064,155.4166 C153.8144,155.3826 156.9304,155.2806 159.5314,155.1036 C167.7644,154.5456 170.4354,152.4756 174.8614,149.0466 C176.0004,148.1646 177.2904,147.1646 178.7894,146.1126 C181.2984,144.3526 190.3554,137.3156 199.9444,129.8666 C209.5394,122.4116 219.4194,114.7366 223.9064,111.4376 C217.0074,107.1386 209.8704,106.4246 201.6064,109.1756 C191.2894,112.6096 168.7294,130.3546 168.5024,130.5336 C167.9194,130.9936 167.0754,130.8996 166.6074,130.3246 C163.2574,126.2046 155.9544,122.2496 146.5714,119.4726 L147.3424,116.8686 C152.8374,118.4946 162.5254,121.9906 167.8344,127.6086 C172.4444,124.0326 191.1494,109.7936 200.7484,106.5986 C210.5444,103.3376 218.9104,104.5106 227.0784,110.2866 C227.4414,110.5436 227.6554,110.9606 227.652431,111.4046 C227.6494,111.8486 227.4294,112.2636 227.0634,112.5146 C223.9524,114.6546 212.5944,123.4786 201.6104,132.0116 C191.9944,139.4816 182.9124,146.5376 180.3494,148.3366 C178.9034,149.3506 177.6944,150.2876 176.5254,151.1936 C172.0254,154.6806 168.7734,157.1996 159.7154,157.8136 C157.0604,157.9936 153.8924,158.0986 150.0304,158.1326" id="Fill-5" fill="#333333"></path>
            <path d="M63.1057,122.5807 L62.0437,120.0807 C71.5307,116.0507 81.5867,114.0067 91.9317,114.0067 L112.8037,114.0067 L112.8037,116.7227 L91.9317,116.7227 C81.9537,116.7227 72.2547,118.6937 63.1057,122.5807" id="Fill-7" fill="#333333"></path>
            <mask id="mask-2" fill="white">
                <use xlink:href="#path-1"></use>
            </mask>
            <g id="Clip-10"></g>
            <polygon id="Fill-9" fill="#333333" mask="url(#mask-2)" points="14.966 261.327 17.682 261.327 17.682 220.727 14.966 220.727"></polygon>
            <path d="M184.9667,117.8713 C160.0727,109.7253 143.3477,86.6403 143.3477,60.4283 C143.3477,55.4623 143.9517,50.5233 145.1427,45.7493 L147.7777,46.4073 C146.6407,50.9663 146.0637,55.6833 146.0637,60.4283 C146.0637,85.4623 162.0367,107.5103 185.8117,115.2893 L184.9667,117.8713 Z" id="Fill-11" fill="#333333" mask="url(#mask-2)"></path>
            <path d="M259.1271,84.7075 L256.6401,83.6155 C259.8561,76.2935 261.4871,68.4925 261.4871,60.4275 C261.4871,28.6055 235.5981,2.7155 203.7751,2.7155 C187.3341,2.7155 171.6261,9.7605 160.6791,22.0425 L158.6511,20.2355 C170.1131,7.3755 186.5601,-0.0005 203.7751,-0.0005 C237.0951,-0.0005 264.2031,27.1075 264.2031,60.4275 C264.2031,68.8705 262.4951,77.0395 259.1271,84.7075" id="Fill-12" fill="#333333" mask="url(#mask-2)"></path>
            <path d="M30.1902,157.1993 C17.9582,148.2133 10.6562,133.7993 10.6562,118.6413 C10.6562,92.2773 32.1052,70.8293 58.4692,70.8293 C66.0692,70.8293 73.3352,72.5603 80.0662,75.9743 L78.8382,78.3963 C72.4912,75.1773 65.6382,73.5453 58.4692,73.5453 C33.6022,73.5453 13.3722,93.7753 13.3722,118.6413 C13.3722,132.9383 20.2602,146.5343 31.7982,155.0103 L30.1902,157.1993 Z" id="Fill-13" fill="#333333" mask="url(#mask-2)"></path>
            <path d="M101.9393,84.1235 C93.8773,84.1235 85.8943,82.1015 78.8553,78.2775 L80.1513,75.8915 C86.7943,79.4995 94.3283,81.4075 101.9393,81.4075 C112.9273,81.4075 123.5473,77.4525 131.8433,70.2695 L133.6213,72.3235 C124.8313,79.9325 113.5803,84.1235 101.9393,84.1235" id="Fill-14" fill="#333333" mask="url(#mask-2)"></path>
            <path d="M4.3629,194.4598 L1.9269,193.2578 C13.4639,169.8628 34.0659,150.5548 40.8359,144.2098 C41.3079,143.7668 41.7019,143.3978 42.0089,143.1058 L43.8829,145.0708 C43.5709,145.3678 43.1719,145.7428 42.6929,146.1908 C36.0129,152.4528 15.6819,171.5068 4.3629,194.4598" id="Fill-15" fill="#333333" mask="url(#mask-2)"></path>
            <path d="M42.5111,233.1389 C37.9281,233.1389 28.0351,231.2339 19.0781,226.7729 C10.7941,222.6479 0.7651,215.0529 0.0251,202.2979 C-0.1969,198.4849 1.1121,195.0169 1.9121,193.2879 L4.3771,194.4299 C3.6841,195.9269 2.5491,198.9199 2.7361,202.1409 C4.0041,223.9869 36.1091,230.6309 42.9011,230.4169 C45.5991,230.3279 47.5711,229.5989 48.7621,228.2499 C50.1771,226.6479 50.2141,224.5109 50.1111,223.3809 C50.0321,222.5269 49.1771,219.9109 42.9361,214.0779 C38.9551,210.3579 34.5991,207.0359 32.6431,205.7099 C32.2131,205.4189 31.9861,204.9079 32.0611,204.3929 C32.1341,203.8779 32.4961,203.4509 32.9911,203.2929 C39.6801,201.1519 57.7541,191.1839 62.2521,188.3559 C74.1181,180.8929 81.2021,168.6049 81.2021,155.4869 C81.2021,142.0559 74.3261,129.8909 62.8091,122.9489 L64.2111,120.6219 C76.5511,128.0619 83.9181,141.0949 83.9181,155.4869 C83.9181,169.5449 76.3591,182.6919 63.6981,190.6549 C59.4621,193.3189 44.3621,201.6829 36.2601,204.9759 C41.3781,208.8249 52.3341,217.8749 52.8151,223.1329 C52.9591,224.6989 52.8871,227.6809 50.7981,230.0469 C49.0921,231.9789 46.4651,233.0169 42.9901,233.1309 C42.8381,233.1369 42.6781,233.1389 42.5111,233.1389" id="Fill-16" fill="#333333" mask="url(#mask-2)"></path>
            <path d="M151.4984,48.0098 C142.9534,48.0098 136.0024,41.0578 136.0024,32.5128 C136.0024,23.9688 142.9534,17.0168 151.4984,17.0168 C160.0434,17.0168 166.9954,23.9688 166.9954,32.5128 L164.2784,32.5128 C164.2784,25.4658 158.5454,19.7328 151.4984,19.7328 C144.4514,19.7328 138.7184,25.4658 138.7184,32.5128 C138.7184,39.5608 144.4514,45.2938 151.4984,45.2938 L151.4984,48.0098 Z" id="Fill-17" fill="#333333" mask="url(#mask-2)"></path>
            <path d="M122.8261,180.5189 C120.7021,180.5189 119.6431,179.9149 118.1071,177.8239 C114.5031,172.9179 108.1211,152.5179 108.9211,135.2409 C110.3651,104.0169 122.7611,76.5889 143.8241,58.0109 L145.6211,60.0479 C125.1141,78.1349 113.0441,104.8839 111.6341,135.3669 C110.8121,153.1239 117.4151,172.2939 120.2961,176.2159 C121.4621,177.8029 121.8061,177.8029 122.8261,177.8029 C124.3581,177.8029 125.6041,176.5569 125.6041,175.0249 C125.6041,174.3789 126.0591,173.8219 126.6921,173.6939 C127.3241,173.5659 127.9611,173.9009 128.2131,174.4959 C128.7751,175.8249 130.0711,176.6839 131.5131,176.6839 C133.4881,176.6839 135.0941,175.0769 135.0941,173.1019 C135.0941,172.4159 135.6061,171.8369 136.2871,171.7539 C136.9711,171.6659 137.6051,172.1089 137.7701,172.7749 C138.0781,174.0139 139.1871,174.8789 140.4671,174.8789 C141.9991,174.8789 143.2451,173.6329 143.2451,172.1009 C143.2451,171.7839 143.3561,171.4779 143.5581,171.2339 L143.5951,171.1899 C144.0731,170.6129 144.9281,170.5329 145.5051,171.0109 C146.1951,171.5809 147.0681,171.8949 147.9641,171.8949 C150.0921,171.8949 151.8241,170.1629 151.8241,168.0349 C151.8241,167.4259 151.5901,166.9399 151.2351,166.2049 C151.1161,165.9579 150.9921,165.7019 150.8711,165.4269 C149.3291,161.9309 145.0471,140.2939 145.0471,128.2369 C145.0471,122.2919 145.6161,116.3439 146.7371,110.5579 L149.4031,111.0739 C148.3151,116.6909 147.7641,122.4649 147.7641,128.2369 C147.7641,139.7449 151.9161,161.0669 153.3561,164.3309 C153.4641,164.5759 153.5741,164.8039 153.6811,165.0239 C154.1031,165.8989 154.5401,166.8039 154.5401,168.0349 C154.5401,171.6609 151.5901,174.6109 147.9641,174.6109 C147.1381,174.6109 146.3231,174.4539 145.5621,174.1559 C144.7471,176.1709 142.7701,177.5959 140.4671,177.5959 C139.1341,177.5959 137.8941,177.1199 136.9301,176.3109 C135.8321,178.1589 133.8151,179.3999 131.5131,179.3999 C130.0051,179.3999 128.5891,178.8659 127.4801,177.9419 C126.5071,179.4889 124.7851,180.5189 122.8261,180.5189" id="Fill-18" fill="#333333" mask="url(#mask-2)"></path>
            <path d="M191.6584,70.7794 C183.9844,70.7794 177.7404,64.5354 177.7404,56.8614 L180.4564,56.8614 C180.4564,63.0384 185.4814,68.0634 191.6584,68.0634 L191.6584,70.7794 Z" id="Fill-19" fill="#333333" mask="url(#mask-2)"></path>
            <path d="M227.1386,96.6838 C221.1246,96.6838 215.8146,92.8508 213.9246,87.1458 L216.5026,86.2918 C218.0236,90.8828 222.2976,93.9678 227.1386,93.9678 C228.8266,93.9678 230.4476,93.6018 231.9586,92.8808 L233.1286,95.3318 C231.2496,96.2288 229.2346,96.6838 227.1386,96.6838" id="Fill-20" fill="#333333" mask="url(#mask-2)"></path>
            <path d="M189.1417,101.3283 C178.7237,96.2743 170.1877,88.2753 164.4557,78.1973 L166.8167,76.8543 C172.2757,86.4533 180.4057,94.0703 190.3277,98.8843 L189.1417,101.3283 Z" id="Fill-21" fill="#333333" mask="url(#mask-2)"></path>
        </g>
    </g>
</svg>