<?xml version="1.0" encoding="UTF-8"?>
<svg width="161px" height="307px" viewBox="0 0 161 307" version="1.1" xmlns="http://www.w3.org/2000/svg" xmlns:xlink="http://www.w3.org/1999/xlink">
    <title>Group 35Ikoner</title>
    <defs>
        <polygon id="path-1" points="0 -2.84217094e-14 18.7494683 -2.84217094e-14 18.7494683 3.304 0 3.304"></polygon>
        <polygon id="path-3" points="0 -5.68434189e-14 3.30373664 -5.68434189e-14 3.30373664 18.751 0 18.751"></polygon>
    </defs>
    <g id="Page-1" stroke="none" stroke-width="1" fill="none" fill-rule="evenodd">
        <g id="Group-35">
            <path d="M71.0187633,145.5239 C70.2047633,145.5239 69.5457633,144.8649 69.5457633,144.0509 L69.5457633,117.9239 L62.8907633,111.9339 C62.2867633,111.3899 62.2367633,110.4589 62.7817633,109.8539 C63.3257633,109.2499 64.2557633,109.1999 64.8617633,109.7439 L72.0047633,116.1729 C72.3147633,116.4519 72.4917633,116.8499 72.4917633,117.2679 L72.4917633,144.0509 C72.4917633,144.8649 71.8327633,145.5239 71.0187633,145.5239" id="Fill-1" fill="#9DC01E"></path>
            <path d="M91.3743633,145.5239 C90.5603633,145.5239 89.9013633,144.8649 89.9013633,144.0509 L89.9013633,117.2679 C89.9013633,116.8499 90.0783633,116.4519 90.3883633,116.1729 L97.5313633,109.7439 C98.1373633,109.1999 99.0663633,109.2499 99.6113633,109.8539 C100.156363,110.4589 100.106363,111.3899 99.5023633,111.9339 L92.8473633,117.9239 L92.8473633,144.0509 C92.8473633,144.8649 92.1883633,145.5239 91.3743633,145.5239" id="Fill-3" fill="#9DC01E"></path>
            <path d="M104.104863,167.5907 C103.290863,167.5907 102.631863,166.9317 102.631863,166.1177 L102.631863,131.6987 C102.631863,124.0597 106.029863,116.8667 111.955863,111.9557 C121.420863,103.3217 126.848863,91.0277 126.848863,78.2227 C126.848863,53.0497 106.369863,32.5707 81.1968633,32.5707 C56.0238633,32.5707 35.5448633,53.0497 35.5448633,78.2227 C35.5448633,91.0277 40.9728633,103.3217 50.4368633,111.9557 C56.3628633,116.8667 59.7608633,124.0597 59.7608633,131.6987 L59.7608633,166.1177 C59.7608633,166.9317 59.1018633,167.5907 58.2878633,167.5907 C57.4748633,167.5907 56.8148633,166.9317 56.8148633,166.1177 L56.8148633,131.6987 C56.8148633,124.9297 53.7958633,118.5537 48.5328633,114.2047 C48.5148633,114.1897 48.4968633,114.1737 48.4788633,114.1577 C38.3868633,104.9647 32.5988633,91.8667 32.5988633,78.2227 C32.5988633,51.4257 54.3998633,29.6247 81.1968633,29.6247 C107.993863,29.6247 129.794863,51.4257 129.794863,78.2227 C129.794863,91.8667 124.006863,104.9647 113.913863,114.1587 C113.896863,114.1737 113.878863,114.1897 113.860863,114.2047 C108.596863,118.5537 105.577863,124.9297 105.577863,131.6987 L105.577863,166.1177 C105.577863,166.9317 104.918863,167.5907 104.104863,167.5907" id="Fill-5" fill="#3B3735"></path>
            <path d="M110.212663,145.5239 L52.1806633,145.5239 C51.3676633,145.5239 50.7076633,144.8649 50.7076633,144.0509 C50.7076633,143.2369 51.3676633,142.5779 52.1806633,142.5779 L110.212663,142.5779 C111.026663,142.5779 111.685663,143.2369 111.685663,144.0509 C111.685663,144.8649 111.026663,145.5239 110.212663,145.5239" id="Fill-7" fill="#3B3735"></path>
            <path d="M110.212663,156.2377 L52.1806633,156.2377 C51.3676633,156.2377 50.7076633,155.5787 50.7076633,154.7647 C50.7076633,153.9507 51.3676633,153.2917 52.1806633,153.2917 L110.212663,153.2917 C111.026663,153.2917 111.685663,153.9507 111.685663,154.7647 C111.685663,155.5787 111.026663,156.2377 110.212663,156.2377" id="Fill-9" fill="#3B3735"></path>
            <path d="M110.212663,167.5907 L52.1806633,167.5907 C51.3676633,167.5907 50.7076633,166.9317 50.7076633,166.1177 C50.7076633,165.3037 51.3676633,164.6447 52.1806633,164.6447 L110.212663,164.6447 C111.026663,164.6447 111.685663,165.3037 111.685663,166.1177 C111.685663,166.9317 111.026663,167.5907 110.212663,167.5907" id="Fill-11" fill="#3B3735"></path>
            <path d="M104.483463,177.446 L57.9104633,177.446 C57.0964633,177.446 56.4374633,176.787 56.4374633,175.973 C56.4374633,175.159 57.0964633,174.5 57.9104633,174.5 L104.483463,174.5 C105.297463,174.5 105.956463,175.159 105.956463,175.973 C105.956463,176.787 105.297463,177.446 104.483463,177.446" id="Fill-13" fill="#3B3735"></path>
            <path d="M36.2731633,37.4126 C35.8871633,37.4126 35.5011633,37.2616 35.2121633,36.9616 L24.0361633,25.3716 C23.4721633,24.7866 23.4891633,23.8536 24.0741633,23.2886 C24.6601633,22.7236 25.5931633,22.7416 26.1571633,23.3266 L37.3331633,34.9176 C37.8981633,35.5026 37.8811633,36.4346 37.2951633,36.9996 C37.0101633,37.2756 36.6411633,37.4126 36.2731633,37.4126" id="Fill-15" fill="#3B3735"></path>
            <path d="M136.651263,137.7912 C136.283263,137.7912 135.915263,137.6542 135.629263,137.3782 L124.246263,126.4092 C123.660263,125.8452 123.643263,124.9132 124.208263,124.3272 C124.772263,123.7402 125.705263,123.7242 126.290263,124.2882 L137.673263,135.2582 C138.259263,135.8222 138.276263,136.7542 137.711263,137.3402 C137.423263,137.6402 137.037263,137.7912 136.651263,137.7912" id="Fill-17" fill="#3B3735"></path>
            <path d="M24.7955633,138.5295 C24.4245633,138.5295 24.0535633,138.3905 23.7675633,138.1115 C23.1845633,137.5435 23.1725633,136.6115 23.7405633,136.0285 L34.9785633,124.4985 C35.5465633,123.9155 36.4795633,123.9045 37.0615633,124.4725 C37.6445633,125.0405 37.6565633,125.9725 37.0885633,126.5555 L25.8505633,138.0845 C25.5615633,138.3815 25.1785633,138.5295 24.7955633,138.5295" id="Fill-19" fill="#3B3735"></path>
            <path d="M125.505363,38.0669 C125.117363,38.0669 124.728363,37.9139 124.439363,37.6099 C123.878363,37.0209 123.900363,36.0889 124.489363,35.5279 L135.931363,24.6199 C136.518363,24.0599 137.451363,24.0809 138.013363,24.6699 C138.574363,25.2589 138.552363,26.1909 137.963363,26.7529 L126.521363,37.6599 C126.236363,37.9319 125.870363,38.0669 125.505363,38.0669" id="Fill-21" fill="#3B3735"></path>
            <path d="M17.5721633,82.3512 L17.5511633,82.3512 L1.45216327,82.1252 C0.639163269,82.1132 -0.0118367308,81.4452 1.54119339e-16,80.6312 C0.0111632692,79.8252 0.668163269,79.1792 1.47216327,79.1792 L1.49316327,79.1792 L17.5921633,79.4052 C18.4061633,79.4172 19.0561633,80.0852 19.0443268,80.8992 C19.0331633,81.7052 18.3761633,82.3512 17.5721633,82.3512" id="Fill-23" fill="#3B3735"></path>
            <g id="Group-27" transform="translate(142.2504, 78.8205)">
                <mask id="mask-2" fill="white">
                    <use xlink:href="#path-1"></use>
                </mask>
                <g id="Clip-26"></g>
                <path d="M1.47236832,3.304 C0.674368318,3.304 0.0183683178,2.666 0.000368317787,1.864 C-0.0176316822,1.051 0.626368318,0.377 1.43936832,0.359 L17.2433683,0.001 C17.2543683,-2.84217094e-14 17.2663683,-2.84217094e-14 17.2773683,-2.84217094e-14 C18.0753683,-2.84217094e-14 18.7313683,0.638 18.7493683,1.44 C18.7673683,2.253 18.1233683,2.927 17.3103683,2.946 L1.50636832,3.303 C1.49436832,3.304 1.48336832,3.304 1.47236832,3.304" id="Fill-25" fill="#3B3735" mask="url(#mask-2)"></path>
            </g>
            <g id="Group-30" transform="translate(78.8765, 0)">
                <mask id="mask-4" fill="white">
                    <use xlink:href="#path-3"></use>
                </mask>
                <g id="Clip-29"></g>
                <path d="M1.47336832,18.751 C1.46136832,18.751 1.45136832,18.751 1.43936832,18.75 C0.626368318,18.732 -0.0176316822,18.058 0.000368317787,17.245 L0.358368318,1.44 C0.376368318,0.626 1.06536832,-0.04 1.86436832,0.001 C2.67736832,0.02 3.32136832,0.694 3.30336832,1.507 L2.94536832,17.311 C2.92736832,18.113 2.27136832,18.751 1.47336832,18.751" id="Fill-28" fill="#3B3735" mask="url(#mask-4)"></path>
            </g>
            <path d="M80.7451633,306.074 C79.9311633,306.074 79.2721633,305.415 79.2721633,304.601 L79.2721633,278.647 C79.2721633,270.4 85.9811633,263.691 94.2281633,263.691 L118.674163,263.691 C127.906163,263.691 135.417163,256.18 135.417163,246.948 L135.417163,245.56 C135.417163,236.327 127.906163,228.816 118.674163,228.816 L37.2621633,228.816 C29.7031633,228.816 23.5531633,222.667 23.5531633,215.107 C23.5531633,207.548 29.7031633,201.397 37.2621633,201.397 L69.5181633,201.397 C76.1401633,201.397 81.5281633,196.01 81.5281633,189.388 L81.5281633,175.973 C81.5281633,175.159 82.1871633,174.5 83.0011633,174.5 C83.8141633,174.5 84.4741633,175.159 84.4741633,175.973 L84.4741633,189.388 C84.4741633,197.634 77.7641633,204.343 69.5181633,204.343 L37.2621633,204.343 C31.3271633,204.343 26.4991633,209.172 26.4991633,215.107 C26.4991633,221.042 31.3271633,225.87 37.2621633,225.87 L118.674163,225.87 C129.530163,225.87 138.363163,234.703 138.363163,245.56 L138.363163,246.948 C138.363163,257.804 129.530163,266.637 118.674163,266.637 L94.2281633,266.637 C87.6051633,266.637 82.2181633,272.025 82.2181633,278.647 L82.2181633,304.601 C82.2181633,305.415 81.5591633,306.074 80.7451633,306.074" id="Fill-31" fill="#3B3735"></path>
            <path d="M112.234163,78.6119 C112.234163,95.7539 98.3381633,109.6489 81.1971633,109.6489 C64.0551633,109.6489 50.1591633,95.7539 50.1591633,78.6119 C50.1591633,61.4709 64.0551633,47.5749 81.1971633,47.5749 C98.3381633,47.5749 112.234163,61.4709 112.234163,78.6119" id="Fill-33" fill="#DEE9B6"></path>
        </g>
    </g>
</svg>